,Date,Site Id,LE_bowen_corr(mm),Month,Climate,Vegetation,EEflux ET
0,2004-09-10,DE-Kli,2.172026298,9,Dfb,CRO,3.186266899
1,2007-03-12,DE-Kli,1.991263174,3,Dfb,CRO,1.719044805
2,2007-04-28,DE-Kli,1.424534392,4,Dfb,CRO,2.017661572
3,2007-08-19,DE-Kli,4.373098413,8,Dfb,CRO,2.828510523
4,2008-06-09,DE-Kli,4.454592242,6,Dfb,CRO,3.237899065
5,2008-06-17,DE-Kli,4.76517442,6,Dfb,CRO,4.82024622
6,2008-07-03,DE-Kli,5.164335368,7,Dfb,CRO,1.699241161
7,2008-07-27,DE-Kli,5.646145894,7,Dfb,CRO,4.684606552
8,2008-08-13,DE-Kli,3.937052508,8,Dfb,CRO,4.16547823
9,2009-06-12,DE-Kli,3.265626595,6,Dfb,CRO,1.643132091
10,2009-09-01,DE-Kli,4.493161123,9,Dfb,CRO,2.527062654
11,2009-09-08,DE-Kli,4.181602623,9,Dfb,CRO,2.402681112
12,2009-11-28,DE-Kli,1.077681502,11,Dfb,CRO,2.609826565
13,2010-04-28,DE-Kli,4.269719942,4,Dfb,CRO,4.52268362
14,2010-07-09,DE-Kli,5.332830803,7,Dfb,CRO,3.089289904
15,2010-07-10,DE-Kli,5.846834937,7,Dfb,CRO,3.421728373
16,2010-09-11,DE-Kli,2.014779881,9,Dfb,CRO,0.844465911
17,2010-10-06,DE-Kli,2.063468634,10,Dfb,CRO,2.746529818
18,2010-10-30,DE-Kli,1.34390955,10,Dfb,CRO,1.297321081
19,2011-05-01,DE-Kli,4.396978213,5,Dfb,CRO,4.481790066
20,2011-05-09,DE-Kli,5.455008946,5,Dfb,CRO,0.750538588
21,2011-05-26,DE-Kli,5.946100615,5,Dfb,CRO,5.264586926
22,2011-09-30,DE-Kli,3.115954436,9,Dfb,CRO,1.344524384
23,2011-11-01,DE-Kli,1.21972264,11,Dfb,CRO,1.407303333
24,2012-05-04,DE-Kli,1.493966067,5,Dfb,CRO,0.960923374
25,2012-05-27,DE-Kli,1.567182482,5,Dfb,CRO,1.206127524
26,2012-07-30,DE-Kli,3.79506361,7,Dfb,CRO,1.645185709
27,2012-08-08,DE-Kli,2.891488099,8,Dfb,CRO,1.602881193
28,2012-08-15,DE-Kli,2.750125171,8,Dfb,CRO,2.721968889
29,2012-09-16,DE-Kli,1.893026945,9,Dfb,CRO,3.185420275
30,2013-10-30,DE-Kli,1.618294589,10,Dfb,CRO,2.736709356
31,2013-11-06,DE-Kli,1.509006053,11,Dfb,CRO,0.620071471
32,2013-11-14,DE-Kli,1.790313098,11,Dfb,CRO,3.365659475
33,2013-12-16,DE-Kli,3.250793265,12,Dfb,CRO,3.592161179
34,2014-03-14,DE-Kli,2.270592118,3,Dfb,CRO,1.667385697
35,2014-03-30,DE-Kli,4.629576277,3,Dfb,CRO,1.481732488
36,2014-04-07,DE-Kli,3.852467615,4,Dfb,CRO,2.579414129
37,2014-04-23,DE-Kli,4.749823063,4,Dfb,CRO,4.126743317
38,2014-05-25,DE-Kli,6.675236728,5,Dfb,CRO,4.360504627
39,2014-05-26,DE-Kli,6.460489189,5,Dfb,CRO,2.497680902
40,2014-06-02,DE-Kli,5.377723603,6,Dfb,CRO,2.842937231
41,2014-07-04,DE-Kli,4.102562601,7,Dfb,CRO,2.327054501
42,2014-07-13,DE-Kli,3.46985493,7,Dfb,CRO,2.230010033
43,2014-09-06,DE-Kli,2.771448418,9,Dfb,CRO,1.451250076
44,2014-10-09,DE-Kli,4.103484538,10,Dfb,CRO,2.955680609
45,2014-10-16,DE-Kli,1.765821008,10,Dfb,CRO,2.724621058
46,2014-11-01,DE-Kli,2.192324305,11,Dfb,CRO,2.568943739
47,2014-11-02,DE-Kli,2.898885969,11,Dfb,CRO,3.723470449
48,2015-03-25,DE-Kli,4.423810717,3,Dfb,CRO,5.388710976
49,2015-04-10,DE-Kli,5.420398399,4,Dfb,CRO,4.082399845
50,2015-04-11,DE-Kli,5.747545468,4,Dfb,CRO,3.693672895
51,2015-04-27,DE-Kli,3.754371944,4,Dfb,CRO,1.821420074
52,2015-05-28,DE-Kli,4.073874901,5,Dfb,CRO,1.064328194
53,2015-06-05,DE-Kli,6.67203677,6,Dfb,CRO,5.969644547
54,2015-06-06,DE-Kli,5.94187048,6,Dfb,CRO,2.973540545
55,2015-07-31,DE-Kli,2.398642877,7,Dfb,CRO,2.817924738
56,2015-09-25,DE-Kli,2.707897016,9,Dfb,CRO,2.516218424
57,2015-10-03,DE-Kli,1.755825663,10,Dfb,CRO,1.672390819
58,2015-10-11,DE-Kli,1.878587395,10,Dfb,CRO,2.144194126
59,2015-10-12,DE-Kli,1.564060668,10,Dfb,CRO,2.133191824
60,2015-11-04,DE-Kli,1.1626023,11,Dfb,CRO,0.494592398
61,2016-03-28,DE-Kli,3.432582805,3,Dfb,CRO,1.992715359
62,2016-04-21,DE-Kli,4.455809041,4,Dfb,CRO,2.71982193
63,2016-04-28,DE-Kli,2.486903096,4,Dfb,CRO,2.799290419
64,2016-05-07,DE-Kli,7.228090889,5,Dfb,CRO,5.818086147
65,2016-05-14,DE-Kli,2.765706999,5,Dfb,CRO,4.191156864
66,2016-05-22,DE-Kli,7.990190132,5,Dfb,CRO,5.57045269
67,2016-09-11,DE-Kli,2.024630573,9,Dfb,CRO,1.062995315
68,2016-09-12,DE-Kli,2.361325267,9,Dfb,CRO,1.640466809
69,2016-09-27,DE-Kli,1.503274885,9,Dfb,CRO,0.743035793
70,2017-03-14,DE-Kli,1.145976636,3,Dfb,CRO,1.258903384
71,2017-05-09,DE-Kli,1.713559061,5,Dfb,CRO,1.218460798
72,2017-06-03,DE-Kli,4.574546104,6,Dfb,CRO,3.206347704
73,2017-08-05,DE-Kli,2.593092522,8,Dfb,CRO,3.719380617
74,2017-09-30,DE-Kli,2.205612105,9,Dfb,CRO,1.129761457
75,2017-10-16,DE-Kli,2.917868047,10,Dfb,CRO,1.99990201
76,2018-04-03,DE-Kli,4.4506021,4,Dfb,CRO,2.426237822
77,2018-06-30,DE-Kli,3.13736094,6,Dfb,CRO,3.304338217
78,2018-07-07,DE-Kli,3.306796016,7,Dfb,CRO,4.042013168
79,2018-07-15,DE-Kli,4.591405954,7,Dfb,CRO,4.171528339
80,2018-07-23,DE-Kli,4.089244098,7,Dfb,CRO,5.507452488
81,2018-08-01,DE-Kli,5.022458988,8,Dfb,CRO,4.784526348
82,2018-08-08,DE-Kli,4.423706413,8,Dfb,CRO,3.772996902
83,2018-08-16,DE-Kli,3.490238604,8,Dfb,CRO,3.403540611
84,2016-03-16,DE-RuS,2.390665411,3,Cfb,CRO,1.059225321
85,2017-03-10,DE-RuS,3.052549433,3,Cfb,CRO,1.685737371
86,2018-02-25,DE-RuS,2.094660536,2,Cfb,CRO,1.141979218
87,2018-03-29,DE-RuS,3.979115639,3,Cfb,CRO,0.897364736
88,2018-03-30,DE-RuS,4.625149214,3,Cfb,CRO,3.025732756
89,2018-04-07,DE-RuS,7.217938683,4,Cfb,CRO,3.255389929
90,2018-06-26,DE-RuS,4.207783993,6,Cfb,CRO,3.788681507
91,2018-07-03,DE-RuS,4.05452005,7,Cfb,CRO,3.833168745
92,2008-10-20,DE-Seh,1.707359082,10,Cfb,CRO,0.956559598
93,2009-07-02,DE-Seh,3.996617865,7,Cfb,CRO,1.463417053
94,2010-06-04,DE-Seh,4.736900589,6,Cfb,CRO,2.183549166
95,2010-06-28,DE-Seh,4.282016802,6,Cfb,CRO,1.615260005
96,2010-10-09,DE-Seh,2.13591699,10,Cfb,CRO,0.481508523
97,2006-04-15,DK-Ris,2.719661396,4,Cfb,CRO,1.039481878
98,2006-06-10,DK-Ris,4.789761118,6,Cfb,CRO,5.303085327
99,2006-06-18,DK-Ris,4.300892609,6,Cfb,CRO,3.88342762
100,2006-07-05,DK-Ris,3.499891602,7,Cfb,CRO,4.117475986
101,2006-07-13,DK-Ris,3.772044655,7,Cfb,CRO,4.275231361
102,2007-10-19,DK-Ris,1.264466132,10,Cfb,CRO,1.483781815
103,2008-03-27,DK-Ris,1.404392753,3,Cfb,CRO,2.084807396
104,2008-04-21,DK-Ris,5.711449084,4,Cfb,CRO,2.464826822
105,2008-05-22,DK-Ris,2.820074268,5,Cfb,CRO,2.898472548
106,2008-05-31,DK-Ris,4.322395823,5,Cfb,CRO,6.287763596
107,2001-07-27,FI-Jok,5.24918151,7,Dfb,CRO,3.241047621
108,2001-07-28,FI-Jok,4.426531906,7,Dfb,CRO,1.828787804
109,2001-08-05,FI-Jok,4.217288052,8,Dfb,CRO,0.926655471
110,2002-04-09,FI-Jok,1.272638882,4,Dfb,CRO,1.750502229
111,2002-05-27,FI-Jok,3.445049493,5,Dfb,CRO,3.097968578
112,2002-06-05,FI-Jok,3.915080774,6,Dfb,CRO,2.063460588
113,2002-06-13,FI-Jok,1.397937841,6,Dfb,CRO,1.14479816
114,2003-07-18,FI-Jok,5.987256307,7,Dfb,CRO,0.610162616
115,2014-05-19,FR-Gri,6.673838383,5,Cfb,CRO,3.867381811
116,2015-06-06,FR-Gri,1.548513423,6,Cfb,CRO,0.787284791
117,2015-07-16,FR-Gri,3.137898035,7,Cfb,CRO,0.367529929
118,2015-10-28,FR-Gri,1.062424202,10,Cfb,CRO,2.518352747
119,2015-06-25,US-A32,8.140179881,6,Cfa,GRA,3.395294666
120,2015-07-19,US-A32,8.721020491,7,Cfa,GRA,3.391964436
121,2015-09-05,US-A32,4.422281203,9,Cfa,GRA,3.442427874
122,2015-09-13,US-A32,4.062106344,9,Cfa,GRA,0.798952937
123,2016-03-31,US-A32,2.201650334,3,Cfa,GRA,1.824133158
124,2016-06-19,US-A32,5.135889796,6,Cfa,GRA,4.496179104
125,2016-07-13,US-A32,5.248269467,7,Cfa,GRA,1.237440586
126,2016-08-22,US-A32,3.687313953,8,Cfa,GRA,3.586106062
127,2016-09-23,US-A32,2.788971214,9,Cfa,GRA,4.217803001
128,2016-10-17,US-A32,6.553851771,10,Cfa,GRA,1.954825282
129,2017-03-10,US-A32,1.101647541,3,Cfa,GRA,1.570949912
130,2017-03-18,US-A32,1.845196895,3,Cfa,GRA,1.37712419
131,2017-04-03,US-A32,3.63668911,4,Cfa,GRA,3.146806479
132,2017-04-19,US-A32,4.116891682,4,Cfa,GRA,2.241171837
133,2016-03-31,US-A74,1.736425206,3,Cfa,CRO,2.68681097
134,2016-04-24,US-A74,6.137785119,4,Cfa,CRO,6.348655701
135,2016-07-05,US-A74,8.61486631,7,Cfa,CRO,6.313183784
136,2016-07-13,US-A74,8.498860831,7,Cfa,CRO,8.973931313
137,2016-07-21,US-A74,9.224053325,7,Cfa,CRO,8.86310482
138,2016-09-07,US-A74,2.298599578,9,Cfa,CRO,4.354001999
139,2016-09-23,US-A74,2.599157929,9,Cfa,CRO,4.184131145
140,2016-10-17,US-A74,3.541748114,10,Cfa,CRO,4.51777029
141,2017-03-10,US-A74,1.333491662,3,Cfa,CRO,1.199967265
142,2017-03-18,US-A74,1.805359329,3,Cfa,CRO,1.632922292
143,2017-04-19,US-A74,4.592775917,4,Cfa,CRO,3.787490845
144,2017-09-18,US-A74,4.624446454,9,Cfa,CRO,4.164859772
145,2009-06-23,US-AR1,3.969497921,6,Dsa,GRA,2.118258476
146,2009-07-25,US-AR1,2.332766251,7,Dsa,GRA,2.357088327
147,2009-08-10,US-AR1,1.069920165,8,Dsa,GRA,0.403368145
148,2010-03-06,US-AR1,1.38636529,3,Dsa,GRA,2.291767359
149,2010-06-02,US-AR1,4.943439461,6,Dsa,GRA,4.829678059
150,2010-06-18,US-AR1,6.340641198,6,Dsa,GRA,2.954604387
151,2010-07-12,US-AR1,5.27909262,7,Dsa,GRA,2.494145632
152,2010-07-28,US-AR1,4.99412861,7,Dsa,GRA,4.4526338580000004
153,2010-08-21,US-AR1,2.744690092,8,Dsa,GRA,3.205363274
154,2011-03-09,US-AR1,1.745593717,3,Dsa,GRA,1.067070007
155,2011-05-12,US-AR1,2.006094337,5,Dsa,GRA,1.161628246
156,2012-02-24,US-AR1,1.299355969,2,Dsa,GRA,1.283011913
157,2012-09-03,US-AR1,1.541659879,9,Dsa,GRA,2.341912508
158,2017-05-05,US-Bi2,2.563345132,5,Csa,CRO,1.824742436
159,2017-05-13,US-Bi2,2.233554329,5,Csa,CRO,0.808337033
160,2017-05-14,US-Bi2,2.398269338,5,Csa,CRO,0.902888179
161,2017-06-06,US-Bi2,1.584279565,6,Csa,CRO,0.76872474
162,2017-06-22,US-Bi2,4.996393262,6,Csa,CRO,4.032144547
163,2017-07-16,US-Bi2,10.14942714,7,Csa,CRO,6.371263504
164,2017-07-24,US-Bi2,6.287583352,7,Csa,CRO,6.556884289
165,2017-08-02,US-Bi2,8.98230135,8,Csa,CRO,4.583256721
166,2017-08-09,US-Bi2,5.666349184,8,Csa,CRO,4.666680813
167,2017-09-10,US-Bi2,4.669292879,9,Csa,CRO,4.091136932
168,2017-11-05,US-Bi2,1.018557943,11,Csa,CRO,3.002398252
169,2018-02-01,US-Bi2,3.120512862,2,Csa,CRO,2.697110176
170,2018-02-25,US-Bi2,3.655254672,2,Csa,CRO,2.429801941
171,2018-03-05,US-Bi2,4.051697123,3,Csa,CRO,1.735111952
172,2018-03-29,US-Bi2,4.5042914,3,Csa,CRO,0.994120479
173,2018-04-14,US-Bi2,5.723758827,4,Csa,CRO,2.211139679
174,2018-04-15,US-Bi2,4.420471044,4,Csa,CRO,4.482334614
175,2018-04-22,US-Bi2,3.889563322,4,Csa,CRO,2.049514294
176,2018-05-08,US-Bi2,3.619873639,5,Csa,CRO,3.267516375
177,2018-06-02,US-Bi2,1.941440033,6,Csa,CRO,3.494026184
178,2018-06-17,US-Bi2,2.831973202,6,Csa,CRO,3.332622528
179,2018-07-03,US-Bi2,5.400852721,7,Csa,CRO,3.484327078
180,2018-07-04,US-Bi2,4.730232868,7,Csa,CRO,2.655340195
181,2018-07-27,US-Bi2,7.673153268,7,Csa,CRO,5.47671175
182,2018-08-04,US-Bi2,8.015306685,8,Csa,CRO,7.336867809
183,2018-08-05,US-Bi2,5.385579965,8,Csa,CRO,5.910307884
184,2018-08-12,US-Bi2,6.706058985,8,Csa,CRO,4.438602924
185,2018-08-28,US-Bi2,3.284449831,8,Csa,CRO,4.328504562
186,2018-09-06,US-Bi2,3.638816101,9,Csa,CRO,3.688713789
187,2018-09-13,US-Bi2,2.786498678,9,Csa,CRO,2.439720392
188,2018-11-09,US-Bi2,1.072873638,11,Csa,CRO,1.796596766
189,2018-12-02,US-Bi2,2.055763325,12,Csa,CRO,1.048386216
190,2006-04-19,US-Ced,2.850349238,4,Cfa,CSH,2.469489574
191,2006-04-28,US-Ced,2.738675154,4,Cfa,CSH,4.114170074
192,2006-05-30,US-Ced,4.644474575,5,Cfa,CSH,6.543388367
193,2006-07-16,US-Ced,5.082389372,7,Cfa,CSH,6.464594364
194,2006-07-17,US-Ced,5.367622097,7,Cfa,CSH,5.336200237
195,2007-04-22,US-Ced,2.744383901,4,Cfa,CSH,4.732915401
196,2007-04-30,US-Ced,3.107069584,4,Cfa,CSH,3.297916174
197,2007-05-24,US-Ced,3.283174929,5,Cfa,CSH,4.956610203
198,2007-06-02,US-Ced,3.925102082,6,Cfa,CSH,2.895573378
199,2007-06-18,US-Ced,3.96929071,6,Cfa,CSH,4.510378838
200,2007-07-12,US-Ced,4.605406819,7,Cfa,CSH,4.132531166
201,2007-08-12,US-Ced,4.557172666,8,Cfa,CSH,5.60760498
202,2007-08-28,US-Ced,3.399227403,8,Cfa,CSH,5.930178165
203,2007-09-06,US-Ced,3.478352299,9,Cfa,CSH,6.316411972
204,2007-09-29,US-Ced,2.237020608,9,Cfa,CSH,2.41403842
205,2007-10-15,US-Ced,1.935817613,10,Cfa,CSH,0.535581648
206,2008-04-16,US-Ced,1.740036776,4,Cfa,CSH,4.488078594
207,2008-04-24,US-Ced,2.365685002,4,Cfa,CSH,1.920293093
208,2008-06-12,US-Ced,3.749248763,6,Cfa,CSH,3.794128656
209,2008-07-21,US-Ced,3.824849077,7,Cfa,CSH,3.887673378
210,2008-08-07,US-Ced,3.780520398,8,Cfa,CSH,4.326778412
211,2008-08-22,US-Ced,2.818608396,8,Cfa,CSH,5.126366615
212,2008-09-23,US-Ced,2.407436296,9,Cfa,CSH,4.83305788
213,2008-10-10,US-Ced,3.229598278,10,Cfa,CSH,5.380217075
214,2008-12-29,US-Ced,1.269613535,12,Cfa,CSH,2.072934389
215,2009-08-17,US-Ced,4.139182669,8,Cfa,CSH,4.891768932
216,2009-09-02,US-Ced,3.901936217,9,Cfa,CSH,7.446301937
217,2009-09-19,US-Ced,3.230667524,9,Cfa,CSH,3.062517405
218,2010-05-01,US-Ced,4.207500957,5,Cfa,CSH,3.597079039
219,2010-05-25,US-Ced,4.395922564,5,Cfa,CSH,5.343523979
220,2010-06-17,US-Ced,4.954845002,6,Cfa,CSH,3.81262517
221,2010-10-08,US-Ced,3.11572437,10,Cfa,CSH,1.511776209
222,2010-11-09,US-Ced,1.031796599,11,Cfa,CSH,1.4726336
223,2011-07-14,US-Ced,4.592691047,7,Cfa,CSH,7.131385326
224,2011-07-22,US-Ced,4.24354454,7,Cfa,CSH,8.446550369
225,2011-07-31,US-Ced,4.503140924,7,Cfa,CSH,6.013785362
226,2011-08-23,US-Ced,4.760430067,8,Cfa,CSH,3.703355312
227,2011-09-01,US-Ced,4.106089113,9,Cfa,CSH,4.539084911
228,2011-11-12,US-Ced,1.462018903,11,Cfa,CSH,0.757345378
229,2012-04-03,US-Ced,2.160455272,4,Cfa,CSH,2.809712172
230,2012-07-24,US-Ced,5.663439391,7,Cfa,CSH,3.900573492
231,2012-09-10,US-Ced,4.494532978,9,Cfa,CSH,3.106532097
232,2012-10-21,US-Ced,2.353378387,10,Cfa,CSH,1.756373525
233,2013-08-05,US-Ced,4.895626492,8,Cfa,CSH,4.965390682
234,2014-04-09,US-Ced,2.134522186,4,Cfa,CSH,3.358754635
235,2014-04-10,US-Ced,2.030588206,4,Cfa,CSH,3.884228468
236,2014-04-26,US-Ced,3.394311579,4,Cfa,CSH,1.254547238
237,2014-10-18,US-Ced,2.66513636,10,Cfa,CSH,2.951735258
238,2007-08-23,US-FR2,4.906735584,8,Cfa,WSA,6.881872177
239,2002-06-03,US-Goo,6.553553139,6,Cfa,GRA,5.057304382
240,2002-06-19,US-Goo,5.845515117,6,Cfa,GRA,4.052684784
241,2002-08-05,US-Goo,6.753019831,8,Cfa,GRA,5.354084492
242,2002-08-14,US-Goo,4.708949618,8,Cfa,GRA,4.294603825
243,2002-08-29,US-Goo,4.464623845,8,Cfa,GRA,3.840248823
244,2002-09-22,US-Goo,3.226429465,9,Cfa,GRA,1.881924748
245,2002-10-16,US-Goo,2.149719771,10,Cfa,GRA,2.386933088
246,2002-12-20,US-Goo,1.85493079,12,Cfa,GRA,1.05458653
247,2003-05-28,US-Goo,5.419237787,5,Cfa,GRA,4.095631123
248,2003-07-15,US-Goo,6.363862225,7,Cfa,GRA,5.476016521
249,2003-07-23,US-Goo,5.305048966,7,Cfa,GRA,4.152947426
250,2004-03-27,US-Goo,3.4644633,3,Cfa,GRA,4.276696205
251,2004-08-18,US-Goo,5.117146144,8,Cfa,GRA,5.175475121
252,2004-09-28,US-Goo,3.077697763,9,Cfa,GRA,3.971240044
253,2005-10-08,US-Goo,2.438070156,10,Cfa,GRA,2.073215961
254,2005-11-02,US-Goo,1.583498871,11,Cfa,GRA,1.308443546
255,2006-09-04,US-Kon,3.644895972,9,Cfa,GRA,3.894510508
256,2006-09-20,US-Kon,3.665089286,9,Cfa,GRA,4.794486046
257,2007-05-19,US-Kon,5.149714617,5,Cfa,GRA,5.824785709
258,2007-08-22,US-Kon,4.494528894,8,Cfa,GRA,1.021326423
259,2007-08-31,US-Kon,4.052532074,8,Cfa,GRA,3.11806798
260,2007-09-08,US-Kon,3.13539953,9,Cfa,GRA,3.487090588
261,2007-09-24,US-Kon,3.593937225,9,Cfa,GRA,2.450853348
262,2008-05-12,US-Kon,3.655585316,5,Cfa,GRA,2.307102203
263,2008-06-21,US-Kon,7.233291295,6,Cfa,GRA,5.801305294
264,2008-07-07,US-Kon,8.381658797,7,Cfa,GRA,5.471085072
265,2008-07-16,US-Kon,7.187783256,7,Cfa,GRA,3.591543674
266,2008-09-01,US-Kon,5.126237759,9,Cfa,GRA,2.84672308
267,2008-09-17,US-Kon,4.347160564,9,Cfa,GRA,4.496490002
268,2008-09-26,US-Kon,3.865703976,9,Cfa,GRA,3.088123798
269,2009-06-01,US-Kon,10.53165527,6,Cfa,GRA,4.770293236
270,2009-06-24,US-Kon,8.300355477,6,Cfa,GRA,6.281275272
271,2009-07-11,US-Kon,4.992095623,7,Cfa,GRA,4.623743057
272,2009-07-19,US-Kon,6.36632526,7,Cfa,GRA,5.144994259
273,2009-07-27,US-Kon,5.089156401,7,Cfa,GRA,6.810905457
274,2009-08-20,US-Kon,5.272681675,8,Cfa,GRA,2.379404068
275,2009-09-28,US-Kon,3.102957075,9,Cfa,GRA,4.518531322
276,2009-10-07,US-Kon,1.773355172,10,Cfa,GRA,1.34613955
277,2010-03-31,US-Kon,1.430972359,3,Cfa,GRA,0.973374605
278,2010-05-02,US-Kon,4.071398044,5,Cfa,GRA,0.499347329
279,2010-06-03,US-Kon,6.708229139,6,Cfa,GRA,3.838148117
280,2010-06-28,US-Kon,6.467281955,6,Cfa,GRA,4.837939739
281,2010-07-14,US-Kon,8.514655849,7,Cfa,GRA,5.285021782
282,2010-08-06,US-Kon,5.780536482,8,Cfa,GRA,5.12844944
283,2010-08-22,US-Kon,5.197754183,8,Cfa,GRA,5.108096123
284,2011-06-06,US-Kon,9.498874007,6,Cfa,GRA,7.037987232
285,2011-07-25,US-Kon,5.663008026,7,Cfa,GRA,6.037320614
286,2011-08-02,US-Kon,4.904681391,8,Cfa,GRA,2.684110641
287,2012-03-04,US-Kon,1.037262098,3,Cfa,GRA,1.41017127
288,2012-05-23,US-Kon,5.761674371,5,Cfa,GRA,3.929662228
289,2012-08-11,US-Kon,1.871029896,8,Cfa,GRA,3.005924225
290,2005-05-11,US-Me2,3.206064006,5,Csb,ENF,5.155408859
291,2005-06-04,US-Me2,3.274036,6,Csb,ENF,2.323976755
292,2005-06-20,US-Me2,4.969941135,6,Csb,ENF,6.338955402
293,2005-08-15,US-Me2,1.059669682,8,Csb,ENF,2.233620167
294,2007-03-30,US-Me2,3.032654221,3,Csb,ENF,3.417024136
295,2007-04-23,US-Me2,2.70202194,4,Csb,ENF,3.644748449
296,2007-05-17,US-Me2,3.259231181,5,Csb,ENF,0.350987166
297,2018-04-21,US-Me2,2.034399486,4,Csb,ENF,2.371570587
298,2018-05-07,US-Me2,3.240999838,5,Csb,ENF,5.674500942
299,2018-06-24,US-Me2,3.269024172,6,Csb,ENF,4.182942867
300,2018-07-10,US-Me2,2.588741052,7,Csb,ENF,2.520195961
301,2018-07-26,US-Me2,2.031660369,7,Csb,ENF,2.549282551
302,2016-03-22,US-Me6,1.89047237,3,Csb,ENF,0.520208955
303,2016-04-07,US-Me6,2.373660635,4,Csb,ENF,1.625383496
304,2016-05-01,US-Me6,2.306066865,5,Csb,ENF,2.340423584
305,2016-06-10,US-Me6,1.720137197,6,Csb,ENF,2.302098036
306,2016-07-04,US-Me6,2.355824612,7,Csb,ENF,3.024712324
307,2016-07-20,US-Me6,1.59795429,7,Csb,ENF,2.45508337
308,2016-08-05,US-Me6,1.344977598,8,Csb,ENF,0.882237315
309,2016-08-21,US-Me6,1.25925757,8,Csb,ENF,0.666716695
310,2017-03-25,US-Me6,1.59726502,3,Csb,ENF,0.492453009
311,2017-05-28,US-Me6,3.988802283,5,Csb,ENF,3.165166616
312,2017-10-03,US-Me6,1.212488225,10,Csb,ENF,0.445562899
313,2000-03-12,US-Pon,4.06793496,3,Cfa,CRO,3.086003304
314,2000-03-27,US-Pon,5.468821975,3,Cfa,CRO,4.950716496
315,2006-02-04,US-SO2,1.012053126,2,Csa,CSH,1.020228028
316,2006-04-09,US-SO2,2.21540358,4,Csa,CSH,2.004034996
317,2006-04-25,US-SO2,1.89478886,4,Csa,CSH,0.821206152
318,2006-05-28,US-SO2,2.833956999,5,Csa,CSH,2.067611933
319,2006-11-28,US-Skr,3.468060485,11,Cwa,EBF,3.994377851
320,2007-04-29,US-Skr,6.008003752,4,Cwa,EBF,7.583893776
321,2007-05-07,US-Skr,6.524366415,5,Cwa,EBF,8.448843956
322,2007-07-10,US-Skr,7.442561443,7,Cwa,EBF,7.74359417
323,2007-08-03,US-Skr,7.604731936,8,Cwa,EBF,7.321763992
324,2007-08-27,US-Skr,6.137237725,8,Cwa,EBF,1.741268873
325,2007-09-04,US-Skr,6.126217332,9,Cwa,EBF,5.912825584
326,2007-09-12,US-Skr,4.728371015,9,Cwa,EBF,1.608066916
327,2008-02-11,US-Skr,4.512639223,2,Cwa,EBF,10.61590862
328,2008-04-07,US-Skr,6.71838097,4,Cwa,EBF,5.794416428
329,2008-04-23,US-Skr,5.571040464,4,Cwa,EBF,7.555754662
330,2008-05-09,US-Skr,4.863980284,5,Cwa,EBF,4.991215706
331,2010-07-26,US-Skr,6.069412677,7,Cwa,EBF,4.940324783
332,2010-08-19,US-Skr,5.88410842,8,Cwa,EBF,5.54998064
333,2010-08-27,US-Skr,6.237517403,8,Cwa,EBF,2.041417122
334,2010-12-01,US-Skr,2.670295304,12,Cwa,EBF,2.255886078
335,2010-12-25,US-Skr,1.692890837,12,Cwa,EBF,1.228938103
336,2011-01-01,US-Skr,1.591382037,1,Cwa,EBF,2.423929214
337,2011-01-02,US-Skr,1.799513268,1,Cwa,EBF,1.651821494
338,2011-01-18,US-Skr,1.509026988,1,Cwa,EBF,1.471554399
339,2011-03-07,US-Skr,3.478132385,3,Cwa,EBF,5.15047121
340,2011-03-23,US-Skr,3.375653725,3,Cwa,EBF,5.010143757
341,2011-03-31,US-Skr,3.389420951,3,Cwa,EBF,3.683980465
342,2011-04-08,US-Skr,4.133143666,4,Cwa,EBF,4.183904171
343,2011-04-24,US-Skr,4.863649619,4,Cwa,EBF,6.132584095
344,2011-05-02,US-Skr,5.491979423,5,Cwa,EBF,5.905658245
345,2011-05-10,US-Skr,4.75110539,5,Cwa,EBF,6.595211506
346,2011-05-26,US-Skr,3.987687544,5,Cwa,EBF,3.196647406
347,2012-06-08,US-Tw2,2.143454953,6,Csa,CRO,1.95517683
348,2012-06-24,US-Tw2,2.852958688,6,Csa,CRO,1.537588239
349,2012-07-10,US-Tw2,6.260422961,7,Csa,CRO,3.057384014
350,2012-07-26,US-Tw2,4.816500593,7,Csa,CRO,5.262246132
351,2012-08-11,US-Tw2,7.918426691,8,Csa,CRO,7.1160326
352,2013-03-23,US-Tw2,3.227728672,3,Csa,CRO,3.178313494
353,2013-04-08,US-Tw2,5.819255292,4,Csa,CRO,5.112141609
354,2013-04-09,US-Tw2,5.539632428,4,Csa,CRO,4.838779449
355,2013-04-16,US-Tw2,4.613878612,4,Csa,CRO,6.223731041
356,2013-06-03,US-Tw3,7.273595783,6,Csa,CRO,7.778646469
357,2013-06-19,US-Tw3,7.894167537,6,Csa,CRO,6.919080734
358,2013-07-05,US-Tw3,7.33359267,7,Csa,CRO,4.610528946
359,2013-07-13,US-Tw3,7.814329755,7,Csa,CRO,6.847801208
360,2013-07-21,US-Tw3,8.149309729,7,Csa,CRO,5.521495342
361,2013-07-29,US-Tw3,5.651126699,7,Csa,CRO,5.390996456
362,2013-08-06,US-Tw3,5.292071653,8,Csa,CRO,2.791322708
363,2013-08-14,US-Tw3,3.260258467,8,Csa,CRO,3.524366856
364,2013-08-22,US-Tw3,3.322521631,8,Csa,CRO,4.335748672
365,2013-08-30,US-Tw3,6.11441346,8,Csa,CRO,4.36262989
366,2013-09-07,US-Tw3,5.433688321,9,Csa,CRO,5.497865677
367,2013-09-15,US-Tw3,5.111665872,9,Csa,CRO,5.306603909
368,2013-09-23,US-Tw3,4.336975474,9,Csa,CRO,2.085497618
369,2013-10-01,US-Tw3,2.204540374,10,Csa,CRO,2.287196875
370,2013-10-09,US-Tw3,2.456235046,10,Csa,CRO,2.790401697
371,2013-10-17,US-Tw3,2.551793895,10,Csa,CRO,2.65767312
372,2013-10-25,US-Tw3,1.914373283,10,Csa,CRO,1.001299381
373,2013-11-10,US-Tw3,1.140415799,11,Csa,CRO,1.047069788
374,2014-03-10,US-Tw3,3.264785869,3,Csa,CRO,2.802754879
375,2014-03-18,US-Tw3,4.638064544,3,Csa,CRO,6.776854992
376,2014-04-19,US-Tw3,6.268492062,4,Csa,CRO,5.7452178
377,2014-05-05,US-Tw3,6.053663968,5,Csa,CRO,5.760111332
378,2014-06-22,US-Tw3,3.816995313,6,Csa,CRO,2.537704945
379,2014-06-30,US-Tw3,8.015534072,6,Csa,CRO,7.147830009
380,2014-07-08,US-Tw3,7.804982883,7,Csa,CRO,6.876622677
381,2014-07-24,US-Tw3,6.803338244,7,Csa,CRO,6.462664127
382,2014-08-09,US-Tw3,4.460339175,8,Csa,CRO,2.647813559
383,2014-08-17,US-Tw3,5.54636138,8,Csa,CRO,4.461704731
384,2014-10-04,US-Tw3,4.566997523,10,Csa,CRO,5.127492428
385,2014-10-12,US-Tw3,5.675400136,10,Csa,CRO,7.697583199
386,2015-02-09,US-Tw3,3.388465683,2,Csa,CRO,0.412699044
387,2015-02-17,US-Tw3,1.74480816,2,Csa,CRO,1.880277395
388,2015-02-25,US-Tw3,2.281233039,2,Csa,CRO,2.361523628
389,2015-03-05,US-Tw3,2.730607421,3,Csa,CRO,2.853145599
390,2015-03-13,US-Tw3,3.081013822,3,Csa,CRO,2.387942791
391,2015-03-29,US-Tw3,5.016486024,3,Csa,CRO,3.15712142
392,2015-04-14,US-Tw3,4.32664438,4,Csa,CRO,4.096755028
393,2015-04-30,US-Tw3,5.880218914,4,Csa,CRO,4.292040348
394,2015-05-08,US-Tw3,4.723701457,5,Csa,CRO,3.300622463
395,2015-05-16,US-Tw3,5.2573395,5,Csa,CRO,4.779061317
396,2015-05-24,US-Tw3,5.951028685,5,Csa,CRO,5.614169121
397,2015-06-01,US-Tw3,5.869529994,6,Csa,CRO,6.012562752
398,2015-06-17,US-Tw3,7.750522767,6,Csa,CRO,7.79499054
399,2015-07-03,US-Tw3,8.051411555,7,Csa,CRO,7.387852192
400,2015-07-11,US-Tw3,6.617900205,7,Csa,CRO,6.497634411
401,2015-07-19,US-Tw3,6.729414032,7,Csa,CRO,2.702241659
402,2015-08-20,US-Tw3,4.756482181,8,Csa,CRO,4.255374908
403,2015-10-07,US-Tw3,3.453636628,10,Csa,CRO,2.782778978
404,2015-11-16,US-Tw3,1.533981332,11,Csa,CRO,1.357157946
405,2016-03-15,US-Tw3,3.839449753,3,Csa,CRO,2.984264612
406,2016-04-16,US-Tw3,5.811923378,4,Csa,CRO,1.69063592
407,2016-05-02,US-Tw3,6.295029164,5,Csa,CRO,4.314669609
408,2016-05-10,US-Tw3,6.928803614,5,Csa,CRO,4.832777977
409,2016-05-18,US-Tw3,8.820997899,5,Csa,CRO,1.576662779
410,2016-06-11,US-Tw3,4.808798348,6,Csa,CRO,3.179531336
411,2016-06-19,US-Tw3,6.641596081,6,Csa,CRO,2.990587473
412,2016-06-27,US-Tw3,9.106719259,6,Csa,CRO,6.487117767
413,2016-07-05,US-Tw3,2.923880409,7,Csa,CRO,4.7579240800000004
414,2016-07-13,US-Tw3,4.547760981,7,Csa,CRO,3.827381849
415,2016-07-21,US-Tw3,4.664214061,7,Csa,CRO,3.470972061
416,2016-07-29,US-Tw3,8.317885713,7,Csa,CRO,1.63234663
417,2016-08-06,US-Tw3,2.471014796,8,Csa,CRO,1.413645029
418,2016-08-14,US-Tw3,3.054115523,8,Csa,CRO,2.671939373
419,2016-10-09,US-Tw3,2.844991377,10,Csa,CRO,2.252220869
420,2017-04-19,US-Tw3,5.213113463,4,Csa,CRO,4.802175045
421,2017-04-27,US-Tw3,6.596627485,4,Csa,CRO,4.801235199
422,2017-05-05,US-Tw3,6.478172175,5,Csa,CRO,5.156462193
423,2017-05-13,US-Tw3,6.132543914,5,Csa,CRO,7.544161797
424,2017-05-21,US-Tw3,8.158813298,5,Csa,CRO,2.115884542
425,2017-06-06,US-Tw3,5.224003151,6,Csa,CRO,3.858279228
426,2017-06-14,US-Tw3,7.336553115,6,Csa,CRO,3.745801449
427,2017-06-22,US-Tw3,5.00300394,6,Csa,CRO,3.399282932
428,2017-07-08,US-Tw3,7.285265356,7,Csa,CRO,3.342122316
429,2017-07-16,US-Tw3,7.818060945,7,Csa,CRO,3.747420311
430,2017-07-24,US-Tw3,1.811469145,7,Csa,CRO,2.057631731
431,2017-08-01,US-Tw3,4.686679313,8,Csa,CRO,3.13728261
432,2017-08-17,US-Tw3,3.242196546,8,Csa,CRO,2.59595108
433,2017-08-25,US-Tw3,2.730325468,8,Csa,CRO,1.650228858
434,2017-09-02,US-Tw3,3.934437204,9,Csa,CRO,2.360833645
435,2017-09-10,US-Tw3,3.805276063,9,Csa,CRO,2.412978649
436,2017-09-18,US-Tw3,3.096827694,9,Csa,CRO,7.438495159
437,2017-09-26,US-Tw3,2.388752826,9,Csa,CRO,1.648041844
438,2017-10-04,US-Tw3,2.171728491,10,Csa,CRO,1.452550411
439,2017-10-12,US-Tw3,2.591660564,10,Csa,CRO,2.200290918
440,2017-10-28,US-Tw3,2.50721988,10,Csa,CRO,1.534075379
441,2017-11-05,US-Tw3,1.98956736,11,Csa,CRO,1.825860143
442,2017-11-29,US-Tw3,1.36559159,11,Csa,CRO,0.558413029
443,2018-02-01,US-Tw3,2.450365014,2,Csa,CRO,2.632772207
444,2018-02-17,US-Tw3,2.508752219,2,Csa,CRO,2.434914351
445,2018-02-25,US-Tw3,2.57809608,2,Csa,CRO,2.0648458
446,2018-03-05,US-Tw3,2.783508024,3,Csa,CRO,2.260071516
447,2018-03-29,US-Tw3,4.951207788,3,Csa,CRO,4.318966866
448,2018-04-14,US-Tw3,3.244855405,4,Csa,CRO,3.292108774
449,2018-04-22,US-Tw3,4.83622171,4,Csa,CRO,3.96959734
450,2018-04-30,US-Tw3,4.118912405,4,Csa,CRO,4.052640438
451,2001-08-29,US-Wlr,2.363797471,8,Cfa,GRA,1.379742861
452,2001-09-22,US-Wlr,3.390211452,9,Cfa,GRA,2.968254328
453,2001-10-17,US-Wlr,1.551577554,10,Cfa,GRA,0.669505954
454,2002-04-10,US-Wlr,2.986474464,4,Cfa,GRA,2.01210022
455,2002-05-21,US-Wlr,5.030067554,5,Cfa,GRA,3.195002794
456,2002-06-22,US-Wlr,7.180804756,6,Cfa,GRA,5.24316597
457,2002-07-24,US-Wlr,5.915035412,7,Cfa,GRA,5.442691803
458,2002-08-25,US-Wlr,5.153477017,8,Cfa,GRA,4.258979797
459,2002-09-17,US-Wlr,3.645536096,9,Cfa,GRA,3.316910744
460,2002-11-13,US-Wlr,1.193676474,11,Cfa,GRA,1.633146882
461,2003-04-13,US-Wlr,2.325029008,4,Cfa,GRA,3.241449594
462,2003-04-29,US-Wlr,5.00888953,4,Cfa,GRA,7.47583437
463,2003-07-27,US-Wlr,3.974386072,7,Cfa,GRA,3.312187195
464,2003-08-19,US-Wlr,3.405753498,8,Cfa,GRA,3.652558565
465,2004-02-27,US-Wlr,1.054928927,2,Cfa,GRA,2.211178303
466,2004-05-17,US-Wlr,5.82937332,5,Cfa,GRA,2.974057198
467,2004-07-13,US-Wlr,7.892056649,7,Cfa,GRA,4.579813957
468,2004-08-14,US-Wlr,5.573510926,8,Cfa,GRA,5.101579666
