,Eta,Eta-predicted
0,4.229000877,4.591634545
1,3.765524492,5.487623425
2,1.029113822,2.198517889
3,1.810572426,2.341758735
4,4.466134547,5.759654574
5,5.950749098,6.056416325
6,3.837102821,2.835165918
7,2.426422951,3.283320515
8,2.028127314,3.252699451
9,1.611162515,1.134978145
10,1.596434007,2.557339935
11,1.59072283,3.085542955
12,1.285791301,2.429500844
13,2.235386305,2.588502822
14,1.185410035,2.856070727
15,3.403145313,3.11865639
16,2.849809977,3.276213263
17,5.27178291,4.934061704
18,3.193416898,5.625307677
19,3.605269732,3.232891866
20,2.295674152,3.249938866
21,4.290576593,4.80491451
22,4.867271068,5.460762312
23,1.966569981,4.888283384
24,4.426819095,5.204408017
25,2.162053778,2.814247593
26,1.086223788,1.442216751
27,5.307955344,4.309061443
28,1.261463861,2.656431629
29,3.007895831,3.907537342
30,2.501641172,3.032604733
31,2.071781524,3.363924914
32,5.83322844,5.446678806
33,4.860943493,4.716764685
34,1.772407038,3.749456986
35,3.43832952,3.342129502
36,2.658807202,2.241920274
37,2.868791314,3.421196743
38,4.106395967,3.574118102
39,3.701596979,4.272135837
40,2.134522186,3.035577371
41,5.180452707,5.071153544
42,3.819229398,6.002408971
43,3.901936217,2.117899958
44,3.313024851,4.160630133
45,4.526214718,6.057456737
46,3.780520398,4.084201147
47,3.541397572,4.427311989
48,4.605406819,5.261930319
49,3.351065017,3.801524081
50,3.391372831,3.560158769
51,4.187555668,5.576789615
52,2.780765599,3.412997664
53,3.669355774,3.947933392
54,2.425662383,2.728392327
55,1.511177873,2.573643214
56,2.874166268,3.517917681
57,3.096569669,4.208403375
58,1.031544036,1.897714169
59,4.070705499,4.902162417
60,3.840559975,4.573161005
61,3.934515655,4.203867694
62,2.740868651,3.467731525
63,1.457437516,3.283632184
64,5.46774742,6.024737749
65,5.166137271,5.285916775
66,2.575178261,3.877538931
67,1.54026398,2.589179979
68,4.890924304,5.804283608
69,4.723369547,4.838151429
70,3.899589851,3.916436436
71,1.624734226,1.664107268
72,5.658859604,6.322946172
73,1.657062199,3.854597837
74,2.655136462,3.259542831
75,4.575761236,4.344409799
76,4.245567962,3.673056213
77,3.472003888,3.807728048
78,3.717694661,4.928625609
79,4.231119684,3.776354632
80,3.169998561,2.960862879
81,4.982753463,6.384540449
82,4.895626492,3.805694351
83,3.201989419,3.965908764
84,3.782367129,3.68727577
85,2.711926404,3.906252483
86,1.836454342,2.079005275
87,3.28210385,3.638561521
88,2.170009791,3.841351759
89,3.039826124,3.268959078
90,1.62573839,2.481097016
91,3.229598278,3.466273813
92,1.491471039,2.25664174
93,3.409193775,3.550758578
94,4.480038962,5.445322441
95,4.920955866,4.159735484
96,5.682178793,6.124154797
97,1.846046981,1.952300721
98,2.547653897,3.154379497
99,2.689442087,4.332705965
100,3.536320214,3.820930645
101,4.378117978,3.626320935
102,1.768148698,2.534777734
103,2.760955355,3.338069606
104,1.18564931,1.594515815
105,2.769993427,3.446406209
106,4.320541543,4.296248568
107,2.729239647,3.243731286
108,4.086362984,6.417803435
109,4.720795823,5.699524055
110,2.573563449,3.614441552
111,3.075332341,4.278487232
112,3.016984985,2.764876424
113,2.66513636,3.258518125
114,4.02887993,3.725454928
115,3.557070493,4.78994264
116,3.985645494,5.076164167
117,4.586590512,5.461091368
118,2.601139321,3.539168195
119,4.180350473,6.004908706
120,1.708155548,2.664385369
121,1.690296559,2.202168617
122,4.392015041,4.355415794
123,2.748186088,3.837250158
124,2.663860497,3.308905124
125,1.001193746,3.330802509
126,2.077222988,2.474820755
127,1.350731911,2.753282787
128,3.305619664,3.392370467
129,2.973954036,2.318843619
130,3.297172825,3.985526623
131,3.727175056,5.267957059
132,3.204725599,3.526350789
133,5.740007994,5.9966454
134,3.653850445,4.481893132
135,2.722823602,4.149204484
136,3.492955897,3.353001121
137,4.899853913,4.82522846
138,3.594933673,4.207105654
139,1.360274976,1.349188069
140,3.022249661,5.16636643
141,2.738675154,3.254160477
142,4.400044125,4.478703433
143,2.030588206,3.425860042
144,1.604638949,2.454029221
145,3.107996952,3.583697885
146,2.638980894,3.217146377
147,3.963717278,3.926223345
148,4.863155808,3.747553839
149,2.94689235,4.035850923
150,2.543156565,2.610674328
151,3.748252877,3.539317172
152,2.205549005,2.745782752
153,4.592717436,4.108668388
154,3.97420237,5.802683138
155,1.529885129,3.063235615
156,2.007304017,2.539982794
157,4.966249356,4.81799677
158,3.706629837,4.128466426
159,3.367886633,5.301053439
160,1.232145426,0.046896133
161,2.817734715,3.128180628
162,6.041932004,5.493844358
163,1.264696798,2.39351593
164,3.987057852,5.380285653
165,2.659024795,3.234026414
166,3.343329393,3.822123223
167,1.404424021,2.067500664
168,2.592358455,4.307433688
169,1.070325847,1.350188706
170,5.367622097,6.235676658
171,3.958911585,5.969865456
172,2.306668388,3.705066273
173,1.990856087,2.738655212
174,2.160455272,3.049014013
175,4.072786756,4.167927931
176,3.312130181,4.49731645
177,2.614198094,3.02856016
178,3.761317965,5.536169178
179,2.708110911,4.149228372
180,2.287229401,4.15500423
181,2.691425643,3.900942051
182,5.645570899,5.760594538
183,2.055068979,3.908197023
184,5.701410742,6.282594023
185,2.606330509,2.79743056
186,3.628216798,3.841203427
187,1.626911635,2.847657196
188,3.952053721,5.673580373
189,1.960465976,1.972572958
190,4.821633889,4.350200379
191,2.587011082,3.278332313
192,2.506296703,2.590368705
193,1.167824215,2.668602481
194,1.181022265,1.134666534
195,4.871739505,5.084609973
196,4.130620007,5.435449512
197,6.164141192,6.172979204
198,2.242285438,2.962798842
199,2.189084902,3.672196405
200,2.008038495,4.365053959
201,4.278996974,3.939099499
202,2.461181212,2.823560984
203,3.67353893,5.415649771
204,4.406117456,5.26771714
205,4.205146763,3.305648959
206,5.365356424,5.463211633
207,2.257412329,3.730603837
208,1.840378173,1.6107738
209,2.83494199,3.102501601
210,4.421876882,4.581516557
211,1.643639002,1.332260894
212,4.995801142,3.827136644
213,5.107439022,4.906965723
214,2.936346371,3.933950362
215,5.849693568,4.92231683
216,5.032122086,4.650111797
217,2.285807253,2.104987342
218,7.013150345,5.043102947
219,5.261596414,4.607267607
220,5.654421402,5.464599615
221,5.635677652,5.3335987
222,2.684401286,3.764202557
223,4.492245408,0.707129457
224,4.072695742,3.633142515
225,1.26262335,1.185730833
226,5.615913774,5.133593962
227,2.359142957,2.219664146
228,1.424534392,3.770345605
229,1.916160091,2.843625925
230,2.063468634,2.05216079
231,2.449047545,2.973751838
232,3.46985493,4.258815413
233,3.244506176,3.832577829
234,1.827849644,3.010429066
235,5.331056099,4.208224171
236,2.102026337,0.680733667
237,3.854305728,4.320390518
238,2.233930821,2.387672408
239,6.253517642,5.201825968
240,3.358796868,3.851220343
241,2.925050058,4.278209324
242,3.073667972,4.452172254
243,1.578321578,2.586324427
244,3.506067129,3.701750203
245,1.249913511,1.911322747
246,1.353485087,3.276204007
247,5.842827061,4.616578766
248,2.930279458,3.362607761
249,3.865517655,3.569360134
250,4.286943064,2.64312807
251,3.008469981,2.817036947
252,2.930208704,4.267043151
253,3.834590391,1.773330532
254,1.443225266,3.319134174
255,1.493776195,3.464600565
256,1.878745496,1.711406183
257,4.359148805,4.200066158
258,4.158292452,4.85549093
259,2.073654217,2.404882489
260,2.615871271,3.760544528
261,3.072103618,4.474469366
262,2.864354815,3.7700358
263,1.032681053,2.88473533
264,2.222345114,2.404282189
265,6.683376703,5.610924256
266,2.478878564,3.576887269
267,3.993613008,3.495221841
268,1.856901477,2.608601554
269,3.764577272,2.117984171
270,1.995915805,1.830972287
271,2.488797593,2.299830734
272,1.755825663,2.700997108
273,1.902238522,2.334543963
274,5.969012085,3.929712789
275,2.888063601,3.672264823
276,2.127796821,3.006055061
277,1.66214454,2.933953101
278,3.729923969,4.996146358
279,1.509006442,2.729488612
280,4.929132324,4.184198979
281,2.917868047,3.434842423
282,3.194711961,0.89183441
283,1.991263174,2.807667899
284,2.964861658,4.812766078
285,1.885992864,2.867932798
286,6.292830783,4.843699617
287,2.55491258,4.719487309
288,3.614288526,3.081426572
289,4.676828721,3.866037002
290,4.76517442,4.318822233
291,3.738769722,3.263519647
292,3.611608616,4.114816618
293,1.499100492,2.096092438
294,5.474650333,5.134873163
295,3.839352537,2.81202765
296,3.053983497,1.809725282
297,5.094572074,3.5664809
298,5.087747663,5.477393636
299,1.619296532,2.895917183
300,2.792769818,2.994131671
301,3.937052508,2.352303972
302,4.446965371,4.452140821
303,1.036622922,2.730209065
304,3.472880161,4.085580924
305,4.45342385,4.390459319
306,2.506290344,4.623761158
307,4.644302817,5.293206784
308,4.570291311,3.423785588
309,1.014285794,1.186772421
310,2.38428907,0.205608334
311,1.708399141,1.82668674
312,2.350802526,2.487132645
313,2.340501878,2.437692924
314,1.85014439,2.496647589
315,1.757332412,3.765117357
316,5.94187048,5.898667632
317,8.520050097,5.677054595
318,6.216813684,5.418181818
319,2.649868441,2.948760299
320,1.709390138,1.331948709
321,2.576837992,2.104319616
322,1.275764922,1.797698896
323,1.319236987,4.776179512
324,2.232962436,2.893903229
325,3.081277313,2.601109192
326,1.950534772,2.185917189
327,4.207510311,4.784016207
328,4.036884985,3.775802373
329,2.43440018,1.408604085
330,5.631489802,5.451826989
331,4.073874901,3.997582982
332,1.069792618,1.576913858
333,5.660906708,4.858572681
334,1.32012749,2.760515248
335,7.24835776,2.471437804
336,4.947116201,4.582756888
337,4.867424691,4.830683015
338,2.548252345,2.932167629
339,2.109538333,3.436036675
340,5.082940642,3.771700469
341,2.233554787,2.327352026
342,5.446713677,3.330544213
343,6.180934326,5.378987042
344,5.946100615,4.857996592
345,1.434700936,0.928411192
346,1.693813419,3.948885026
347,1.363146554,2.053999173
348,1.066833224,2.057986216
349,1.724347227,1.532255446
350,3.61176508,4.28293261
351,2.771448418,2.8226015
352,1.427299272,1.592898375
353,5.373891817,5.063312418
354,3.446071088,2.342466165
355,3.576952861,4.191953097
356,3.265626595,4.147642831
357,2.847796624,4.591178668
358,2.014779881,2.143863788
359,4.08696978,5.005837195
360,3.935730784,2.712043954
361,7.307972238,5.347498237
362,6.668523115,5.269707555
363,4.807343791,4.876213241
364,5.820006785,4.45970446
365,4.862294118,5.149642809
366,2.438403955,4.136478547
367,2.831211891,3.762437051
368,4.396978213,3.496754224
369,5.022065486,4.682377226
370,1.801941507,2.300477413
371,3.829815322,2.828767564
372,4.448709943,4.800956606
373,1.85564473,1.481580711
374,3.84374096,4.070995676
375,3.862974803,4.477921288
376,4.574546104,5.026396424
377,3.306796016,4.255176561
378,1.718318054,2.342194339
379,4.358370951,3.34654569
380,1.535703411,1.252974414
381,1.614614492,2.516747665
382,1.229462009,1.488470312
383,2.436368152,2.532917038
384,4.373098413,3.772920271
385,1.582103461,1.729699021
386,8.670774566,5.64289236
387,1.21972264,2.194291349
388,1.123811716,2.861359428
389,2.050288679,3.072812948
390,4.141646712,4.010529337
391,4.541546708,4.956260027
392,4.634974138,3.736176488
393,4.692645266,4.860119021
394,4.374776577,3.351396196
395,3.765558933,4.64919805
396,5.502838648,4.213642747
397,6.884968559,5.488610865
398,1.053699754,0.795365615
399,3.092540439,3.790738484
400,5.146157305,5.293114771
401,5.09142806,5.463569527
402,4.47453718,4.706243621
403,5.846834937,5.729029809
404,1.618294589,1.168874225
405,2.891488099,3.663279635
406,6.437206999,5.22241172
407,6.623391878,5.055340972
408,1.136530436,1.463733056
409,3.521147614,1.349208506
410,1.136223112,2.755994465
411,5.172646135,4.528623396
412,2.301776814,1.911256715
413,4.181602623,2.425137331
414,2.40420711,1.105068977
415,4.062409878,4.450215488
416,1.586905011,1.600147648
417,4.089244098,5.003051291
418,4.933276225,2.295485407
419,2.139180185,2.01807901
420,2.636377806,2.491224571
421,5.36317899,3.998457822
422,2.812101205,2.345878179
423,2.084262738,1.070023287
424,5.914205341,4.55020457
425,1.468407111,2.696010765
426,4.416892478,3.71930033
427,6.679017684,5.137105024
428,1.319885818,1.430954108
429,3.286512908,3.775477562
430,3.092368205,3.43831104
431,1.491716145,1.890586856
432,4.845265427,3.971813419
433,1.509006053,0.681780279
434,3.958160731,4.434402343
435,1.208696611,2.47092986
436,2.660179732,5.102216405
437,3.022318943,6.716553298
438,3.17210687,3.575750714
439,6.154878431,4.713043413
440,8.25516524,5.78725637
441,1.947666504,1.423902793
442,8.514655849,7.081004609
443,9.488307206,5.31484486
444,5.197754183,5.437956542
445,1.201137807,1.957072835
446,5.870151926,6.093149392
447,1.330455798,2.448450803
448,1.159336504,2.307049282
449,2.289025371,4.766572783
450,6.020363264,6.49922805
451,6.37772165,6.424863807
452,7.237273157,5.836127938
453,6.324820556,6.028535135
454,6.027467578,4.732849121
455,7.158028754,6.60314128
456,1.037262098,1.80706685
457,5.436990925,3.311837862
458,5.58025253,4.541861879
459,5.953202313,5.688320404
460,1.340726819,1.620993164
461,1.880026942,4.343337792
462,1.452486919,2.210456967
463,5.664171595,4.965433821
464,6.502768894,5.653296673
465,1.536812139,3.630686336
466,5.780536482,5.423657118
467,5.41253123,4.879110761
468,3.111123243,2.470003052
469,3.82444624,4.415678975
470,4.646414016,4.441748294
471,7.109562797,6.848370206
472,1.261395858,4.148231272
473,2.669526645,4.353360915
474,6.991703186,5.948681119
475,3.644895972,3.692590386
476,4.595981758,4.711071751
477,1.123462641,2.645788687
478,1.664012236,2.571721286
479,5.671128024,6.387019776
480,3.740110958,4.295334858
481,6.123408671,5.954866583
482,8.268319381,7.1216076
483,2.689254763,3.603435698
484,1.020065156,1.615568877
485,7.322729781,5.631983161
486,5.663008026,6.643470035
487,8.367927978,7.125503051
488,6.245370404,5.551044933
489,7.798503254,6.651208695
490,6.009584223,6.74416891
491,7.073933627,4.532108666
492,1.574920939,2.040623806
493,8.293564675,7.123807871
494,5.517606586,5.826742503
495,4.34277728,6.814098587
496,3.124210713,2.870845709
497,1.056801994,3.236494476
498,6.627626196,6.08679311
499,6.6433103,6.482747699
500,3.659105519,4.493748384
501,2.965043138,4.492854769
502,4.088806091,6.937428735
503,4.011355376,4.561314087
504,4.692289563,4.013892199
505,5.5313951,5.261812724
506,4.139931106,3.733788063
507,5.666327894,5.578039731
508,5.61237828,5.247369315
509,3.747740526,4.151320699
510,1.591494793,3.61581838
511,7.110837721,5.823912612
512,3.25341287,3.479879663
513,6.291020714,5.825094355
514,10.53165527,6.216514083
515,7.17854528,5.539578697
516,1.75428352,4.406645547
517,4.519330791,5.189977577
518,6.74096175,5.980670092
519,6.970932064,5.563408117
520,6.468967242,5.948841244
521,5.558462736,6.065361919
522,7.896218555,6.037490863
523,4.992095623,6.705103553
524,6.541330633,6.084507696
525,7.127611642,6.305432809
526,4.181076335,4.533362541
527,6.402035026,6.756753698
528,1.179149058,2.799501224
529,4.311226606,4.347359552
530,3.764055742,4.225050908
531,4.317962715,6.770640741
532,3.716023795,3.682411201
533,3.228551824,3.639296452
534,2.793785074,2.693725692
535,7.374259333,6.796950035
536,2.296146427,3.34308782
537,2.251795697,3.724185407
538,1.492319542,3.347213388
539,4.612218679,4.82867681
540,5.744054233,5.302559252
541,3.847516295,4.5194232
542,6.301780033,6.373138283
543,1.13507734,1.787180726
544,1.567972794,3.282140956
545,8.036758516,6.516752629
546,1.127981419,2.174044221
547,2.741261867,3.106205274
548,6.960797993,6.601995105
549,6.472006284,6.169112954
550,3.503656513,4.458291216
551,8.575810956,5.787651664
552,2.334106192,5.03259732
553,2.467216502,3.0033678
554,1.32993933,3.354877729
555,6.161853727,5.181368772
556,1.176457989,1.705643281
557,5.523769162,5.894691117
558,3.253089496,3.838675781
559,5.707010623,6.067426031
560,2.95145551,4.266052095
561,3.395944341,4.983198837
562,6.478693863,6.663254798
563,1.393387347,2.530366869
564,4.042585813,4.243348062
565,1.005577343,2.255804697
566,2.357698556,3.478860877
567,8.739796608,7.032572441
568,5.147610939,5.273145032
569,5.707829645,5.421484363
570,7.233291295,5.952077999
571,2.170324946,4.181738758
572,2.557784569,4.711722022
573,1.727497337,2.716397233
574,1.088051292,3.32935819
575,2.253171682,3.882358415
576,3.112423374,2.920144383
577,3.725253917,4.536792992
578,2.437811033,3.761262923
579,3.62408756,2.801706492
580,2.637286064,3.714623555
581,1.028883254,1.371978153
582,1.102084257,2.822780835
583,2.833956999,3.263000127
584,1.858236268,1.01133367
585,1.170519341,2.15029755
586,3.181022252,4.241149104
587,1.700638683,3.294943877
588,2.449597545,2.785151043
589,2.351067221,4.677268913
590,2.749270578,4.877666292
591,2.542414275,2.888412161
592,2.442697353,1.734621104
593,2.21540358,2.602061158
594,1.917335687,3.08135932
595,3.234661696,4.336865294
596,1.128711311,3.511637328
597,2.741406756,3.947918363
598,3.087071455,3.846728534
599,3.011270808,4.383370276
600,3.780928999,3.789575835
601,1.079238258,0.697888563
602,2.388565825,3.353707773
603,4.660990511,5.695834081
604,6.79543778,5.319429742
605,3.626129612,4.37800835
606,5.780147138,4.766893345
607,2.962069221,3.389905672
608,6.283694575,5.801874663
609,4.594236388,4.01394365
610,5.277823594,3.463158622
611,3.747619944,4.147927297
612,5.773903495,5.111460473
613,3.698182268,3.231464592
614,3.658673739,4.226200601
615,4.000386062,3.334182767
616,5.991888094,5.464412218
617,3.597058113,2.812590492
618,3.277250644,3.528686664
619,4.913262543,6.020326209
620,3.57467609,4.454528264
621,4.794012164,5.786311948
622,4.238326291,4.445568797
623,7.149671429,5.494532848
624,5.166341459,4.993720747
625,5.111609444,5.453811472
626,6.431000819,5.742419387
627,5.496189598,3.853697251
628,5.882899891,5.332279406
629,2.64423337,3.44302597
630,3.192384638,4.738984294
631,5.347150854,2.945174768
632,6.883692928,5.45059426
633,4.863980284,5.856699441
634,3.997311459,3.508720893
635,6.008003752,5.581989524
636,4.14545121,3.538647899
637,8.288940065,5.990464331
638,5.113639084,5.135889685
639,4.266815149,3.272656375
640,3.643025802,2.921865978
641,3.258803257,4.556642899
642,5.745694563,5.780241934
643,3.265326919,5.103645645
644,4.477767804,3.258899483
645,3.401463514,5.159724924
646,3.243728146,4.226258229
647,5.279545979,4.244392474
648,6.936351014,5.621342394
649,5.76560808,5.578130314
650,6.137237725,4.629320318
651,5.315098539,4.408841632
652,5.066598929,5.622864352
653,3.842750313,4.15413922
654,3.832266051,3.761570988
655,2.636875674,3.686345949
656,5.984894028,4.741732532
657,6.530073225,5.210851757
658,5.190166949,4.99915636
659,6.158135878,5.349500652
660,1.317310969,2.637617756
661,4.611381581,5.937328301
662,3.720251642,3.613429451
663,7.089060315,5.43521232
664,1.878852266,3.081800031
665,5.187680283,5.01704157
666,5.146964986,3.91959795
667,6.453793962,4.369267403
668,5.415500071,5.201276522
669,4.479058146,4.151003764
670,4.577551646,3.329448715
671,6.625374029,5.467174775
672,3.909214074,3.786739422
673,2.87769743,4.841738126
674,4.741176905,4.474922514
675,5.120164443,5.305386928
676,2.045933788,2.561038779
677,4.64890863,4.833301322
678,5.946224839,4.759926679
679,2.681086387,4.292611126
680,2.329747797,5.189098141
681,4.3785978,3.833159319
682,2.01460091,3.706385544
683,3.148187665,4.271170491
684,2.773887083,4.165564867
685,4.44038834,5.666671436
686,4.156541342,4.392637274
687,5.975586284,5.495329058
688,3.745368397,4.397858495
689,3.107313765,3.496617268
690,5.151924144,5.585591759
691,2.192777022,5.783324544
692,6.77153452,5.762023005
693,2.908451004,4.240765313
694,5.471732952,5.694247396
695,3.47168837,4.340827409
696,4.440233275,4.758915106
697,5.714889824,5.695876783
698,2.942669157,5.186920969
699,4.313804346,3.957072033
700,5.129372534,4.567770579
701,4.75110539,5.497106269
702,2.987419109,4.601905272
703,5.771863676,5.302547066
704,5.571040464,5.374114933
705,5.684444585,4.503314765
706,4.488134201,4.972208447
707,6.628936317,5.42807649
708,3.349257887,4.710575637
709,5.09136428,3.813921914
710,6.65912083,5.371074531
711,4.276852163,3.502007691
712,5.128916584,4.354104784
713,5.500266074,4.752347964
714,5.185647833,5.807420291
715,3.89393843,4.458837698
716,3.437137266,3.81947664
717,5.194872052,5.955973338
718,3.475595073,3.63519606
719,5.212890364,5.315812866
720,3.460638129,3.575727869
721,4.905513919,5.313829474
722,3.056630175,3.725302375
723,3.219878726,3.132499536
724,4.75348262,5.49803273
725,5.461904898,6.067672612
726,4.28938593,4.956820146
727,2.773835054,3.885666851
728,2.780884558,4.119995423
729,6.749490169,5.272178122
730,4.825828446,4.038665555
731,3.005769401,3.180017322
732,5.11669453,5.409392489
733,5.537373961,3.400727992
734,4.960249434,4.125989682
735,3.610874272,4.69447832
736,3.375653725,4.537172368
737,5.545295303,4.621999701
738,3.251383505,3.70574715
739,3.689700565,4.383979659
740,5.335675546,5.431636895
741,3.653908058,4.038784429
742,4.92948039,5.643667897
743,2.948378327,2.58367175
744,1.798915603,2.73897936
745,5.443795273,5.464516039
746,4.1208757,3.809305328
747,3.181263722,3.452088203
748,5.310930586,5.758540964
749,5.572534522,6.068869325
750,3.700400547,4.044114092
751,3.02795189,4.564329186
752,4.596305585,3.132080459
753,3.695438818,4.260944009
754,2.817761552,3.328795862
755,6.007257796,3.607061103
756,2.682280052,3.901676651
757,6.26766972,5.918591791
758,1.989930403,3.85621777
759,7.794718991,5.747916369
760,3.446480674,5.047637724
761,5.197428749,5.003180105
762,2.942737844,4.767121571
763,2.306617226,4.827684814
764,6.283646808,5.294022789
765,5.115320722,4.6838196
766,4.202274691,5.049520742
767,4.741738392,5.340957232
768,5.942441081,4.772970657
769,4.062268364,4.844139357
770,5.273018041,5.297831208
771,5.642543513,5.023990186
772,3.115192336,5.604579715
773,2.779996268,3.857741409
774,5.387135227,5.452592709
775,1.896884899,3.646710993
776,4.866841303,4.919416193
777,6.743646942,5.130800884
778,5.491979423,5.043390353
779,5.107815507,5.823408082
780,4.29851847,5.164804363
781,2.382464356,4.26906389
782,6.01290292,4.51471675
783,3.62627874,3.373134827
784,2.312131226,2.689429617
785,3.60374647,4.153461398
786,5.581702885,3.881328509
787,4.534110126,3.087944334
788,3.656422981,4.421162391
789,3.059782399,4.596001844
790,3.543448879,2.747970689
791,5.983774412,5.317013968
792,2.875577248,4.049246034
793,5.548100598,4.202407226
794,3.560762255,3.821286547
795,6.274613313,4.933452909
796,2.830682248,4.118198982
797,5.156033339,4.856337589
798,3.93145264,3.300636469
799,3.51744046,2.864756804
800,2.3632379,4.871576521
801,2.491194448,3.750955012
802,8.224927963,5.344944769
803,2.097239863,0.916261632
804,2.523425458,3.135129584
805,2.991505361,3.952678966
806,7.124473042,5.900837528
807,7.299116427,6.044301961
808,1.298275011,0.569175379
809,5.372824841,4.462524735
810,1.462708829,2.173274937
811,3.269554712,2.853170817
812,4.011115848,3.55321316
813,3.572578277,3.511794142
814,2.36744973,3.061601965
815,2.667045965,4.549385669
816,2.376123102,3.533833444
817,5.65787112,4.56779174
818,6.654815728,4.993343896
819,3.08205708,4.97061009
820,5.806230005,4.767831619
821,6.431825,4.951798958
822,1.099099302,2.794425724
823,3.281396971,2.732817997
824,3.389238812,5.121260887
825,5.971946777,4.929637658
826,1.766038543,2.3962264
827,2.752226718,3.226440305
828,1.551577554,2.239833081
829,1.570823716,3.55530967
830,6.488680556,6.231348576
831,6.083609696,4.959383775
832,2.381192604,2.939017506
833,4.74841851,3.675357131
834,1.934953301,2.729879144
835,1.193676474,1.393823037
836,3.672537005,5.711970275
837,3.788707994,3.699547174
838,3.35885396,3.753333281
839,5.939745693,4.651702386
840,7.892056649,6.200700477
841,7.0058386,5.604732412
842,3.950458482,4.407020227
843,5.513999401,6.041017418
844,3.974386072,5.980056223
845,3.742568361,3.741349713
846,1.691240217,1.975613264
847,1.176567321,1.87177128
848,7.569278155,5.970527017
849,3.626862815,4.401258017
850,3.246862799,3.816558245
851,1.901561882,0.409851182
852,5.879279385,5.143047186
853,5.93017061,4.225004493
854,2.884755144,3.927922127
855,6.061802914,5.275392553
856,6.859378419,5.762847489
857,5.821254525,6.072521657
858,5.057135804,4.795439512
859,3.067271068,3.910086937
860,8.272126527,6.042486499
861,6.266315798,6.007860551
862,5.209704053,6.237996437
863,5.573510926,3.842443785
864,3.594429584,6.125140841
865,4.686990443,4.158416304
866,5.649669377,4.279203944
867,1.817389354,2.432204666
868,5.904877219,5.182396944
869,5.559406804,5.449247788
870,2.596149806,2.673930992
871,2.103776995,2.726005995
872,5.82937332,5.356575718
873,1.418381997,2.910232484
874,6.742051983,5.958668324
875,5.862717028,5.747971182
876,2.221592182,2.166667483
877,2.410574777,2.974705804
878,6.978589639,6.005289723
879,1.836337506,1.02805076
880,1.170567657,0.998068076
881,5.153477017,4.113775267
882,2.076250591,1.167961597
883,4.247452743,3.411673513
884,3.256062922,3.449399545
885,5.504820259,4.374099561
886,6.372796093,4.822128263
887,1.230212849,1.59670178
888,2.05604664,3.054655991
889,6.223097294,5.24642721
890,3.792475326,3.838076329
891,4.723106799,4.245152756
892,4.762069219,3.554407916
893,2.284310307,3.624376281
894,4.325075188,3.081985312
895,4.262136946,4.342865319
896,4.913793891,3.846736786
897,4.597158346,3.538376107
898,3.022053532,3.089846501
899,2.842150132,3.22075349
900,4.090427656,3.417140925
901,3.979501002,3.317400331
902,2.822938362,4.55575571
903,3.258130963,3.493012291
904,3.818025525,3.64584352
905,4.730152612,4.803114468
906,5.484669196,4.547499738
907,5.367602529,4.802552843
908,5.75536973,5.359170572
909,3.957683369,4.563459692
910,4.160614523,4.592579753
911,2.900965389,4.455138742
912,4.514583839,5.143265691
913,2.665992515,3.400368547
914,2.783828024,3.859285107
915,2.782696618,3.34832334
916,3.963703305,5.001982486
917,3.376364658,3.159553278
918,3.377282513,3.159507848
919,2.57060838,3.450495457
920,4.916883083,4.407129686
921,3.54311541,3.823143771
922,4.365850589,4.421403427
923,3.366685135,4.74509038
924,4.895883888,4.130126218
925,3.417417361,3.397931155
926,3.972806262,4.117630314
927,4.542026327,4.102790653
928,4.289198039,4.414203454
929,6.636653926,4.970136594
930,5.024043405,4.398512492
931,4.029188425,4.687369249
932,4.718428354,4.880546577
933,3.74685852,4.636619377
934,2.509785932,3.460911602
935,4.539252353,4.682947854
936,2.14717976,3.421316332
937,2.350768318,3.360133606
938,3.028821612,4.556222394
939,4.657764425,5.010065694
940,3.495091596,4.804778358
941,2.475772485,3.476883213
942,2.120719668,4.684333172
943,3.356555007,4.935822552
944,1.175331316,2.780666739
945,3.321757071,3.604286529
946,5.043234044,4.848333171
947,4.590446236,3.586607647
948,3.431617617,4.462620372
949,2.594593226,3.727545133
950,5.575272861,4.623541515
951,2.878492877,3.475959191
952,4.008026576,4.05225288
953,2.0057173,3.124142733
954,4.238435355,4.659783376
955,1.759434865,2.552743597
956,4.867336476,4.884923539
957,2.15560482,3.298902272
958,3.819293774,3.653010102
959,5.136640275,4.723140094
960,2.357965315,3.538399863
961,2.71065839,3.558803555
962,5.042379823,4.689915441
963,3.517871814,4.455693267
964,4.157316923,4.699192263
965,2.965753369,4.390083566
966,4.122732476,3.347447099
967,4.370435636,4.839671088
968,5.907742081,4.578291289
969,2.359204143,3.340249765
970,1.830540119,3.11270547
971,3.13367001,3.418066006
972,3.961901716,4.480372755
973,1.949749708,3.373810184
974,3.886561254,3.31090252
975,4.470186853,4.937224631
976,3.819554921,4.623662045
977,3.296694779,3.288515713
978,3.37904059,4.809758777
979,2.176528112,4.548134679
980,2.296886681,3.226926086
981,1.207313252,3.368906638
982,1.983684548,3.218639163
983,1.508717518,3.07411769
984,5.073251859,4.526736555
985,4.669924918,5.079504857
986,3.583397623,3.554605637
987,2.216015829,3.390226152
988,3.213704091,3.543401121
989,2.680229543,4.190700125
990,2.007306669,3.351735677
991,3.031223363,2.935276975
992,3.184248283,2.771506168
993,3.417613353,3.274376875
994,4.652873979,4.467627271
995,3.884251329,4.330889091
996,4.955682199,4.63887032
997,3.573241394,3.823518785
998,5.424286403,4.833019397
999,2.50365582,3.268020273
1000,2.733671906,3.464101546
1001,2.555324062,4.060592748
1002,1.749542763,3.326271491
1003,3.427248701,4.463438099
1004,2.468966919,4.601988344
1005,2.964142899,4.343283684
1006,5.116086773,3.693881636
1007,3.524797885,4.384316135
1008,2.310936582,3.710944998
1009,2.019684272,3.602213488
1010,1.775322789,3.270958997
1011,5.042352205,4.69146355
1012,4.25847035,4.841008929
1013,4.072352412,4.710820416
1014,2.085389213,1.80559603
1015,4.212563936,3.299153483
1016,2.223372631,3.286832112
1017,3.743681527,4.66522816
1018,3.522809483,4.353589075
1019,2.474326632,3.431044411
1020,3.014522005,3.620723911
1021,4.599210802,4.479331798
1022,1.405072331,2.070956735
1023,3.429359674,4.366929188
1024,3.891342821,4.448568645
1025,4.905844252,4.62562128
1026,4.874052134,5.058057
1027,2.672959526,4.559320477
1028,5.21442752,4.437707268
1029,2.81367857,2.959563437
1030,1.58732913,3.041540045
1031,2.247793294,2.921548788
1032,2.192458962,4.150349264
1033,5.591837464,4.854691545
1034,2.814207066,3.637103619
1035,2.638823366,4.554399813
1036,2.711464774,2.727127251
1037,2.398465824,4.147548307
1038,4.865495938,4.390820755
1039,2.302057189,4.328396303
1040,3.243279457,3.281035863
1041,4.359307196,4.576707552
1042,2.89516976,3.771752003
1043,4.545275218,4.526510651
1044,4.230795301,4.747912773
1045,4.205792598,4.428337022
1046,3.804201524,4.348199261
1047,1.603681562,3.407918355
1048,2.932280667,4.319828465
1049,5.736120068,5.392845339
1050,1.91582724,3.177379301
1051,2.893174947,3.544039014
1052,2.602459197,3.281297322
1053,2.2491235,2.234332902
1054,4.694247803,4.956111716
1055,4.184400875,4.928757533
1056,4.227267107,4.375683109
1057,5.096873662,4.586866721
1058,3.448753765,4.447901455
1059,3.426443335,3.391319942
1060,2.594117188,4.263649945
1061,4.39810066,5.057617936
1062,4.237614194,3.458521147
1063,2.445821351,2.918425168
1064,3.186899762,3.384013287
1065,1.765323437,3.061542398
1066,3.512117083,4.415714536
1067,3.207924372,4.54825641
1068,4.842620097,4.95309771
1069,5.293110905,4.625902224
1070,2.855274909,3.178530571
1071,3.739757464,4.39917785
1072,2.409684617,3.299099103
1073,4.165214627,4.529379384
1074,4.170244291,4.397693715
1075,4.157846157,3.708955649
1076,4.044468697,3.143102832
1077,5.158400136,4.569048447
1078,4.493617546,3.928827829
1079,3.466539236,4.261997749
1080,5.287627066,4.045620579
1081,4.367931028,4.540863667
1082,2.703599873,4.43527135
1083,4.014092924,4.648830291
1084,3.250712532,3.702621755
1085,3.223249491,4.561142804
1086,4.237866744,4.830492053
1087,1.976000538,3.060784925
1088,4.864224596,4.651674549
1089,3.908283032,4.879506935
1090,3.409962271,4.314939731
1091,4.316113817,4.800274396
1092,5.6728325,4.60402735
1093,1.149959611,2.828714445
1094,5.841263568,4.890782245
1095,4.289040096,4.349576799
1096,4.525478949,5.221661062
1097,5.013688528,3.768331529
1098,4.23887158,4.893985192
1099,2.705831102,3.454682972
1100,2.917183972,4.409231586
1101,4.047612059,4.275845683
1102,4.822914168,4.606794666
1103,4.326666634,4.794065674
1104,2.410645296,3.144973881
1105,4.245675089,4.390928263
1106,5.331216033,4.076751085
1107,3.098341148,3.352408847
1108,3.121896179,4.65338751
1109,4.333565309,4.382743609
1110,3.844341892,4.294994398
1111,3.590805332,4.873141243
1112,5.16416308,3.676627506
1113,3.058030211,3.549741682
1114,2.898317075,3.667406052
1115,4.51565987,4.37786556
1116,2.845346031,4.576205478
1117,4.423260434,3.237981399
1118,3.048948174,4.55154716
1119,1.49720068,2.79308977
1120,3.466690023,4.341932751
1121,2.541495871,2.089053596
1122,2.499417661,3.628831
1123,3.796688639,3.27175825
1124,4.002202505,4.421803276
1125,3.563547638,4.408160827
1126,3.965647655,3.94720906
1127,2.647427968,4.582135613
1128,4.137737508,5.16453508
1129,4.007612051,4.567404283
1130,4.976217461,5.135328457
1131,2.853430484,3.598617093
1132,2.395649569,3.467214979
1133,3.50577828,4.673547074
1134,3.164064713,4.507341126
1135,4.294335971,4.598135923
1136,2.996182781,4.256438536
1137,3.143465344,4.259090482
1138,4.771401427,4.473914847
1139,3.361890474,3.698498445
1140,3.234789454,2.851096024
1141,4.098431504,4.823723186
1142,4.606501752,4.65175719
1143,2.373858761,4.211927966
1144,2.930330704,4.544998619
1145,4.812456444,3.834708483
1146,3.893564798,4.324731149
1147,2.967338873,3.007685315
1148,1.425061049,3.393452985
1149,5.543165854,5.142793565
1150,5.949789816,5.118612145
1151,4.338990773,3.666862344
1152,3.998014291,3.682957249
1153,1.573431246,2.848011567
1154,2.071137599,4.321951929
1155,4.821521874,4.573343583
1156,2.965261847,2.884491186
1157,3.961586754,4.156472272
1158,2.925533162,3.186925246
1159,3.995649733,3.204397929
1160,2.18178015,3.354181301
1161,5.72590984,4.651507638
1162,3.612364358,3.466313756
1163,4.219183368,4.105142848
1164,4.589934899,4.062291425
1165,4.42956257,4.232157292
1166,4.161037965,4.391851276
1167,4.674496635,3.487729876
1168,4.259157626,4.270569035
1169,4.485949551,3.669255038
1170,2.022591444,3.351562219
1171,3.228703334,4.150309937
1172,4.500492405,4.953433625
1173,5.618568486,4.758144842
1174,3.41582711,3.985346778
1175,2.922336984,2.875961701
1176,3.465410167,4.221387739
1177,3.910924732,4.799151488
1178,2.81913354,3.518766354
1179,4.082939606,4.700751675
1180,3.76298159,4.053401946
1181,4.039890489,4.566801009
1182,5.089342218,4.040175308
1183,4.571621619,3.574158914
1184,2.747643611,2.976760837
1185,1.070765909,2.661134653
1186,3.930312056,4.390185782
1187,1.858693805,3.236952116
1188,2.265700435,3.292440168
1189,3.761791399,4.941493115
1190,4.443098151,4.990042267
1191,2.94123835,2.876965439
1192,1.156331738,0.857441195
1193,3.957782583,4.823487286
1194,7.552566371,5.109924895
1195,5.471356565,4.3322627
1196,7.543316393,5.872735818
1197,1.864138581,4.86899737
1198,3.722638525,4.683400019
1199,5.471863777,4.762961822
1200,3.090175898,3.980618481
1201,6.217540166,5.233953643
1202,5.118915109,5.597622093
1203,3.468473353,3.980339129
1204,6.179510591,4.643861594
1205,6.152101393,5.294788509
1206,5.70167521,5.681880198
1207,6.696045737,5.319072913
1208,4.309327083,2.841693082
1209,5.173698188,5.818650312
1210,3.84878816,4.277134862
1211,4.358378055,4.724623204
1212,7.075640399,6.133144667
1213,5.548193952,4.472119921
1214,5.700153256,3.588972838
1215,5.464478828,4.610848571
1216,5.246196993,5.047159604
1217,2.90849049,3.638601978
1218,4.452042241,4.314366287
1219,2.322423585,4.533045913
1220,2.202153633,2.10545206
1221,2.462605899,4.080035313
1222,4.621225028,5.062786361
1223,7.513809638,5.32583128
1224,2.16778661,3.378231462
1225,4.39081833,2.342150865
1226,6.153655319,6.164225483
1227,5.522063809,5.512930124
1228,2.259868103,3.866952457
1229,4.343206834,4.699186771
1230,1.066160544,2.126738075
1231,1.44553582,3.875812106
1232,3.686724286,4.02227707
1233,3.395193206,2.664653818
1234,1.031570047,1.390495678
1235,5.376678711,5.265122423
1236,2.101072827,3.176261134
1237,3.133494191,4.905482793
1238,3.10901819,2.711338334
1239,5.118843472,5.283873827
1240,4.699738566,4.35951189
1241,6.214555592,5.658159923
1242,6.103691393,5.572963616
1243,5.448013335,5.338537178
1244,1.52809911,2.742584968
1245,6.458727212,5.718619941
1246,6.833875316,5.936345193
1247,1.108139046,2.086085604
1248,6.642459612,5.713675903
1249,3.143795457,3.898293632
1250,1.198655035,1.695617255
1251,4.796145959,4.372752711
1252,5.097748281,5.368902638
1253,4.444285384,2.81669892
1254,1.68792917,3.167907645
1255,4.1618055,4.834993697
1256,4.933734018,5.837978179
1257,3.122907325,3.255331727
1258,2.285188647,3.831724422
1259,5.269835553,5.896455773
1260,5.283168183,4.17506007
1261,1.903540882,0.891550467
1262,6.204993596,5.348085143
1263,6.52968227,5.076686424
1264,2.666313017,2.960297655
1265,1.80119424,2.235798517
1266,4.247914669,4.668484334
1267,1.318370673,4.556479716
1268,4.945313469,5.736777455
1269,5.218899705,5.647509488
1270,4.302980271,5.047063126
1271,5.880944958,4.974108449
1272,2.9504076,3.305654643
1273,4.020038397,3.566594537
1274,5.519890986,4.87316285
1275,3.496022115,2.85318041
1276,2.750633722,3.826094314
1277,6.147808131,5.415602394
1278,5.124014176,4.771328345
1279,4.82670165,5.406566545
1280,4.733143372,5.37286578
1281,2.730468444,2.523874965
1282,4.784040579,4.599475352
1283,6.74255985,5.846827752
1284,4.716529476,4.622942184
1285,5.141986224,4.82225038
1286,6.471920868,5.399309251
1287,6.310666138,4.227896633
1288,2.531071675,2.451331296
1289,6.112873986,5.193812981
1290,5.211120882,4.758611352
1291,3.317574342,4.009954372
1292,6.068810056,5.835662501
1293,1.018184565,2.896796794
1294,7.048381303,6.007839237
1295,5.587447541,4.893428801
1296,6.809820803,4.694075306
1297,1.297401299,2.075691379
1298,3.847304374,4.624189548
1299,6.111773837,4.845561837
1300,1.911282504,2.353111091
1301,4.202422237,5.006837937
1302,5.910418223,5.632574988
1303,1.630747558,4.32382363
1304,2.347847984,3.956164008
1305,6.086688832,4.877420233
1306,5.732835499,5.25226777
1307,3.808610512,3.704082422
1308,3.18964451,3.836799039
1309,6.347286289,5.214255175
1310,6.680158191,5.546133996
1311,2.395346208,3.87743874
1312,4.306408262,5.246087961
1313,3.218340062,3.835946347
1314,1.016512945,1.394316855
1315,6.302544758,5.751974719
1316,7.901816032,6.23316445
1317,2.378271329,3.724142874
1318,3.818294422,2.544023817
1319,5.499930691,5.675719923
1320,5.61273969,4.961455234
1321,1.735226502,1.488504112
1322,4.854425354,4.141724815
1323,2.006997163,2.777629671
1324,2.790319434,3.368874248
1325,2.114172615,1.972786261
1326,2.057517545,2.425502642
1327,2.560130894,3.239374036
1328,5.382357741,4.843214834
1329,3.762655428,4.424236282
1330,3.583931031,4.575284639
1331,5.141034355,4.819762346
1332,5.889996174,5.508045124
1333,2.200796841,2.584802718
1334,5.757849698,5.085252442
1335,6.350325025,6.157716794
1336,3.171190474,4.288775619
1337,2.149719771,2.578514416
1338,3.226429465,3.774360305
1339,1.223329634,1.891394483
1340,6.632751158,6.526737458
1341,5.408197066,4.68226868
1342,1.833403311,4.341270686
1343,2.534822423,1.728772694
1344,1.580355076,1.985657946
1345,4.38313506,5.191509262
1346,4.756529582,4.685561443
1347,4.11965486,4.74554361
1348,4.096526281,3.997748305
1349,1.145540582,1.963847335
1350,5.363963183,5.217479074
1351,5.117146144,4.806846795
1352,5.845515117,5.548312881
1353,3.859882121,4.330652575
1354,5.495977503,5.178414103
1355,1.145620375,-0.124374374
1356,4.147146866,5.516183683
1357,1.917541666,2.201644261
1358,1.583498871,2.173886208
1359,1.609567739,1.969582922
1360,6.099224906,5.974380299
1361,2.299706797,1.925248551
1362,3.234017567,5.21007216
1363,5.586743392,6.117172662
1364,2.563042476,3.355680877
1365,4.341298569,4.364490927
1366,5.305048966,5.624545639
1367,4.600957881,5.339263902
1368,3.038077754,3.022675396
1369,4.802417327,5.241757548
1370,4.156447954,3.03891312
1371,1.551781875,2.258281805
1372,4.540052838,5.183662975
1373,1.789571398,2.330274128
1374,3.319334987,2.80148543
1375,4.124064959,3.74299794
1376,2.937896114,5.979038665
1377,2.484811047,2.86719779
1378,1.517362176,2.530185037
1379,6.438895918,4.527693039
1380,4.095563662,4.319362981
1381,5.968508401,6.084441522
1382,4.018817336,4.030708259
1383,4.719598746,5.454850273
1384,3.470947279,5.582057033
1385,4.863335078,4.295057379
1386,5.138376337,5.509429013
1387,5.373958485,5.683824676
1388,3.561224937,4.791092436
1389,2.520466315,2.071066556
1390,3.172967391,3.391549965
1391,5.429554004,4.520972012
1392,3.19938525,5.186899954
1393,6.243617254,5.761118493
1394,2.96072692,3.44897436
1395,5.327745232,5.113710688
1396,1.420699883,1.989798054
1397,4.87778868,4.072758692
1398,4.940576795,4.439938739
1399,5.800957301,5.664189972
1400,6.390827358,5.905853671
1401,4.76417166,4.576891758
1402,4.852824984,4.888074471
1403,6.753019831,5.336268392
1404,4.249197981,4.315485861
1405,3.289032595,4.134989567
1406,3.368584932,3.37024468
1407,6.48410407,5.927093473
1408,3.244721069,3.331135344
1409,1.85493079,1.678929535
1410,2.398888357,2.419609071
1411,4.474540791,4.798201903
1412,2.784494086,3.676785891
1413,5.921454656,5.48669613
1414,4.227965404,4.511071107
1415,2.586328458,3.796710252
1416,6.056556687,6.49275575
1417,4.995063255,3.903059661
1418,4.456549009,4.955907213
1419,4.68851125,4.731267907
1420,3.977440743,4.705124827
1421,4.823528944,5.93069831
1422,3.077697763,3.676468714
1423,5.852305755,5.716538424
1424,5.166647766,6.566965676
1425,5.917986411,3.915616097
1426,3.492244975,3.936844661
1427,5.166569938,4.62131845
1428,1.646556231,2.713948427
1429,5.45267514,4.536731677
1430,1.155383377,1.888288291
1431,1.738538251,3.425646628
1432,4.468213157,4.755819425
1433,2.937528443,4.953500269
1434,2.054831729,2.522804265
1435,5.745853983,5.933160254
1436,5.121240814,5.043458529
1437,5.82454333,6.004843222
1438,4.786718902,4.483255913
1439,3.854438193,4.433894371
1440,6.662534778,6.001935282
1441,2.92469684,3.592599147
1442,2.694035356,3.147989442
1443,4.491273868,4.94780813
1444,4.060932135,4.132879953
1445,4.395682408,4.177703094
1446,1.849929368,2.689515987
1447,5.71244526,4.994459474
1448,4.237639131,3.439716901
1449,6.706058985,5.80447576
1450,1.841761406,4.701379672
1451,8.699733653,6.373529562
1452,2.88639447,1.859905303
1453,4.051697123,2.693825515
1454,1.584279565,4.469125556
1455,4.818850304,3.320905386
1456,2.563345132,4.082681181
1457,5.243304773,5.57627923
1458,7.58090072,5.964464085
1459,5.96048102,5.645925151
1460,4.161942475,4.20450082
1461,8.302598031,6.232800085
1462,3.08167739,4.104355697
1463,4.269680044,3.151360508
1464,4.197296578,4.23476474
1465,2.99082183,2.06701964
1466,6.497653936,5.308738894
1467,6.765092717,5.877655137
1468,4.991069495,4.558825718
1469,6.216096725,5.691718863
1470,2.879546957,4.8991767
1471,5.860634786,5.792375633
1472,4.204742193,5.669770126
1473,2.064615363,4.978206974
1474,4.5042914,4.105532918
1475,4.669292879,4.856072604
1476,7.886199025,6.029062791
1477,8.247952686,6.184327118
1478,4.292915944,4.341348662
1479,7.234950944,6.035950509
1480,1.074323808,1.926554314
1481,3.061704581,1.714805679
1482,3.911407525,4.245445813
1483,3.902858159,4.434646934
1484,3.277524693,4.88371494
1485,4.040083485,5.143713702
1486,4.205329717,4.64288141
1487,5.666349184,5.741999142
1488,4.900491873,5.511575442
1489,6.517862302,6.005639699
1490,2.978071642,3.244814743
1491,3.417890035,5.200456386
1492,4.730232868,4.942005807
1493,7.124154585,5.637057535
1494,3.225235562,2.229377614
1495,6.056195272,5.965152039
1496,2.233554329,3.688730414
1497,7.300737525,5.896242883
1498,4.653913942,4.980571827
1499,4.622243946,4.450983976
1500,4.544034524,3.402994851
1501,8.98230135,6.226611489
1502,1.635754623,1.901474585
1503,2.561767853,4.686000409
1504,7.217854862,5.987905967
1505,3.608745178,5.200280112
1506,2.536745802,3.579962305
1507,4.384056477,4.382566174
1508,5.003399257,4.71670556
1509,3.800263301,5.17342262
1510,6.294758028,5.846944132
1511,1.63540441,4.906971117
1512,4.160884998,5.182415959
1513,1.27627087,3.36693638
1514,4.258514498,3.971057257
1515,7.139626066,5.983100197
1516,3.619873639,4.408936778
1517,4.433492792,3.593900146
1518,5.918503886,5.718134442
1519,4.420471044,3.329631301
1520,2.151029868,3.971919953
1521,2.581106471,2.076750054
1522,7.94248562,6.251495906
1523,2.064186557,4.001777417
1524,3.010527469,3.835584434
1525,6.069865076,5.697242028
1526,5.179266346,3.460854844
1527,7.565469731,6.360366601
1528,5.383396866,5.765970355
1529,1.604665503,1.464893575
1530,8.029658653,6.251481653
1531,4.449348237,5.731356148
1532,6.329587103,5.806529573
1533,5.662287605,5.72823124
1534,3.970081268,5.267899103
1535,6.739981831,5.806608361
1536,3.354931524,4.417821864
1537,4.574099574,3.617828266
1538,6.078405932,5.580931792
1539,6.882175702,4.904785986
1540,4.207783993,5.053522012
1541,7.467987471,5.093990966
1542,7.85460991,5.28960542
1543,6.986318379,4.603102912
1544,7.139802243,5.662109815
1545,2.503785033,2.307363847
1546,2.059118412,4.862643726
1547,4.05452005,5.009627119
1548,6.282100378,4.707036771
1549,6.317443936,4.596532774
1550,4.686772398,4.960388852
1551,2.094660536,1.430372455
1552,5.366490592,5.04200385
1553,3.981686751,2.969140179
1554,2.319702704,2.394201258
1555,4.253515929,5.755673178
1556,2.119498483,3.456066873
1557,7.852064499,5.648771318
1558,1.069308533,2.75171863
1559,6.209574624,5.18152665
1560,8.149309729,5.72974079
1561,4.965760119,5.880021051
1562,9.360323701,6.186930066
1563,6.603540402,5.861407437
1564,5.637710102,5.953145507
1565,5.948600055,5.231072123
1566,6.571181015,5.638272104
1567,4.03092309,6.505067153
1568,7.766881742,5.736490563
1569,4.847471975,4.970611024
1570,7.333012458,6.210412924
1571,7.064534192,5.84807986
1572,2.457717342,4.553285894
1573,6.597682499,4.823395458
1574,3.438032703,4.831683615
1575,4.224470925,5.809441703
1576,6.017137641,5.827639757
1577,6.729414032,6.366044083
1578,1.335203998,3.511332481
1579,3.468995026,4.135206702
1580,2.625069238,2.303787697
1581,5.295082585,4.512221778
1582,8.773346661,5.807786384
1583,2.388752826,4.036398974
1584,3.505535266,4.537791314
1585,5.741378132,6.011593815
1586,7.579088438,6.202034361
1587,2.314675524,4.833595224
1588,3.568725371,5.723864983
1589,4.229896917,4.458409693
1590,2.020115123,3.803276888
1591,3.351271247,3.937212532
1592,3.242196546,4.813656226
1593,3.620646226,4.280168674
1594,5.224003151,5.702714172
1595,8.804601512,5.843146594
1596,2.83286821,6.174401556
1597,1.611337296,4.334699509
1598,2.069905156,3.556845172
1599,2.628524184,6.085120385
1600,5.923046839,5.065680182
1601,7.285007207,5.331859098
1602,4.948942601,4.390096342
1603,2.113282605,3.360557203
1604,4.76404259,5.131321724
1605,3.322521631,4.292526203
1606,5.296792203,4.730083974
1607,3.653444046,3.798442044
1608,2.851152186,5.60026666
1609,6.932971513,6.143426496
1610,6.086881504,6.017693347
1611,6.906116941,5.51331054
1612,2.113812398,3.357248156
1613,5.688244909,5.923861519
1614,5.54636138,4.628423039
1615,1.789961704,3.029720192
1616,3.212944872,4.480737627
1617,5.611276045,4.762942468
1618,4.430392743,4.60176268
1619,3.724708281,4.498942637
1620,2.783508024,3.841329887
1621,3.860723997,5.487441679
1622,6.868150733,5.985666118
1623,3.254941019,5.051099751
1624,4.393266252,4.771612617
1625,3.817057342,4.918275216
1626,3.685650979,5.263844716
1627,3.913502086,5.845181212
1628,2.928922547,4.222249087
1629,6.753692926,5.447603015
1630,3.82144438,3.953846679
1631,7.272399148,5.900957973
1632,1.157798316,2.117527728
1633,4.741185494,4.740210894
1634,2.134830372,4.437831845
1635,3.154614541,4.340250441
1636,2.258055022,3.412233066
1637,6.474423257,5.615583184
1638,6.401896025,5.679123673
1639,2.920734757,3.815594138
1640,6.375665279,5.301625892
1641,8.037084284,5.484491093
1642,3.21153881,5.010019568
1643,2.470273895,4.137438641
1644,5.269960186,5.575022002
1645,5.558900694,5.347332362
1646,2.855631136,3.976646874
1647,8.806733437,6.237112912
1648,1.801907732,4.448031854
1649,5.86081979,4.808320378
1650,2.591660564,3.39110427
1651,5.816565311,5.209590734
1652,4.787286734,5.53190187
1653,4.951207788,4.98110575
1654,2.199707884,4.071553111
1655,2.116975885,5.586269315
1656,4.87211311,4.486245796
1657,1.807105705,3.262184132
1658,7.338781901,5.805839081
1659,3.817713934,5.464083527
1660,8.34595477,6.021342576
1661,5.805367151,4.657058631
1662,4.682808739,5.451927832
1663,6.997962123,6.406341152
1664,3.327011344,5.683415511
1665,3.183953788,5.163308309
1666,5.382877966,4.855043315
1667,4.485989184,4.295118982
1668,4.389094113,4.463914133
1669,2.022730687,3.273745732
1670,4.033330658,4.831800831
1671,2.19613507,4.885906724
1672,3.342377782,5.638943274
1673,5.331626312,4.695528067
1674,4.231492779,4.699193123
1675,7.336553115,6.022529886
1676,4.234323313,4.901045205
1677,5.365480806,5.724891896
1678,5.274577293,5.425578681
1679,4.794422311,4.408485222
1680,2.61271401,4.017834701
1681,6.124555435,5.83732988
1682,2.238421768,3.562971159
1683,7.112179694,4.802494932
1684,2.204540374,3.497018548
1685,3.302032087,4.699753037
1686,3.554207875,4.494767927
1687,2.520471099,3.866664938
1688,9.410921825,5.437476071
1689,2.542521278,3.840300634
1690,6.003636181,5.022738478
1691,2.15909724,5.132598291
1692,4.350477212,4.707479399
1693,3.080150859,3.70602518
1694,6.174923334,5.861651036
1695,8.165959644,5.794075436
1696,6.312219409,5.311899105
1697,4.163801821,6.053761406
1698,7.807534511,6.57637879
1699,4.362987081,4.830087881
1700,3.96422164,5.3783319
1701,4.499118918,4.794985071
1702,6.566904623,5.691559012
1703,5.025425956,3.838779099
1704,4.100538252,4.821385285
1705,8.316878234,6.147494853
1706,1.506076396,4.806246993
1707,1.826675026,5.658545392
1708,5.201274828,4.335550175
1709,2.942907339,3.602266604
1710,4.309997322,5.010789436
1711,5.602815856,4.425088271
1712,6.698878585,6.073595683
1713,3.472570085,5.925488124
1714,7.055700401,4.696855825
1715,1.984107523,3.872068382
1716,6.149257969,5.569703978
1717,2.019899993,3.305118921
1718,2.984566071,4.263105909
1719,4.11577089,4.351867928
1720,4.799519858,4.836174632
1721,6.711211206,5.390935309
1722,6.627464161,5.297566659
1723,4.118912405,4.9155345
1724,6.268492062,5.169999115
1725,2.781698251,3.720421189
1726,4.351368904,5.397537146
1727,1.559101831,3.418406195
1728,2.888592914,4.506876434
1729,5.571002606,4.756399361
1730,2.783873944,4.98163075
1731,2.447088662,3.663163668
1732,4.894542355,4.476384217
1733,8.115818437,5.586103377
1734,3.188954594,3.95672984
1735,4.046624943,4.795492573
1736,3.706829726,5.01086302
1737,4.410142633,4.58714905
1738,5.968051807,5.188607763
1739,3.823225579,4.778972466
1740,2.685385909,4.836091436
1741,3.854343682,4.829625961
1742,6.435591207,5.98107406
1743,8.362947088,5.944272332
1744,5.779871341,5.078837612
1745,1.647452609,5.430591624
1746,2.416796466,4.153962323
1747,4.386513722,4.839795499
1748,7.813680199,5.784484319
1749,1.991152288,3.770142524
1750,5.332261682,5.109794041
1751,4.723701457,5.099953939
1752,5.528637264,4.733008313
1753,2.056528015,3.513556043
1754,8.18825627,5.823176487
1755,8.051705178,6.08496548
1756,3.95495041,4.771434841
1757,4.676315975,5.540415685
1758,2.969889064,4.602692327
1759,4.287980649,4.432245204
1760,6.059569893,5.440971477
1761,3.720500489,4.562796463
1762,1.841099563,3.851310175
1763,4.503054689,5.820505563
1764,2.102960606,3.686747593
1765,3.447073675,6.022070549
1766,4.088928185,5.578833583
1767,1.871297688,5.538838676
1768,5.880897126,5.686232541
1769,5.40529622,5.197582299
1770,7.037667093,5.376566362
1771,2.912146215,4.989469372
1772,8.317885713,6.199312423
1773,8.015534072,6.445616914
1774,7.032533894,5.644371294
1775,4.83393315,5.61257722
1776,4.500608747,4.121379134
1777,1.829712749,5.081012881
1778,1.954044884,5.000400716
1779,2.281233039,4.486468013
1780,1.924666506,3.369903063
1781,1.296221418,3.130592553
1782,2.058066487,5.577685864
1783,6.948968097,5.096939731
1784,5.96258529,5.147943232
1785,7.125561796,5.812101759
1786,3.601931109,4.553151655
1787,5.122615172,4.864200846
1788,1.029042997,2.615772408
1789,2.844991377,4.468660405
1790,4.091975701,4.182564617
1791,5.343299272,4.624478365
1792,2.607636733,4.785530614
1793,4.400857993,5.50671747
1794,2.319044881,3.574340396
1795,4.808798348,5.62271835
1796,3.260258467,4.614969381
1797,2.542801753,3.858941082
1798,2.12383941,3.380191769
1799,2.071625225,3.29763704
1800,6.945297734,5.920758974
1801,7.273595783,5.496812223
1802,3.388465683,4.382285901
1803,2.394333447,5.575410852
1804,2.375769589,3.751987841
1805,7.601740815,6.054310365
1806,8.769544729,6.039600505
1807,6.053663968,5.102956607
1808,3.805276063,4.988057125
1809,7.972935945,6.038394482
1810,6.764097741,5.844737621
1811,2.612560998,4.525690899
1812,5.529474314,4.77061296
1813,5.016486024,4.916169861
1814,7.505345485,6.22421825
1815,4.54347184,4.125163872
1816,1.250402416,3.649572168
1817,4.589430851,4.976615691
1818,4.025240539,5.452168759
1819,1.316196316,1.924526205
1820,5.024172743,4.970685163
1821,2.724570631,5.248580516
1822,5.470921209,4.740713932
1823,3.424068718,4.073003654
1824,2.92920016,4.099387994
1825,3.776930841,5.636537664
1826,1.493265752,4.736670545
1827,7.383183735,6.245123994
1828,2.970963819,4.860170216
1829,2.852343263,5.560910525
1830,2.8460612,4.377533824
1831,2.143454953,4.79676162
1832,6.178733668,4.904491103
1833,4.672487408,5.885917492
1834,6.554292985,4.884574848
1835,2.427676896,5.481961548
1836,2.108734792,3.23976529
1837,2.565335987,4.114217088
1838,5.104190471,5.024466007
1839,4.003573556,4.525440291
1840,2.23578349,3.115731487
1841,3.331193351,4.496735113
1842,2.225944478,4.14618875
1843,3.696104504,5.300174706
1844,2.949303255,3.638052799
1845,2.397547307,4.909579135
1846,2.25645382,5.673632034
1847,3.471098148,4.447655058
1848,4.134550362,4.55125288
1849,3.877820781,5.114149938
1850,5.674554296,5.763598028
1851,3.823637275,4.471408721
1852,6.432260384,5.019734223
1853,3.361570573,4.391607545
1854,3.580006939,4.565704201
1855,5.098437766,5.674166294
1856,4.229364775,3.545188876
1857,5.639406268,4.979274743
1858,7.790673411,6.340221509
1859,3.465625516,4.382971303
1860,4.907847995,4.832070819
1861,7.918426691,5.3176073
1862,6.312340323,4.852121689
1863,4.536573725,5.642581294
1864,2.38214312,3.631739032
1865,2.311456991,3.677618087
1866,2.046951093,3.931076792
1867,1.055708061,1.203921262
1868,3.795717203,3.700177488
1869,5.112887312,4.045365332
1870,3.789115275,3.439535065
1871,4.083440279,3.670159506
1872,3.046769137,2.831214473
1873,3.739696899,2.035630727
1874,1.145485859,2.418629179
1875,2.256989702,1.828896041
1876,2.204605375,1.823669119
1877,1.235002934,1.558871222
1878,1.211658502,3.050159253
1879,3.259136445,3.281131575
1880,1.356037523,2.526486125
1881,1.15055578,2.032477749
1882,1.792154981,1.308292118
1883,1.157652904,1.48301158
1884,2.722909511,3.35975789
1885,1.489407291,1.466016411
1886,1.514507271,2.328340772
1887,3.068565036,1.793313996
1888,2.088901851,4.345055403
1889,1.169726053,-0.607240874
1890,2.000441453,1.389156102
1891,2.889994179,3.206028319
1892,2.766004565,2.470156982
1893,1.208434542,0.376308124
1894,2.975171491,3.5236931
1895,2.08116031,2.036626214
1896,3.126897472,2.116580366
1897,1.082615619,0.963668005
1898,2.787215418,3.050028031
1899,1.052682588,1.158550434
1900,3.167619849,4.353326346
1901,1.972252741,2.96322209
1902,1.822176413,0.704564066
1903,2.333651899,4.524420629
1904,1.040157778,1.541909634
1905,2.981379208,2.627896835
1906,1.328645346,1.221841014
1907,3.244892499,2.830445284
1908,1.700400785,4.28182879
1909,2.914425595,3.651743939
1910,1.744059099,2.42143741
1911,1.144964872,1.698481557
1912,3.516151001,3.477863282
1913,2.700857593,4.385164611
1914,1.541336853,1.868751842
1915,3.124900233,3.523971317
1916,2.432333233,2.671745768
1917,1.553930427,0.499588499
1918,2.990048563,4.087556769
1919,1.048421385,1.408691146
1920,3.240999838,3.624820708
1921,1.066962638,2.693401255
1922,3.207745427,3.250521872
1923,4.137300718,3.893102518
1924,2.980588542,2.616658904
1925,2.632772913,2.948785605
1926,2.777257206,2.99117004
1927,1.207144628,2.529946598
1928,1.003043278,0.032760129
1929,1.566296104,1.740589838
1930,3.76814386,3.162576266
1931,3.732259987,3.546397244
1932,1.279302088,0.742932072
1933,3.874030127,2.986445906
1934,3.136416486,3.655015771
1935,2.05017904,3.403992762
1936,2.777731803,4.712541508
1937,5.350028282,5.769317448
1938,2.02172049,2.498924795
1939,3.998260449,3.712489633
1940,3.378589199,5.705342998
1941,1.233414619,1.70552232
1942,2.935521613,4.432511306
1943,1.76365547,3.174114472
1944,1.122165633,2.790343404
1945,1.598710843,5.485613755
1946,1.4494749,2.743546958
1947,2.72848475,2.911274441
1948,1.388561716,1.671458601
1949,3.785410801,4.758992271
1950,3.090807103,3.456270339
1951,1.678595846,3.00111328
1952,4.833219887,5.97560497
1953,2.251827157,3.972631669
1954,3.615262586,1.185305386
1955,1.556659462,2.465681807
1956,3.940246421,4.151990846
1957,1.748188795,3.285209917
1958,5.24918151,4.869161614
1959,2.306672709,1.817482147
1960,1.400113183,3.475215282
1961,1.567352626,0.908589485
1962,5.446332627,5.936545628
1963,2.261332152,3.701515868
1964,4.426531906,5.14813784
1965,1.755898847,3.263770241
1966,1.006268694,-0.347595465
1967,2.446773626,4.471676513
1968,3.766083253,4.949745687
1969,2.487114732,4.051274958
1970,2.50667214,0.82907676
1971,3.539800725,2.904056495
1972,2.396512712,3.57669363
1973,1.329735422,3.625152725
1974,1.344977598,2.921510829
1975,1.19643813,3.069355813
1976,1.936574627,3.463328784
1977,2.360418949,4.102392641
1978,1.472396193,1.479146685
1979,2.647522095,2.747321227
1980,2.232587226,3.15569519
1981,3.501307937,3.404298703
1982,3.563959792,3.956152412
1983,4.073814273,3.892985468
1984,2.197419041,1.547529519
1985,1.956118316,3.121949163
1986,3.351357381,3.226653454
1987,1.816533073,2.04575552
1988,2.355824612,3.482482827
1989,2.940626126,4.289969972
1990,1.38139962,1.095934948
1991,1.59726502,1.477771177
1992,2.19098657,1.62351672
1993,2.750626965,2.377850264
1994,2.513053668,2.593094745
1995,2.152349841,2.67851011
1996,1.092855076,3.285046199
1997,2.478324006,2.395975417
1998,2.430560605,3.0234712
1999,1.979438633,3.587870781
2000,2.314246596,2.216717645
2001,2.502855948,2.471221142
2002,3.472006086,3.103663576
2003,1.778706993,2.773717
2004,1.050098579,0.788257563
2005,3.531573695,3.509878713
2006,1.199173974,2.913931715
2007,1.891097565,2.125419963
2008,1.150667363,1.507514334
2009,2.140740283,2.035761974
2010,3.730143869,3.583624345
2011,1.015329406,1.118143331
2012,1.375194491,1.736345061
2013,1.047895025,2.762469564
2014,1.56633638,2.072416199
2015,1.8463701,3.604206449
2016,1.871917697,1.716505999
2017,1.088433566,3.435841837
2018,2.107089008,2.441346413
2019,3.507646134,3.570634081
2020,2.397993391,2.944759806
2021,2.407917344,2.622551119
2022,2.1471519,2.853780988
2023,1.781594547,1.589643568
2024,2.031969806,2.577243712
2025,2.285185981,3.247293543
2026,1.139826128,3.050035849
2027,1.28981546,3.764081496
2028,3.562401597,3.761131422
2029,3.084778948,3.017855059
2030,2.530038366,3.238273461
2031,2.00976899,3.365309197
2032,1.305140488,2.554677854
2033,3.367794566,3.4584044
2034,1.703527059,3.543630316
2035,2.979907751,3.362056259
2036,1.123179392,2.172419745
2037,1.623391479,3.647313702
2038,1.093778451,2.590778987
2039,1.53208317,1.738290267
2040,3.390552789,3.798565701
2041,3.283546406,3.461883706
2042,1.037464973,1.300503862
2043,1.958151945,3.615703601
2044,1.006090432,1.379400655
2045,1.464897,1.486201048
2046,3.018296507,2.289627748
2047,1.421040411,1.872757661
2048,4.136670337,4.520817677
2049,2.373660635,2.919801662
2050,3.149358352,2.923498253
2051,1.268731263,0.881954584
2052,2.60764119,3.564380479
2053,1.356269471,2.560176717
2054,1.280397044,3.961253327
2055,2.119326808,2.338326173
2056,1.669651591,1.847762111
2057,3.296964727,3.046309455
2058,2.317583108,3.039852135
2059,1.621664944,3.264221748
2060,2.754220865,4.263914072
2061,1.903538731,1.90900143
2062,1.143532551,3.755631852
2063,2.374484612,2.929483784
2064,2.299873283,3.086278367
2065,1.413535849,3.21989567
2066,3.974987956,3.610039462
2067,1.480047328,1.701696825
2068,2.093755233,1.919650204
2069,1.711076269,2.002620724
2070,3.311049684,3.829508845
2071,1.750839556,1.812496836
2072,2.272179355,4.490517853
2073,1.697956663,1.787265804
2074,1.908774631,3.93888011
2075,1.546269779,2.98942469
2076,3.951201184,5.060063405
2077,6.554552944,3.089009057
2078,2.800103174,2.694720685
2079,1.844472714,3.219532711
2080,1.055497214,1.863945345
2081,1.596887586,3.344230637
2082,2.664530269,2.555465956
2083,1.107989686,1.984884371
2084,2.004774897,2.868915123
2085,2.185751408,3.3385555
2086,1.79513461,1.770783487
2087,1.474279331,2.853087604
2088,1.154439123,1.890408646
2089,1.366118426,-0.142231485
2090,1.384596056,2.274877759
2091,3.723935859,5.126168959
2092,3.254432008,4.98791431
2093,1.220758937,1.495983897
2094,2.144725224,0.881749825
2095,3.592001811,3.392929089
2096,7.461413021,4.42837969
2097,1.798416244,3.090370814
2098,2.643439701,3.982289148
2099,2.470315363,3.051047359
2100,1.489360016,0.765158277
2101,5.064548834,5.254051841
2102,1.984883421,5.034553469
2103,1.519792074,3.148713978
2104,2.980893604,5.080697933
2105,1.95392355,1.277525229
2106,4.465345973,5.301883375
2107,5.574382778,4.881459976
2108,1.089469764,1.664878119
2109,1.957896584,4.764180464
2110,4.423100955,3.258708114
2111,1.851533679,1.56536201
2112,2.566653078,3.055185616
2113,6.273435502,4.662288661
2114,2.193198464,5.142528885
2115,1.640319346,2.394203802
2116,4.541090641,5.0758289
2117,4.632696955,4.55022628
2118,1.219312278,2.1621981
2119,2.027176259,2.253374694
2120,5.666865942,5.16823204
2121,1.026712525,2.358867981
2122,1.883612034,5.106392928
2123,1.324442516,1.927973703
2124,1.503190241,3.983304694
2125,1.013347381,3.391664074
2126,1.502197695,2.762374639
2127,1.458205416,2.406013064
2128,2.082586409,3.629262281
2129,1.753071756,1.730235485
2130,1.666149606,3.222520299
2131,2.354263821,5.053012726
2132,1.398634149,4.526423464
2133,4.641388794,3.81399962
2134,1.157476841,0.673295413
2135,1.808607079,2.345231468
2136,1.830601169,0.209267587
2137,1.557560859,1.696316528
2138,2.006094337,3.114538143
2139,5.134086474,5.208363616
2140,1.38636529,2.16520175
2141,5.629810675,4.424633989
2142,1.083282761,4.249018103
2143,2.080584646,3.190630073
2144,4.638368427,4.17322119
2145,1.474191931,5.163945939
2146,2.346752704,3.191381603
2147,4.273748197,4.740923598
2148,1.187581262,-0.04492556
2149,4.583855546,4.251963641
2150,3.346743833,4.999130298
2151,2.658057668,2.210002952
2152,1.304572388,0.953892186
2153,2.331233506,3.96755633
2154,2.428169721,2.142080721
2155,3.658174291,3.003225963
2156,1.437328936,1.948792497
2157,2.878299328,4.728821432
2158,1.685302077,2.184322357
2159,1.610400325,2.469860016
2160,1.572865926,3.901001254
2161,1.648271664,2.056393704
2162,1.554953171,1.947728107
2163,1.048188889,2.477729455
2164,1.860458755,3.565346272
2165,4.210151329,4.919615674
2166,1.021102872,3.217582812
2167,1.309898037,1.075472052
2168,2.148400042,3.382428648
2169,1.048516579,2.867249304
2170,1.834924618,2.665015189
2171,2.389303245,2.341509898
2172,1.119295757,4.698411856
2173,2.916484396,3.265660227
2174,1.709152317,4.626428511
2175,1.134071052,2.021492563
2176,1.237059243,1.250372201
2177,2.038254613,4.728470869
2178,1.226644846,2.2509845
2179,5.616288485,4.988876598
2180,2.314190714,2.404781086
2181,3.409932683,5.08977546
2182,1.03564006,3.611216752
2183,4.593655275,4.32940514
2184,4.185424852,5.240580597
2185,5.897877397,5.290427869
2186,5.23541208,5.010769359
2187,3.86063669,5.142344396
2188,4.372401911,4.457517769
2189,2.861034664,3.322222133
2190,2.423218675,1.985966302
2191,5.889184154,4.809174042
2192,1.087846398,3.926315906
2193,3.431261961,1.471565128
2194,1.318042303,4.626643206
2195,2.52198165,2.47047593
2196,3.367968742,4.35100162
2197,1.792092025,4.092432157
2198,3.600764877,5.288441523
2199,1.92665616,2.855102752
2200,2.111557077,2.501101237
2201,1.463068069,2.72910559
2202,5.980312683,5.797078135
2203,1.707359082,2.766638203
2204,1.223393851,1.82875746
2205,3.963124402,4.220934746
2206,4.08243523,4.847144524
2207,4.281462035,3.960277206
2208,1.31924732,2.63054472
2209,1.78247688,2.422775791
2210,5.385272682,5.726404272
2211,2.655991537,3.826438525
2212,1.809454886,3.634511678
2213,2.223264309,2.226917296
2214,1.240678028,3.723549146
2215,1.232795858,4.029774333
2216,3.996617865,5.916518683
2217,2.251602076,2.224203746
2218,4.458631053,5.305234554
2219,1.40061944,4.116907888
2220,4.64000191,4.714994137
2221,3.162428333,3.542906307
2222,3.845270548,6.281522556
2223,3.840551608,3.923846196
2224,2.396724725,6.343604837
2225,2.909658305,6.281787679
2226,1.424519666,5.364494481
2227,3.23476909,6.39077646
2228,5.003460908,6.258559538
2229,2.557357458,4.485155825
2230,3.760809483,6.442333993
2231,1.329052016,4.540141032
2232,3.553626211,3.338219929
2233,2.010633539,2.847752027
2234,4.931061471,4.796660563
2235,1.995808261,2.939489315
2236,4.218074531,5.746485302
2237,1.608382246,3.866826551
2238,2.529053743,5.895102247
2239,2.826254712,3.233886738
2240,4.476878979,6.450378863
2241,5.80816301,6.320818779
2242,1.134042216,3.766810259
2243,4.975418246,5.240196191
2244,5.932601397,6.177598152
2245,6.411401261,5.803722341
2246,2.70966805,4.689097407
2247,4.185149305,6.418812059
2248,1.213302664,5.163307869
2249,5.146455403,6.564343984
2250,1.343446069,4.216860253
2251,1.583066876,2.798990492
2252,4.208700492,5.23327432
2253,6.221696927,5.408377478
2254,1.801475622,3.689403029
2255,2.162394728,4.702299508
2256,2.740455694,3.790240357
2257,1.331893282,0.41066145
2258,3.686526717,4.582533784
2259,1.53173371,4.098510049
2260,2.780835229,5.205772544
2261,1.601012508,2.876437087
2262,1.5123478,1.928839189
2263,3.161429148,4.639050994
2264,3.067621318,4.754888158
2265,2.75378206,3.415456287
2266,4.687445703,4.823633385
2267,2.659223492,4.132489976
2268,3.64349771,3.884856378
2269,1.508722283,4.319953394
2270,4.232406937,2.782172366
2271,5.47264498,0.450179951
2272,2.738527459,-0.107876309
2273,6.569369374,2.844748664
2274,2.430945428,4.054126973
2275,3.499891602,5.521988022
2276,1.467565018,2.358125739
2277,1.865905599,4.21261314
2278,1.818101509,4.609338339
2279,5.681753984,5.508795764
2280,3.052774496,4.884902379
2281,1.511217512,1.882550543
2282,1.925264279,4.162747779
2283,3.16153022,5.521188775
2284,3.388899768,5.963066891
2285,1.416787652,2.40732813
2286,1.913147761,4.230805494
2287,1.808190214,2.439241731
2288,4.789761118,5.167695358
2289,2.082941952,2.789198902
2290,1.70660477,3.358910001
2291,4.322395823,4.854418347
2292,2.445081094,2.853697736
2293,1.349662565,2.871722538
2294,5.195818175,4.757909479
2295,3.931908065,4.871202491
2296,1.544167915,2.336139599
2297,2.010002099,3.370117221
2298,8.611163672,6.802957326
2299,2.652144942,5.10882575
2300,3.357889038,3.0908718
2301,1.272132744,5.783500932
2302,4.004807387,4.273335987
2303,2.904350399,4.470866154
2304,1.764282916,2.405210997
2305,6.137785119,5.638329512
2306,2.339191252,3.666692978
2307,1.333491662,2.700831848
2308,6.897093645,6.70326781
2309,1.53499838,2.037747211
2310,8.023244959,6.737068384
2311,10.00470283,6.976710368
2312,4.624446454,4.947002364
2313,1.545546378,3.309198536
2314,3.961291629,3.90866111
2315,2.659552024,4.0341967
2316,1.763424032,5.077174993
2317,8.799870573,6.797222259
2318,7.960223954,5.275465243
2319,1.331124347,3.900641862
2320,1.520105501,3.34141834
2321,3.444873903,5.472573528
2322,1.369262456,4.324357995
2323,5.131868692,4.913365839
2324,1.809338444,3.031078177
2325,2.744852966,5.00506909
2326,4.070524962,5.782991817
2327,4.163248842,4.150146738
2328,3.357059724,4.750031962
2329,4.602043503,4.252929779
2330,4.801106837,4.09852869
2331,2.166374963,4.76263276
2332,2.802783222,3.815817325
2333,2.980863996,3.566494824
2334,1.515198564,3.132301789
2335,2.241371711,3.91885942
2336,4.310703497,4.088809002
2337,6.607935294,5.452770817
2338,1.062424202,3.363262271
2339,6.610986456,5.154701296
2340,3.796483283,4.164596052
2341,1.704539554,3.53127688
2342,2.559079498,5.240851014
2343,2.827749639,5.066155266
2344,4.905114661,5.798818219
2345,5.003842826,5.858072901
2346,6.543333506,6.130373075
2347,4.695153071,4.673179915
2348,6.78190406,5.825214342
2349,2.859360085,5.568961291
2350,2.314651325,3.184710572
2351,4.403443226,4.295793164
2352,6.852188079,5.868330203
2353,5.833398626,5.664255439
2354,7.595288487,6.32139089
2355,6.830941619,5.1577564
2356,2.251828465,3.245581749
2357,5.229358752,5.152943534
2358,5.109071862,5.706908935
2359,6.942057386,6.171369311
2360,2.984504157,3.47582326
2361,1.686335165,3.764990221
2362,1.971876821,3.504199504
2363,7.085343113,4.762462214
2364,5.414458359,5.221170502
2365,9.011192503,6.557454552
2366,5.860177477,5.411969275
2367,1.033746536,3.615285847
2368,3.687313953,3.734741006
2369,2.212593072,3.307757379
2370,6.594457951,6.33966557
2371,4.565488896,5.54332095
2372,2.434374861,2.07948457
2373,5.849886167,5.835808077
2374,5.539832411,4.334214711
2375,10.05395326,6.110696179
2376,4.666553306,6.325641012
2377,1.37304043,4.291774734
2378,1.099157971,2.096292512
2379,1.200418114,2.569076123
2380,5.097252132,5.997788837
2381,6.164418843,4.960142535
2382,8.821142222,6.323955921
2383,6.393069987,5.725329494
2384,4.718739982,5.757072139
2385,1.953678921,3.80977879
2386,1.218848511,3.283298731
2387,5.269543217,5.725683828
2388,1.384311756,2.619965492
2389,5.468821975,4.469258451
2390,4.426022788,4.755618088
2391,4.361764626,4.655443656
2392,5.501237768,3.957453715
2393,1.581819702,3.800204434
2394,1.287765361,2.993710966
2395,1.718115986,3.468172231
