,Eta,Eta-predicted
0,1.584279565,2.479553445
1,4.32722543,3.909041345
2,6.250691763,4.614136974
3,2.673021531,2.952089914
4,1.038249443,2.562161253
5,4.420471044,4.473907783
6,3.506210832,3.562207103
7,4.269346616,2.717433881
8,3.686045285,4.777227758
9,3.826609274,3.936909251
10,6.184387434,7.398858173
11,2.064615363,1.996513674
12,4.618793429,6.015925171
13,6.352490242,5.669695519
14,6.964275474,7.79067609
15,7.217854862,7.547143043
16,2.574770869,3.126326172
17,2.026742852,3.022429042
18,7.021997279,6.70301312
19,1.983650492,2.206548744
20,3.503783756,4.28633076
21,1.143323553,2.455352876
22,3.528140288,4.221769219
23,6.706058985,6.35211681
24,1.295968346,1.741081967
25,1.533418372,2.230197201
26,6.740221552,6.18895221
27,7.825047362,7.528283607
28,4.040083485,4.532943485
29,3.061704581,5.046032944
30,4.359904755,2.500082058
31,6.44274015,6.663152355
32,6.635949842,6.952568734
33,3.673500291,3.3729589
34,5.243304773,4.017287707
35,7.322268467,7.067409402
36,1.119568015,2.360232747
37,4.258514498,3.714224381
38,6.572355531,4.332770083
39,2.978071642,3.89239258
40,7.886199025,6.691290977
41,5.385579965,6.151832573
42,2.531966447,2.292714509
43,8.264045144,7.522220059
44,4.669292879,4.788575635
45,3.120512862,2.874759489
46,3.806683827,3.656890754
47,3.16852795,3.592514109
48,3.904528419,2.673900765
49,4.900491873,5.198683276
50,3.173681662,4.45247793
51,1.728273123,2.473958878
52,2.330541941,4.602107173
53,2.064186557,2.620225744
54,3.115691199,4.285188695
55,1.432847102,2.211224018
56,8.302598031,8.116899413
57,1.684153171,2.2568515
58,1.239701814,2.412630604
59,6.497653936,6.111118578
60,2.659939619,2.117267514
61,1.074323808,1.703326409
62,5.153365214,4.149933267
63,8.515341573,7.846171336
64,8.127769118,7.258328567
65,8.257737911,7.434238578
66,1.720437931,2.482459627
67,7.668767277,6.58210337
68,4.269680044,3.839678406
69,7.124154585,6.578414244
70,2.831973202,2.316878568
71,5.684055633,5.437194372
72,7.463610593,7.248921973
73,4.119440126,5.591695503
74,7.941021673,7.098011212
75,1.716184079,2.291266374
76,1.27627087,2.966900493
77,2.44817044,2.575314653
78,6.086312949,5.228924057
79,2.916008948,2.760908387
80,7.140052952,7.772175288
81,6.708767935,6.9363023
82,6.294758028,6.290435798
83,3.970081268,4.373031868
84,3.655254672,3.569397019
85,3.284449831,4.245133906
86,7.58090072,7.214165569
87,3.010527469,2.907757038
88,7.673153268,7.266535318
89,2.520917259,2.665133476
90,4.962621336,2.986175806
91,1.873312529,2.43577654
92,2.746666438,2.732377658
93,2.03808559,2.342380947
94,2.729239647,2.504500464
95,4.682194265,4.076470179
96,2.030546446,2.589199455
97,4.231119684,3.522062546
98,2.233397411,2.503582843
99,1.097394103,1.466081673
100,4.086362984,5.166764698
101,5.495106434,4.953779152
102,1.363534586,1.978239019
103,5.114927825,4.339274604
104,2.46503246,2.937948966
105,2.885548545,4.35029156
106,1.832770823,1.718616766
107,4.110107765,3.58944947
108,4.072786756,3.75831131
109,1.311458905,1.331994654
110,5.701410742,5.027079593
111,4.106395967,3.490093072
112,3.61784287,2.781143524
113,2.722823602,3.463814612
114,4.814522174,4.635625522
115,4.187555668,5.080498672
116,1.529885129,2.24302504
117,3.106039776,3.089670761
118,4.695362516,4.211041522
119,1.778207488,3.535114464
120,2.461181212,1.556219201
121,3.595213279,3.82140865
122,1.413999901,2.473703071
123,4.503140924,4.938619863
124,2.162053778,2.465425696
125,4.920955866,3.91248808
126,3.467433723,4.270130253
127,3.386945085,3.287577056
128,3.536437958,4.118662596
129,5.533118072,4.603517169
130,3.297172825,3.19405643
131,1.935817613,2.35379529
132,4.386049553,5.816018091
133,4.601234728,4.904563637
134,4.19309938,4.555535368
135,1.42500993,2.317159921
136,2.189084902,2.800101281
137,3.734415369,3.91329707
138,1.187544816,1.146439681
139,2.817734715,2.661086095
140,3.159358174,4.036607747
141,4.14257886,3.762503484
142,2.134522186,2.426969171
143,1.846046981,1.314096262
144,3.966221073,3.888666989
145,1.810572426,2.049821811
146,2.593563243,2.696612884
147,1.541354646,1.60656368
148,2.235386305,2.160069515
149,3.913338206,3.516721867
150,4.720795823,4.76868263
151,2.501641172,2.854788416
152,4.02887993,3.50924922
153,3.85820325,3.983262798
154,4.180350473,4.553300723
155,3.647455136,3.256889045
156,4.529908568,4.668379555
157,4.245567962,3.452613021
158,2.271745969,2.977424572
159,2.077222988,2.026162551
160,3.994510472,3.328851176
161,5.663439391,4.870132463
162,2.543156565,2.46137286
163,1.232145426,1.711864494
164,1.299560873,1.313994395
165,3.811776368,2.851421359
166,4.494532978,3.245920764
167,4.449247356,4.448380773
168,2.606330509,1.706868734
169,1.123034698,1.347807665
170,1.850291058,1.76242107
171,2.028127314,2.444115402
172,1.269613535,1.396536161
173,2.738675154,2.557233364
174,5.166137271,4.309107025
175,2.681244212,2.959266095
176,1.567898008,1.305417938
177,4.235592511,4.093948057
178,1.09115628,1.407432441
179,4.723369547,4.352885525
180,4.644474575,4.124753943
181,2.760955355,2.628823667
182,3.75717901,5.79423015
183,5.423191998,5.190477715
184,3.001413256,3.180636436
185,4.849105882,4.298790873
186,2.554728564,2.447579038
187,5.740007994,5.58726742
188,2.614198094,2.903258996
189,1.360274976,1.283644588
190,2.865512649,2.547976765
191,4.321676168,5.627898826
192,4.867271068,4.288984647
193,1.797202821,1.983606771
194,3.557070493,4.327345859
195,3.605269732,3.14462193
196,4.270594945,4.08779771
197,2.007304017,2.099172658
198,1.006231851,1.439921933
199,1.982132102,2.039014449
200,2.556700447,2.226594395
201,4.251887031,3.933441625
202,3.039826124,2.950167585
203,4.30193401,5.110348565
204,5.645570899,4.900507948
205,3.096569669,3.312005861
206,4.120444878,3.652033427
207,1.960465976,1.752919769
208,4.270898134,5.00196837
209,5.082389372,5.564445528
210,3.492955897,3.120150114
211,3.409193775,2.707217739
212,4.15252781,2.538882793
213,2.411267146,2.205206075
214,1.031544036,1.283733964
215,3.242599403,3.110131671
216,3.664475769,3.374730594
217,1.013333498,1.617855522
218,3.75305524,3.517359587
219,3.761467784,3.512622689
220,1.028655577,1.315227132
221,2.747104748,2.630445714
222,3.351065017,3.565856326
223,6.014676752,5.823710738
224,3.717694661,4.930249456
225,1.005463988,1.289118959
226,1.547827805,2.677366159
227,2.740868651,2.793047413
228,1.696900492,2.466914556
229,4.593300964,4.195874231
230,3.549297215,3.621529247
231,4.780833094,4.755981847
232,2.295674152,2.318469829
233,1.433861226,1.428311303
234,1.657062199,2.388941618
235,2.474468246,2.284075297
236,2.598458237,2.827431398
237,3.503374653,3.71443568
238,2.663860497,2.649015739
239,4.299789771,4.595492556
240,5.180452707,4.733274082
241,2.601139321,3.070095819
242,3.172088191,3.940910685
243,1.439910547,1.706928017
244,1.671372693,2.410475388
245,3.536320214,2.943468264
246,1.811285753,1.794272738
247,3.701596979,3.502129894
248,1.655164678,2.448757803
249,4.094421293,5.063151611
250,2.070599649,2.992795455
251,4.315823472,3.858373878
252,4.965711828,4.015053754
253,3.911118326,3.894199275
254,5.378338773,4.84962457
255,1.101061571,1.353771289
256,5.276330804,5.443821434
257,1.726101251,1.861705026
258,5.001708333,3.832965658
259,4.982753463,4.263147855
260,3.727175056,4.514014578
261,4.142709322,3.893903268
262,1.2726488,1.289058185
263,1.256004861,1.696169222
264,2.237020608,3.118572305
265,2.104825048,3.811115671
266,4.443142803,4.638577096
267,4.853093398,4.211159361
268,3.912948917,3.520237641
269,4.71763931,5.451041931
270,4.394188794,4.204658903
271,2.161843636,3.192445454
272,1.740036776,2.618710532
273,4.205146763,4.27841109
274,3.541397572,3.535455728
275,4.895626492,3.223901187
276,1.946697828,2.007372962
277,2.257412329,2.962514435
278,2.896847186,3.252849958
279,2.947675668,3.544136892
280,5.316196456,5.066059354
281,4.204352243,4.090900935
282,2.169145268,1.504209782
283,2.287229401,2.92481904
284,3.397932398,2.68570613
285,5.174381556,4.540422152
286,3.67353893,3.195129707
287,2.903961442,2.631021954
288,4.555210388,3.443220233
289,2.973954036,2.223020849
290,3.20125705,4.354822216
291,3.358422973,2.582292527
292,1.285791301,1.565296376
293,5.511319135,4.906865943
294,5.439873566,4.072744895
295,4.321566899,3.874912648
296,2.101261426,2.884216248
297,2.730304024,2.217879472
298,1.626911635,2.222200623
299,4.783600136,2.723064727
300,3.617128216,3.394845292
301,4.680395028,5.288084309
302,2.594117188,3.001523663
303,5.064594094,3.831019569
304,3.278998286,3.705768586
305,5.398307894,4.755360568
306,4.625440305,4.457851783
307,2.350768318,3.00571436
308,5.468653618,5.340844074
309,3.357735405,3.646646151
310,3.792955122,3.911415294
311,3.026432117,3.460977162
312,3.54311541,3.567487504
313,4.437142045,4.687355498
314,5.192463249,5.181656121
315,4.857505658,3.256123922
316,4.074005071,4.05003324
317,2.409684617,2.84126757
318,4.184400875,4.497612742
319,2.071137599,3.347737968
320,3.093987252,3.479606521
321,3.128815939,3.415808615
322,4.718428354,4.458890291
323,3.879792015,3.347499575
324,3.507909704,3.772154653
325,3.807961963,3.675639792
326,3.728406607,3.044759213
327,4.49817233,4.681418307
328,5.584311115,4.853312433
329,2.144614996,2.377140249
330,3.4418694,3.452733277
331,4.499196741,4.681524088
332,3.280548373,2.88620911
333,1.954574183,3.413813312
334,2.15560482,3.225293205
335,4.306621328,3.421862669
336,4.514583839,5.315406837
337,2.137195027,2.512641337
338,2.652225443,2.692627073
339,2.799898334,3.929535713
340,3.718426944,3.933173008
341,3.259035234,3.035536536
342,6.730982113,5.761166502
343,4.380773109,3.468939953
344,1.266925329,1.880760884
345,5.263016595,5.246331175
346,4.418302361,4.003959509
347,3.550560279,3.709590455
348,4.039890489,5.002291197
349,1.619721576,2.384741317
350,2.822938362,3.486378471
351,1.508717518,2.569446158
352,1.983684548,2.222782798
353,3.873062773,3.000383397
354,2.81367857,2.980148292
355,3.245431392,4.233370352
356,5.287627066,3.30331322
357,2.324899341,3.010439974
358,2.994040121,3.742288802
359,4.443098151,4.622813431
360,3.604343265,4.63033351
361,4.381371637,4.333835949
362,3.37904059,4.033895811
363,2.602459197,2.757197618
364,3.466690023,3.170944698
365,3.819554921,4.41698457
366,4.611108164,4.583397462
367,4.724646794,4.672978644
368,3.563547638,3.257932174
369,3.597469218,3.872474607
370,4.219156553,4.391879329
371,3.776545534,3.894024719
372,1.276722969,2.103635339
373,3.430349007,4.749736309
374,4.238435355,3.718275086
375,4.411244056,3.108065742
376,5.483532532,6.408195062
377,3.910924732,4.172701934
378,4.51565987,3.495103107
379,2.648649764,2.823363255
380,4.867336476,4.825392833
381,1.604142252,2.511577289
382,2.214669344,3.068731527
383,4.333565309,4.022399991
384,3.058135203,3.388555124
385,2.730613234,3.273073998
386,3.332854607,3.4000182
387,3.762346078,3.96428465
388,2.819020545,3.649182752
389,3.758250762,4.827302522
390,4.992666008,4.175438712
391,2.845346031,3.923791902
392,2.475772485,3.025076699
393,3.398689859,3.394148989
394,4.41306709,4.188850759
395,3.301446204,3.311911348
396,3.963703305,4.213801544
397,4.596105429,3.710134835
398,1.585709632,1.724077045
399,2.073894017,2.963784782
400,5.056279061,4.368778058
401,3.409962271,3.532356778
402,3.833571082,4.45716001
403,5.089342218,4.416066052
404,2.893174947,3.150318326
405,4.493617546,4.252235808
406,2.439719366,2.861991314
407,3.230275832,3.540133907
408,4.162853527,3.949250086
409,4.539252353,4.450551905
410,3.243279457,2.558014768
411,1.957486934,3.303829921
412,2.700546335,2.841861059
413,3.014522005,3.5898532
414,3.995649733,3.704460813
415,1.976000538,2.50028361
416,3.022053532,2.555723096
417,4.078022854,4.006854346
418,3.750735678,3.610359029
419,4.359307196,4.172792723
420,4.165214627,4.017193568
421,4.082939606,4.137721283
422,2.646142266,3.024043221
423,4.447165694,3.807214364
424,4.19390276,4.237700219
425,3.417613353,3.485687141
426,1.637801346,1.994647908
427,4.227267107,3.615167086
428,3.675988252,4.515617739
429,4.500492405,4.522871172
430,3.176315811,2.484693147
431,4.132561763,4.037602228
432,3.554395644,3.412484554
433,5.344699782,4.78228631
434,6.167674118,5.079790636
435,3.223249491,3.648688384
436,6.504036035,5.773616673
437,2.09741685,2.530526965
438,2.888002002,3.209746695
439,2.66763608,3.010495975
440,3.975776067,3.276686509
441,3.930312056,3.675788324
442,5.136640275,4.491020848
443,1.858693805,2.7728276
444,3.819293774,3.120422028
445,3.368477819,3.773001038
446,5.618568486,5.197464215
447,4.370435636,5.026563026
448,3.33376336,3.382071965
449,3.157650082,3.282871398
450,4.483110307,3.812927
451,2.920269744,4.31397063
452,4.032409996,3.166496296
453,4.351188659,4.16302145
454,5.331216033,3.337011201
455,5.344355885,4.778672801
456,3.434231562,4.034606497
457,2.445821351,2.763142911
458,4.138046601,4.486227259
459,4.905844252,4.570061132
460,3.886561254,2.667177565
461,2.14145839,2.707693142
462,4.432398361,3.905055651
463,4.812351273,3.849555635
464,5.042379823,3.86456662
465,4.007612051,3.598160249
466,4.338990773,3.876005722
467,4.608720363,3.736409472
468,4.025489387,3.846006597
469,4.601673098,4.669489941
470,5.21442752,3.991790925
471,5.130852207,5.646455893
472,5.630339608,4.860046376
473,4.339478235,4.48061266
474,5.100139924,4.284451977
475,5.264737071,5.670600457
476,2.165394195,3.332311416
477,2.18178015,3.01346719
478,2.672959526,4.072581847
479,4.542026327,3.946860106
480,2.69260929,2.548732529
481,2.010853047,2.904657066
482,1.628159804,2.610546086
483,4.817437963,4.855464832
484,3.693585813,4.049851854
485,2.262645231,2.283495987
486,1.286543257,2.600850161
487,3.893564798,4.002694473
488,1.759434865,1.808241309
489,2.567826131,2.279065285
490,3.41582711,3.365024313
491,4.390448714,3.280251008
492,3.860151412,3.794027003
493,2.806238617,4.464772684
494,1.967350468,2.634683296
495,3.923273641,3.736427125
496,4.264975846,3.521257468
497,4.864224596,4.331321241
498,2.764832609,3.066085672
499,4.037543487,3.863509041
500,3.028868365,3.342134208
501,3.309520441,3.677986549
502,4.417968947,4.260560282
503,5.117108426,3.59181734
504,1.970387446,2.823926739
505,4.822914168,4.252188815
506,3.754282323,3.500411861
507,3.573241394,3.877759562
508,3.252713264,2.458962839
509,5.372309667,4.407018221
510,1.749542763,2.859943944
511,4.604692424,4.145648041
512,2.964142899,3.636234917
513,3.356555007,4.380399458
514,2.073909043,3.429021298
515,3.00214398,3.065158005
516,2.080188214,2.168743864
517,5.158400136,4.767935667
518,3.611735294,3.897837093
519,1.149959611,1.671381902
520,3.610134476,3.371086347
521,5.484669196,4.673270302
522,3.6555786,3.314834337
523,3.098341148,2.454229213
524,4.51814537,3.683429826
525,4.619392448,4.244360623
526,3.957683369,3.673850505
527,2.424456281,2.493116812
528,4.069910573,4.200846348
529,5.228908802,4.742885149
530,3.495091596,4.969383452
531,2.47947314,3.420751488
532,3.926468188,3.829806152
533,3.612364358,3.568495423
534,2.922336984,2.385441656
535,4.157846157,3.674235184
536,3.066334138,3.105200438
537,3.345266222,4.730172262
538,2.468966919,4.352594052
539,4.137737508,4.923210353
540,3.228769742,2.656068075
541,4.976217461,5.594676097
542,4.917150843,4.710414352
543,4.230795301,3.736338176
544,2.176528112,3.585571116
545,6.041816387,5.753072333
546,1.273866783,1.758218042
547,5.293110905,5.194793851
548,4.148437935,2.937838479
549,2.446122856,3.031351273
550,3.084724901,3.303886034
551,4.170244291,4.046436843
552,4.597158346,3.54476255
553,1.005105639,1.718088748
554,5.042352205,4.154041603
555,4.398288636,4.173271806
556,2.967338873,2.474443578
557,2.783828024,4.054962741
558,1.110670117,2.537093137
559,3.159472064,3.657974946
560,3.228703334,4.268608401
561,1.744324832,2.146173784
562,1.872414598,3.005396207
563,3.761791399,4.85783798
564,4.460932743,3.915191472
565,3.908171739,4.465975764
566,4.17783154,2.766277939
567,3.910681393,3.629138136
568,3.537257912,2.93546336
569,5.167592958,5.567250702
570,2.711464774,2.010925732
571,5.442863092,4.374775986
572,4.545275218,3.960142061
573,4.380354018,3.87944621
574,4.913793891,3.981346577
575,2.820313934,2.773270968
576,3.466539236,3.102130237
577,3.71925872,3.459356225
578,3.410234143,2.976853187
579,2.976626954,2.876382051
580,4.178807005,4.438147818
581,3.036280473,5.016574147
582,3.207924372,4.865077136
583,3.847894703,3.364642969
584,2.555324062,3.22090507
585,3.575269499,3.456773057
586,3.597859832,4.336394524
587,3.474416356,3.577272552
588,3.501492095,3.354044143
589,4.599210802,4.9098569
590,3.250712532,3.297856868
591,3.189482903,3.507657924
592,2.6957708,3.882028897
593,4.408600443,4.721961056
594,3.074924278,3.611553332
595,5.16416308,3.818507631
596,3.183953788,4.046921582
597,5.237308556,3.552098958
598,3.981017579,4.14051511
599,2.044409693,1.906317105
600,5.528637264,5.24254008
601,5.039522177,5.228793953
602,6.858723487,4.421347323
603,4.266623995,4.066189781
604,5.517068852,3.787819132
605,5.822205293,4.225481138
606,4.386513722,4.286078601
607,4.664214061,3.79849806
608,3.645759129,2.598948059
609,8.908514541,3.422420564
610,2.460319225,2.538384885
611,4.723701457,4.961660248
612,6.980982329,6.228102725
613,6.147792369,4.995861545
614,2.259055034,4.293902689
615,5.822476311,5.952625086
616,2.743079274,4.228569941
617,1.369246619,2.322843552
618,1.008537989,1.755344736
619,1.841099563,3.093269964
620,3.82144438,2.437008283
621,5.951028685,5.460223579
622,7.327680478,6.421260895
623,3.854343682,3.094439164
624,3.997552661,3.482904018
625,7.236402518,7.54072602
626,5.0120895,6.175995137
627,1.837345468,2.438824057
628,6.603540402,6.104206919
629,5.735372709,6.001625446
630,4.181504946,3.796834531
631,4.270592926,3.882106553
632,6.753692926,5.053161774
633,6.877280283,6.566059951
634,8.310449979,6.62556404
635,4.847471975,3.890969144
636,3.091185282,3.541989239
637,5.93798083,5.02763074
638,5.838031674,5.402020899
639,3.395925524,2.975828047
640,5.999079316,4.873915003
641,1.580207869,3.076306401
642,8.716692058,5.819487033
643,1.811469145,3.53174621
644,4.894542355,3.354460073
645,6.478172175,5.353066544
646,5.206248346,5.486204814
647,3.949327045,4.200481492
648,2.019899993,2.508979198
649,5.018753027,4.316224226
650,6.226753676,6.322025727
651,5.130905219,3.97454118
652,2.097092134,2.32332997
653,4.882320575,3.993548763
654,6.12530097,3.638914319
655,1.798081702,2.752024586
656,1.229000913,2.00925593
657,7.327515054,6.428090264
658,7.849929669,6.220136689
659,7.099510705,4.733309936
660,2.176633519,2.959346405
661,4.252878223,5.302525302
662,4.163801821,7.479347303
663,4.891988525,3.71844779
664,4.76404259,4.161747692
665,2.620153979,2.694188001
666,3.899022338,4.317605592
667,4.279211485,3.54113222
668,5.032943117,3.624847561
669,3.471966815,4.935113295
670,1.382035243,1.977698362
671,3.943929467,2.240948943
672,2.5828607,3.953346775
673,3.264785869,3.796896426
674,2.851171873,6.475299332
675,6.225455825,5.421853908
676,6.990102783,6.953839061
677,3.291097282,3.714622616
678,6.566904623,5.338395676
679,7.327010725,6.841988924
680,5.575056823,5.059631951
681,4.309997322,3.761395491
682,3.945436242,6.615928345
683,3.620646226,3.83903253
684,5.433688321,4.050620294
685,2.304697742,3.309612634
686,5.135947182,5.185817455
687,4.082092749,2.833590139
688,2.484348203,2.923374281
689,6.627464161,4.334008533
690,6.917250422,5.079020664
691,4.390737645,5.945340737
692,2.439561352,3.121409241
693,3.368361668,6.304684747
694,3.187374071,5.347902902
695,3.90121705,2.808201982
696,6.543090382,6.312746684
697,5.151371971,3.630715475
698,4.827175862,4.605498917
699,4.603745688,3.588773496
700,8.564487955,6.416185411
701,4.686750355,3.587697919
702,5.295082585,3.962301415
703,4.299358607,4.769650627
704,8.051705178,7.429927225
705,3.823225579,4.449481599
706,8.158813298,7.358645005
707,5.032780546,3.772497262
708,7.851699626,7.271281458
709,6.375665279,5.11585919
710,6.411021952,3.700345325
711,6.549594092,3.938002211
712,5.381467895,3.549097045
713,8.362947088,7.831082235
714,2.179834422,2.339655197
715,3.568725371,4.540723836
716,4.731901209,4.903787947
717,4.025240539,3.706618116
718,2.508752219,2.974055603
719,5.00300394,8.393551352
720,1.250402416,1.656827839
721,7.852064499,5.668781704
722,5.881112615,5.53895321
723,2.238421768,2.502332434
724,3.154614541,5.137152401
725,2.10267789,2.012048973
726,2.696876924,2.637047821
727,3.971630488,3.593610332
728,3.472570085,6.110236057
729,3.724577915,4.257605252
730,6.00297278,6.049165481
731,4.308506339,2.929039328
732,5.800444699,5.167589398
733,6.803338244,7.200094811
734,3.096827694,4.378361256
735,4.410142633,3.634463169
736,2.923880409,5.640915977
737,8.820997899,7.801527204
738,1.789961704,1.760488139
739,5.969630336,5.930373895
740,1.871297688,5.052590878
741,4.033330658,4.057941528
742,4.543165059,4.483566029
743,2.457717342,3.746876181
744,6.356848851,5.446700273
745,7.338781901,6.337630439
746,4.638064544,3.745262905
747,3.982168899,6.375691351
748,3.868222904,2.880598648
749,4.700851807,4.155363331
750,7.037667093,5.503639285
751,6.711211206,5.556088742
752,5.461288403,5.197129732
753,5.464452479,5.043293655
754,5.318894696,4.622203141
755,5.880218914,6.287991976
756,8.115818437,6.245836021
757,5.555651395,4.627328251
758,4.591573971,3.552918482
759,3.37314801,3.990556323
760,2.471014796,2.906705499
761,2.790902373,4.329826054
762,2.612560998,3.827303785
763,9.817540603,5.226688537
764,6.948968097,4.712522613
765,2.160728542,5.505171696
766,5.928383348,5.168455323
767,4.194088139,4.702288527
768,3.415414559,3.843645303
769,3.447073675,4.940936879
770,2.326257036,2.23064792
771,6.132566034,5.406898915
772,8.987649343,6.555046269
773,2.509370974,2.699911292
774,2.695485437,2.983281589
775,10.31875639,7.88926976
776,3.302032087,3.989706925
777,4.393266252,4.137447295
778,7.032533894,5.000639326
779,5.840256211,5.6482677
780,1.984107523,2.536780376
781,4.996261695,2.928773504
782,1.117940575,1.881002673
783,7.641994285,5.187948775
784,6.928803614,5.823276097
785,6.086881504,4.808735486
786,3.661641958,4.040668464
787,4.947711943,4.718635791
788,2.6251469,2.552134883
789,4.319630223,3.946509879
790,4.627117556,3.011348053
791,4.686679313,4.55624492
792,8.051411555,7.858469472
793,4.676315975,4.419965741
794,8.165959644,6.686565993
795,8.498181929,8.271143785
796,3.295097079,3.437459941
797,5.27776319,4.267381136
798,2.361838966,3.730895614
799,3.081013822,3.658836883
800,5.602815856,3.81002836
801,4.682808739,5.055172367
802,1.335203998,2.05467071
803,6.452041037,7.631786706
804,1.658559813,1.80876332
805,3.130431884,4.151112505
806,3.453636628,4.954566297
807,4.40439087,3.390451464
808,2.022730687,2.189747562
809,4.231492779,4.634653055
810,2.732904718,2.333609603
811,4.350477212,4.623924052
812,2.802268853,2.658508645
813,4.520677743,3.260907341
814,5.168538971,4.106032655
815,2.171728491,2.451957906
816,5.728621995,4.596887499
817,6.537079062,3.446336826
818,3.552046524,4.511273946
819,6.077867028,5.114260629
820,7.064534192,6.512477273
821,7.02427403,4.599800733
822,6.764097741,6.427230474
823,2.89048808,4.322367283
824,7.713656662,6.429177086
825,2.200194859,2.493570531
826,2.113282605,2.287920734
827,4.091889157,4.095441724
828,8.402189699,5.24138898
829,5.440349552,5.412834767
830,5.146605871,3.569089594
831,6.412021612,3.308229971
832,2.362069955,3.752927956
833,7.818060945,7.329018928
834,3.351271247,2.712924753
835,2.198508476,4.130317295
836,1.533981332,2.055791315
837,2.862059982,3.17218623
838,5.225577303,3.484746813
839,3.289865136,4.65964538
840,2.969889064,5.733313707
841,2.739028738,2.489937135
842,4.735369962,6.465154794
843,2.984566071,3.129969934
844,3.808171543,2.941868814
845,1.591061348,1.625370184
846,4.242559131,2.376892587
847,1.219301383,1.456335787
848,1.029042997,1.784988023
849,3.356698016,3.600933494
850,5.420442211,5.524981969
851,7.272399148,7.062411286
852,3.891502532,3.860276067
853,1.36559159,2.122964596
854,5.926004976,5.069733611
855,2.64294097,2.687210171
856,1.790004111,2.316426107
857,3.95495041,4.451142711
858,1.075507993,2.559809137
859,3.296964727,2.4977282
860,1.149973463,1.640024915
861,1.211938679,1.991917845
862,3.318993405,2.636630802
863,1.801465986,2.076354107
864,2.916187988,2.632274481
865,3.084778948,2.69151349
866,1.999017852,2.335174917
867,2.338368083,2.106917534
868,1.570456127,2.427480791
869,1.230878749,1.299143234
870,1.270064378,1.950087604
871,1.780867879,2.052998799
872,1.819474283,1.613725789
873,2.179146452,1.806103148
874,1.18748292,1.483719752
875,1.976741109,2.176128703
876,2.158958739,2.213226873
877,2.093755233,2.247783301
878,2.85923942,2.622784833
879,2.601420626,2.852821993
880,1.143532551,2.351547971
881,3.175192953,2.24147358
882,2.119326808,2.955217781
883,2.242250246,2.102093662
884,1.181286712,2.68979296
885,2.14990971,2.565018326
886,2.212505354,1.72998486
887,3.450744041,2.704369968
888,2.188853563,2.781081715
889,2.031969806,2.347122471
890,2.396512712,2.417954073
891,1.211048079,1.291996923
892,1.356269471,1.987855599
893,1.818657438,2.062721391
894,1.480047328,2.185502897
895,1.299907235,1.410736248
896,4.806270767,3.208007757
897,2.786059549,2.499937521
898,2.686359306,2.453502579
899,1.903538731,1.822843623
900,1.884797806,1.826103885
901,2.372385026,2.519421582
902,2.121590932,1.86559764
903,1.976563686,1.96173189
904,1.958151945,1.873605206
905,2.334491894,2.193409177
906,2.238093239,1.852553285
907,1.028431815,2.650009336
908,2.044103402,1.899243395
909,2.360418949,1.932510965
910,1.270464019,2.470898122
911,1.669979833,2.828017898
912,2.251578741,2.338611593
913,1.537035057,1.941330907
914,1.720137197,2.183306797
915,2.155733642,1.885401761
916,1.496575941,2.267700821
917,2.966265751,2.666694598
918,3.531573695,2.786354846
919,1.421040411,1.549735076
920,1.89047237,1.893010749
921,3.088019993,2.78849715
922,1.00112197,1.57995844
923,2.777731361,2.610244733
924,1.305140488,1.294348313
925,2.374484612,2.155698676
926,1.268731263,1.520827311
927,2.771913366,2.464363817
928,1.711424781,2.202406416
929,1.534764773,2.789256676
930,2.986819052,3.434226846
931,1.60760843,2.154029877
932,3.013914761,2.764875104
933,2.45357317,2.345476437
934,1.093778451,1.989692328
935,1.781594547,1.956403858
936,2.352258457,2.024083101
937,2.232587226,2.437641448
938,1.170823517,2.105191557
939,3.39968502,3.431788418
940,1.213676738,2.276039722
941,1.816533073,1.775110122
942,1.38139962,1.68363983
943,1.979438633,1.929846509
944,2.905843233,2.691633528
945,1.405970766,1.450042697
946,2.903174831,2.914275755
947,2.152349841,2.331192129
948,2.44356655,2.608360851
949,2.255461901,2.188019506
950,2.073953874,1.850900085
951,1.488185907,1.9152502
952,1.123179392,1.67962856
953,1.092855076,1.413006301
954,1.718411172,2.873475686
955,4.073814273,3.150100123
956,1.801267698,2.810898687
957,1.844143833,1.691663904
958,1.491937707,1.9071498
959,4.802417327,5.130938118
960,4.268479926,3.928321527
961,2.63569082,2.442554577
962,6.48410407,6.351579842
963,6.056556687,5.461005969
964,5.445270906,4.805841499
965,3.802412592,4.875077485
966,3.234017567,3.842243757
967,3.226429465,3.59955179
968,2.626611555,2.182409755
969,2.1379077,1.443736225
970,1.744280437,1.404870214
971,2.645291466,1.982678222
972,2.114172615,1.974616362
973,1.789571398,1.851736934
974,4.614608081,4.251799573
975,1.517362176,2.154616544
976,5.052934263,5.56810618
977,6.296818131,5.606556412
978,3.835761607,3.796241974
979,3.725163114,3.343998236
980,4.007743226,3.805674561
981,4.096526281,4.456867895
982,4.111494984,5.010326939
983,1.833403311,2.957362829
984,3.917959307,3.772095236
985,1.095651883,1.907037089
986,4.491273868,5.038477152
987,4.689753812,4.675944574
988,5.757849698,4.980678453
989,2.353549845,2.026467301
990,5.935199996,4.498487631
991,1.394638958,1.773198896
992,2.050180447,1.778493193
993,1.583498871,1.784150893
994,3.808408975,2.763229668
995,2.484811047,2.301803609
996,1.273009473,1.412832552
997,1.329301967,1.555880647
998,5.138376337,5.367944075
999,6.243617254,5.964362824
1000,6.632751158,5.416977179
1001,5.117146144,5.237433538
1002,5.45267514,4.691666922
1003,2.459091252,2.925037116
1004,4.708949618,4.803294774
1005,5.845515117,5.418672578
1006,4.238711318,3.842337502
1007,1.193151685,1.879754074
1008,4.503903258,5.228788866
1009,7.01296263,5.198570492
1010,4.156450707,4.678512505
1011,6.412416256,5.410008204
1012,6.009696394,4.554419089
1013,3.266458318,5.839772115
1014,1.709965164,1.891338369
1015,3.289032595,3.314442929
1016,4.060499026,4.425147575
1017,5.280475078,5.692851057
1018,4.179252129,5.845167582
1019,1.290226268,2.00015745
1020,5.250412882,4.778408525
1021,5.82454333,5.779619081
1022,2.937896114,5.083384544
1023,5.54820708,5.580271466
1024,6.350325025,6.046381074
1025,1.48918483,2.094497948
1026,2.057517545,2.305446603
1027,4.852824984,5.15386439
1028,3.956619343,4.728979668
1029,2.433356912,2.153592037
1030,3.365386182,4.088953602
1031,4.249197981,3.939010469
1032,1.693684453,1.888844586
1033,2.626654617,2.747837127
1034,2.522164192,2.288685433
1035,6.054005022,5.815749288
1036,3.368584932,4.233158873
1037,2.259651335,2.807354015
1038,1.770176869,1.333572908
1039,5.699337783,4.877200609
1040,4.606930206,3.539426936
1041,2.560130894,2.685616012
1042,6.141057055,5.181214572
1043,2.651638892,1.813169494
1044,6.216427041,6.226114555
1045,6.776597402,5.736374149
1046,2.581890348,3.154183353
1047,4.395682408,3.827636562
1048,3.69708959,4.146601261
1049,6.811511405,6.383726485
1050,4.371112647,3.682897481
1051,5.800957301,5.660041902
1052,6.099224906,6.020957755
1053,5.065764694,4.827317902
1054,3.040736574,2.121371922
1055,5.646851023,6.002218815
1056,3.854438193,3.55982072
1057,3.077697763,3.516202142
1058,4.540052838,5.503393941
1059,5.739919266,5.189215594
1060,5.045333891,5.381373566
1061,5.736490926,5.82641027
1062,5.71244526,5.15785317
1063,4.547771727,4.945484958
1064,6.820794275,5.487726272
1065,6.338111842,5.925135606
1066,1.318991978,1.974760823
1067,5.662219394,5.724735996
1068,4.38313506,4.840343983
1069,5.416821998,6.156841381
1070,5.166647766,5.467616522
1071,5.299081595,5.614397746
1072,4.131723205,4.577985873
1073,6.438895918,4.308943803
1074,5.741987209,6.220557458
1075,4.341298569,4.538732056
1076,4.6004876,4.257263392
1077,4.018817336,3.769438983
1078,1.509024378,1.49521783
1079,5.166569938,4.815045362
1080,6.553553139,5.60920439
1081,4.863335078,4.025100767
1082,2.312325458,5.945455488
1083,4.600957881,5.155915433
1084,3.637071452,2.908146405
1085,3.349294536,3.504153054
1086,5.326777087,5.662039275
1087,1.23148599,2.254685574
1088,2.800103174,2.225852553
1089,4.238920932,4.14052394
1090,3.242999213,3.53135128
1091,1.046103224,1.564171812
1092,5.860207747,5.352002392
1093,1.437328936,1.490470088
1094,4.99412861,4.953288549
1095,5.044954291,4.996715586
1096,5.715487988,5.200647538
1097,3.789974003,3.948864279
1098,2.334049148,3.696600991
1099,1.746950159,1.953530617
1100,1.089469764,1.912849661
1101,3.74651385,3.608739693
1102,1.883612034,2.330808288
1103,1.784416156,1.845474748
1104,2.082586409,2.433552106
1105,5.502611061,5.186679287
1106,2.361843603,1.950463194
1107,1.596887586,1.490634767
1108,2.234839362,2.560422209
1109,2.05419573,2.82713798
1110,1.648271664,2.062811034
1111,1.808461069,2.601040777
1112,4.223496913,4.363952385
1113,2.389303245,2.305472599
1114,1.666149606,2.249496603
1115,1.793772089,1.92786421
1116,1.834924618,2.039228777
1117,5.758637641,5.983001026
1118,5.574382778,5.732546787
1119,1.364051435,2.208621452
1120,1.488107343,1.717268498
1121,2.076423653,3.779523853
1122,3.544738962,3.111347528
1123,2.346752704,2.134711438
1124,1.237314822,2.8777034
1125,1.808607079,2.348202792
1126,1.082887692,2.053000095
1127,3.051032427,4.253477088
1128,1.224114701,2.747754688
1129,3.303569532,2.062501019
1130,1.048516579,2.409478149
1131,1.220758937,2.061937725
1132,6.038114688,5.416110959
1133,2.05727702,1.847407165
1134,2.803841209,1.955470917
1135,1.860458755,2.506065357
1136,1.512732967,2.944216282
1137,2.314190714,1.632915095
1138,4.583855546,3.782680192
1139,1.192350803,2.563176838
1140,1.304572388,1.467470996
1141,4.632696955,3.578305885
1142,1.500711734,1.643866242
1143,1.119295757,2.73972394
1144,1.639703416,1.480777862
1145,1.844472714,2.038328824
1146,1.164155186,1.492452355
1147,2.710510958,3.484932879
1148,1.399266447,2.794366819
1149,2.095284025,4.057667742
1150,1.618338493,2.616442156
1151,3.398108382,4.112648692
1152,2.151315055,2.715523553
1153,3.658174291,2.055812734
1154,6.388978077,3.466216125
1155,1.697956663,1.642587281
1156,3.172023204,3.014350499
1157,3.470745277,4.482215095
1158,7.461413021,4.115868979
1159,1.614537213,3.455325985
1160,4.811225273,4.448500495
1161,1.354384911,1.816587665
1162,3.292475295,2.158272846
1163,2.408529858,4.225355949
1164,4.39574009,3.36369779
1165,1.072339509,1.599573065
1166,5.562814265,4.761606898
1167,6.721154695,5.178962718
1168,3.592001811,2.787839017
1169,3.970364536,2.303171342
1170,1.838083965,1.921343994
1171,4.802832538,4.219668641
1172,1.601651102,1.80281158
1173,1.03564006,1.857802679
1174,1.107989686,1.908718728
1175,5.285743262,2.299844067
1176,1.709152317,4.235961433
1177,3.657495786,2.777609955
1178,1.066931992,1.533237219
1179,3.663067123,4.112417663
1180,2.470315363,2.259439084
1181,1.874828308,1.994048565
1182,2.426525481,2.806244051
1183,1.026712525,1.542847151
1184,1.194928726,1.554866048
1185,1.0808001,4.0606966
1186,1.830601169,1.291697993
1187,4.889996701,4.5695994
1188,1.923622031,2.33425481
1189,1.489360016,1.406317463
1190,4.750200364,4.508759817
1191,1.094621472,1.649424279
1192,4.273748197,4.203423578
1193,1.339746619,2.417441344
1194,1.850590931,1.809772016
1195,1.237059243,1.678273209
1196,1.709140364,1.481264584
1197,1.698191072,1.818744486
1198,2.185751408,3.198420281
1199,6.695454958,5.394391499
1200,1.746760097,1.43966772
1201,6.817888833,7.113301407
1202,5.65787112,5.370885512
1203,6.061802914,7.088398248
1204,1.431377194,1.745315537
1205,2.396315012,3.490878308
1206,2.884755144,3.203495974
1207,2.954523624,3.07465395
1208,1.836337506,1.412194732
1209,1.226657853,1.765256524
1210,6.978589639,6.109152976
1211,1.945425657,1.486452914
1212,4.05937687,4.199397871
1213,3.742568361,3.607928187
1214,4.456619717,3.993847535
1215,2.191722906,1.818030034
1216,3.792475326,4.139023588
1217,1.570823716,3.386159441
1218,1.766038543,2.546885257
1219,4.023093929,4.19309372
1220,3.888688996,3.442405019
1221,5.030067554,4.193105088
1222,5.813445376,7.238379425
1223,3.708952908,3.063645262
1224,5.209704053,7.224642101
1225,3.796814303,3.442175336
1226,1.176567321,1.798289207
1227,5.573510926,4.035055877
1228,2.204322378,2.602679192
1229,6.218502598,7.752965522
1230,2.970312941,4.191640539
1231,1.110003352,1.627359206
1232,5.65737057,4.925317287
1233,3.59635158,3.880423171
1234,7.707502076,6.129764339
1235,5.372824841,4.446892799
1236,2.365018222,1.81176239
1237,7.922347128,6.97321155
1238,7.0058386,6.221109647
1239,4.232865669,3.771646342
1240,2.569859206,3.320071096
1241,6.372796093,5.001403212
1242,1.170567657,1.853586685
1243,7.534560061,6.359139828
1244,7.70421037,7.148340456
1245,4.243788548,5.664227
1246,6.222894318,5.428519147
1247,7.370378576,6.316609893
1248,7.958463122,6.081151522
1249,1.551577554,1.820478568
1250,3.227690737,3.579697562
1251,6.264903808,6.530950568
1252,1.298275011,2.110741387
1253,7.179695574,6.360474462
1254,1.817389354,2.760502526
1255,5.132099617,3.223763674
1256,3.014345314,4.511699762
1257,5.913004608,4.580411166
1258,5.915035412,4.466915701
1259,2.10378225,1.481846413
1260,5.806230005,4.163344483
1261,4.644767322,3.81411961
1262,7.180804756,6.455927163
1263,6.742051983,5.960800778
1264,3.153409752,3.668128236
1265,1.230410587,1.550645682
1266,4.723106799,4.03943429
1267,5.93017061,3.927974034
1268,5.879279385,5.958301828
1269,6.859378419,7.025583481
1270,3.531893552,3.088723882
1271,2.097239863,1.667538678
1272,6.909903464,5.819824268
1273,2.553838194,3.50497155
1274,7.134851638,6.720874133
1275,7.357126963,7.134496988
1276,5.939745693,4.958871813
1277,4.37706572,4.194139581
1278,4.481177756,4.107646738
1279,7.003957198,6.061862296
1280,4.243171073,3.633918018
1281,1.550482907,1.556542407
1282,3.645536096,3.274181324
1283,2.01747806,2.120634605
1284,5.156033339,5.222438825
1285,5.821254525,6.247781687
1286,3.281396971,2.469903129
1287,6.439801142,6.638333973
1288,1.324161013,2.013917817
1289,1.056765383,1.634908487
1290,5.175847841,4.212581477
1291,6.674380171,6.717917674
1292,1.054928927,1.570530688
1293,2.830682248,3.571764624
1294,1.035148495,1.510102197
1295,3.907735008,3.069668218
1296,5.862717028,5.122958324
1297,4.172309168,5.066364077
1298,5.779341324,5.766218609
1299,4.858166554,3.853637572
1300,4.135858063,3.84073594
1301,6.696045737,6.091949919
1302,7.513809638,6.136721375
1303,5.471863777,5.206977905
1304,1.773833615,1.95031709
1305,4.306408262,4.522891258
1306,4.668139922,4.365574539
1307,4.434044182,4.661043735
1308,1.506811703,2.441695308
1309,6.111773837,5.375828829
1310,2.462605899,2.399216168
1311,2.023887505,2.48958452
1312,5.295282908,5.944127561
1313,1.864138581,4.139972367
1314,6.591844954,6.080744218
1315,1.870235604,2.933043371
1316,4.742590356,4.72719923
1317,5.895808967,5.908763693
1318,5.463870175,5.511822304
1319,1.156331738,1.5977506
1320,5.448013335,5.092063357
1321,3.258527897,3.294409213
1322,3.225902668,4.942979879
1323,1.232323537,1.539619959
1324,2.843680621,2.553198774
1325,1.868764038,1.616700746
1326,1.903540882,1.521536645
1327,1.821834072,3.620828269
1328,2.387334808,2.584861749
1329,1.129924891,2.42894379
1330,6.498874618,6.17604431
1331,5.519890986,5.617337588
1332,3.401639169,3.611060488
1333,2.94123835,3.079361226
1334,6.391738026,3.981523592
1335,6.815378389,6.201441808
1336,2.750633722,3.902924506
1337,3.1472363,3.648343982
1338,6.152101393,5.693904426
1339,2.73044265,3.022622667
1340,5.587447541,4.634936982
1341,3.654754205,4.419341382
1342,4.107955963,4.149977369
1343,6.147808131,4.919087587
1344,5.1601916,6.251737817
1345,5.173698188,6.479907423
1346,6.316332606,5.393251539
1347,5.355790813,4.171350033
1348,6.080994291,6.332566498
1349,6.559081542,6.095462872
1350,3.591859937,3.188118497
1351,2.225012443,3.363291877
1352,4.980061548,6.478054465
1353,4.452042241,4.643862225
1354,5.446653838,5.139870435
1355,1.811488791,2.475072855
1356,4.444285384,3.393831011
1357,5.878518394,5.583875015
1358,1.298288809,2.703338181
1359,1.238890584,1.479758065
1360,4.087127781,3.661691436
1361,6.3152091,7.107734826
1362,5.453124122,5.711287101
1363,3.10901819,2.717090103
1364,6.890990356,5.867222988
1365,3.548766761,2.573483999
1366,6.425233937,5.989265857
1367,5.088187766,4.777482835
1368,4.109188196,3.605728914
1369,3.317574342,3.115383826
1370,4.659480801,4.982578125
1371,2.666313017,2.726863039
1372,4.773136184,5.416470023
1373,3.122907325,3.58262568
1374,3.133494191,5.056410294
1375,3.333273242,3.47431276
1376,1.678370719,2.612706357
1377,1.270911428,1.69215065
1378,4.283254911,4.110208651
1379,1.499223922,1.347590489
1380,2.303592344,2.440272923
1381,4.820819871,4.260213439
1382,6.302544758,5.381962179
1383,5.218899705,6.359610149
1384,1.411074124,1.984059686
1385,1.533158675,2.397287297
1386,7.582003126,6.376495386
1387,3.808610512,3.172497168
1388,1.375183323,1.489827878
1389,5.890286371,5.048727079
1390,5.343031769,4.951412514
1391,5.464478828,5.060630839
1392,5.376678711,5.677563068
1393,4.538223927,4.48987708
1394,4.307877746,4.726826628
1395,1.252135948,1.432398928
1396,1.298833864,2.579877672
1397,4.23097192,5.38821298
1398,4.790727854,5.65009573
1399,5.769600937,5.366029095
1400,2.74414869,3.223453869
1401,2.794307623,2.789562376
1402,4.747114061,5.068684482
1403,2.552907202,3.501577658
1404,4.513291974,3.921964362
1405,3.424933023,5.487450887
1406,3.792278448,4.315467476
1407,4.716529476,4.700189682
1408,1.957659012,2.667085851
1409,3.395193206,3.452415993
1410,5.572629861,4.752460675
1411,6.489710529,4.921833176
1412,4.60130578,5.860681902
1413,6.311971108,6.041818148
1414,4.160564431,3.799212945
1415,5.267146801,4.888654078
1416,1.146090808,1.388543244
1417,5.583795889,5.411162652
1418,1.021375033,1.650671029
1419,1.084612503,2.576292853
1420,3.984760735,2.672841467
1421,5.771577478,3.660430223
1422,1.80119424,1.478522515
1423,6.524662324,6.125633147
1424,6.460954782,6.372964644
1425,6.962258474,5.927771115
1426,4.863649619,5.13078833
1427,4.759665487,6.126973064
1428,6.625374029,5.771390348
1429,3.1967613,2.806758073
1430,4.677845246,4.712984624
1431,4.202274691,4.51464304
1432,5.946224839,6.085687152
1433,2.86582468,3.4432854
1434,7.160599355,4.752710242
1435,5.310930586,5.696727969
1436,6.435556347,5.790014438
1437,4.92948039,5.594808016
1438,5.228323013,5.214337776
1439,6.631370306,6.020306496
1440,4.203609215,3.703759686
1441,3.475595073,2.983727041
1442,3.040794527,2.860518698
1443,5.658380739,5.410964185
1444,3.258803257,4.500173471
1445,5.984894028,5.17923086
1446,3.815815387,3.409154246
1447,3.075831163,2.176676664
1448,5.213039038,5.347592496
1449,4.611381581,5.144350219
1450,6.408535543,5.577356466
1451,4.169549875,5.016679439
1452,5.330525661,5.525474982
1453,5.103256936,3.950313388
1454,3.420087878,3.208242031
1455,2.704717791,2.259773175
1456,6.894444778,6.110872499
1457,5.528340647,5.691316622
1458,5.085066343,5.329836008
1459,5.09136428,3.930182686
1460,1.693100661,2.377426727
1461,6.834828659,5.834300416
1462,4.587998288,5.548870752
1463,5.187680283,5.612165151
1464,6.689895768,5.365258808
1465,5.243268702,6.001744066
1466,3.694226965,3.250783429
1467,2.932808532,3.278699408
1468,4.276852163,4.027308531
1469,4.082436619,4.034797292
1470,5.454871058,5.268264131
1471,4.83431721,5.334744624
1472,4.240240833,3.516603174
1473,3.987277953,3.484873692
1474,6.65912083,5.915781195
1475,3.687311191,3.376908002
1476,4.135054008,3.410724876
1477,2.382464356,3.014422035
1478,5.181305311,4.329035054
1479,2.034971452,2.599736397
1480,4.728371015,4.923779346
1481,4.297289323,5.153711229
1482,6.144153374,5.871048426
1483,4.75348262,4.934245457
1484,3.695438818,3.52948234
1485,3.568524572,3.77564206
1486,3.594249274,3.941545023
1487,5.77433133,5.831829103
1488,5.496594172,5.917877302
1489,4.667244288,4.173740097
1490,3.159353171,3.483122662
1491,4.352040425,3.817901008
1492,5.496189598,3.90047001
1493,5.658899585,4.404298011
1494,4.75110539,5.670554596
1495,2.682280052,3.35647496
1496,6.852191096,6.6324342
1497,6.137237725,5.727103133
1498,4.814927785,4.910980236
1499,5.415500071,5.317251783
1500,5.819956502,5.019902364
1501,2.490669881,3.55799762
1502,5.491979423,5.544404977
1503,3.60374647,4.151628649
1504,5.439619545,6.295086502
1505,5.161722406,4.519881137
1506,2.996343572,3.03344111
1507,3.154264077,4.305399729
1508,5.231810999,5.054053415
1509,1.538998116,2.763901847
1510,6.838635976,5.757560249
1511,5.298211696,5.847160848
1512,6.244666076,5.376592696
1513,3.14900501,3.467618681
1514,1.692890837,2.353898084
1515,3.465608779,4.562332591
1516,2.636875674,2.898975675
1517,3.098944325,3.150432631
1518,1.794421624,2.890316258
1519,6.699650463,5.538964564
1520,3.997311459,3.375024854
1521,5.009651254,5.385933003
1522,4.450249619,3.587431755
1523,4.43015779,4.706075749
1524,3.192384638,3.444374622
1525,5.044118291,5.253612032
1526,5.173691833,5.471428037
1527,5.548100598,4.305024389
1528,4.32981729,3.927977226
1529,5.652283757,5.467587328
1530,5.645404764,5.178469011
1531,4.588097174,4.934672303
1532,4.233369295,5.811207667
1533,3.220886835,3.948145766
1534,3.062944035,2.880615224
1535,3.265326919,4.199265387
1536,2.792534041,3.695085537
1537,1.509026988,2.636879488
1538,3.9949537,3.836807284
1539,5.418579073,5.37547127
1540,4.640152775,5.585422013
1541,5.095491989,5.629530856
1542,1.985515777,2.806040475
1543,6.936351014,5.931617073
1544,3.474164805,3.943834932
1545,2.555566109,3.479699875
1546,3.50710476,3.435154514
1547,4.266815149,3.898580146
1548,4.14545121,4.086060906
1549,5.203816047,4.953138641
1550,4.826906588,3.65978941
1551,2.962069221,3.06673218
1552,5.598786184,5.887992044
1553,2.958675874,3.299815212
1554,2.987419109,3.148824471
1555,3.02795189,2.776035157
1556,5.449181504,5.64125874
1557,2.760035194,3.739149721
1558,3.757373299,2.904446448
1559,3.446311384,4.213668626
1560,4.445576972,4.886061118
1561,4.488134201,5.061878094
1562,2.998911181,3.294354733
1563,1.799513268,2.953518407
1564,5.197428749,5.966833138
1565,6.049851291,5.767224767
1566,2.803313791,3.030443564
1567,6.749490169,5.538889375
1568,2.639817765,3.207153051
1569,6.283646808,6.223219604
1570,4.402765973,4.992368145
1571,2.49465733,2.776143331
1572,4.278610574,5.381286977
1573,5.387135227,4.793793119
1574,5.079983605,6.092589508
1575,5.639673625,4.029156168
1576,4.607642334,5.551023351
1577,3.720015363,3.479715385
1578,4.2518177,5.158344911
1579,5.773903495,5.097944002
1580,3.873211873,3.912887066
1581,5.189638805,5.307131313
1582,5.001727516,5.781347275
1583,5.102440734,5.30501259
1584,3.522604316,3.270775085
1585,3.653908058,4.102734871
1586,4.133143666,4.755860032
1587,5.166341459,4.653250457
1588,3.176316836,3.175131295
1589,3.626129612,3.608301466
1590,4.351187852,4.872136545
1591,5.277666133,6.163503472
1592,3.115192336,5.323409101
1593,3.50898914,2.770467942
1594,6.544709895,6.198459209
1595,2.692949466,3.597821213
1596,5.729220729,5.659338196
1597,4.964755729,5.230974223
1598,2.01460091,2.231477528
1599,6.530575824,5.280575748
1600,7.604731936,5.8275717
1601,4.138161974,4.461816299
1602,5.382127484,4.890730728
1603,4.616875873,4.864354118
1604,4.550353748,4.707720804
1605,4.996649874,4.464342287
1606,5.485359146,5.373196985
1607,1.818578929,3.657747743
1608,6.77153452,5.521112267
1609,6.79543778,5.553529184
1610,4.577551646,4.320549453
1611,6.403997443,5.67889363
1612,5.923579987,4.925625617
1613,6.01290292,5.267707815
1614,4.545976204,5.384962212
1615,4.293605014,3.979014981
1616,3.909214074,3.847404889
1617,2.788183204,2.435365238
1618,10.53165527,8.28214251
1619,2.515363619,2.004048262
1620,5.910341747,6.01417839
1621,6.970932064,6.644912736
1622,6.752897444,7.291904712
1623,7.27736812,6.773927851
1624,6.977858047,7.201247171
1625,2.793785074,2.907216441
1626,5.44893857,5.681807724
1627,5.513520518,6.112700108
1628,7.445817392,6.726438191
1629,3.843922077,4.190230864
1630,2.31980259,1.666526362
1631,3.185336979,3.526750769
1632,7.335037608,8.266235526
1633,1.541519933,1.794949244
1634,7.199434756,6.818828941
1635,5.41253123,6.633228484
1636,6.447497451,7.049607205
1637,3.174614386,3.739501879
1638,1.374438158,3.714374272
1639,1.32993933,2.775726985
1640,1.393387347,1.870023071
1641,6.123680566,6.217832692
1642,1.605660856,2.989449492
1643,7.051688051,6.280857846
1644,3.902658714,2.941803359
1645,4.052532074,5.325505758
1646,1.002259538,1.677814497
1647,8.268319381,7.633084704
1648,8.185442298,7.361009781
1649,1.559786787,1.290904767
1650,1.037262098,1.338357297
1651,1.261395858,3.039794094
1652,7.127611642,7.564475574
1653,7.416797708,7.13661337
1654,5.69103089,4.198725224
1655,7.374259333,8.021507186
1656,2.289025371,3.894017619
1657,6.701748302,5.82822334
1658,3.644895972,3.865798326
1659,6.401291977,5.15806104
1660,2.25882321,3.065461068
1661,3.228551824,4.046897739
1662,5.089156401,6.800303523
1663,4.588561113,4.938169438
1664,2.329216077,2.293822485
1665,5.889019919,6.083554509
1666,1.203771675,2.228746124
1667,5.299613984,4.083633947
1668,1.208696611,2.082125009
1669,4.992095623,6.716540463
1670,1.802932811,1.746147772
1671,7.798503254,8.252003695
1672,6.991703186,6.476368006
1673,8.192765671,8.106147316
1674,3.68782617,4.476605012
1675,5.375142423,4.700920474
1676,5.836576704,7.274214117
1677,1.340726819,1.310783761
1678,4.502469168,4.79310929
1679,6.818148763,6.461612273
1680,5.870151926,6.676823651
1681,11.15548017,6.990350673
1682,6.239482929,6.967727837
1683,6.708229139,5.973555612
1684,5.5313951,5.316942811
1685,6.421192645,7.393809374
1686,3.274762513,2.389974829
1687,5.399273651,5.977680096
1688,1.168585654,1.921949817
1689,6.677933367,6.886892039
1690,3.255562513,4.040126921
1691,6.324788542,6.584143043
1692,3.655585316,3.064234426
1693,5.663008026,6.505460135
1694,1.807328547,2.074587376
1695,6.627626196,6.707950557
1696,4.519330791,4.452314279
1697,1.176457989,2.209945651
1698,1.12050708,1.341103439
1699,8.021435268,5.449218387
1700,4.267393078,4.041381658
1701,1.75428352,2.509634179
1702,1.664012236,1.821357921
1703,2.159272403,2.937189593
1704,6.324820556,6.183804238
1705,7.422438554,7.037562399
1706,1.123462641,1.57106189
1707,1.452486919,1.701473938
1708,1.331021354,2.579262467
1709,1.007749869,1.52110126
1710,2.438491244,2.338075142
1711,5.944586334,6.450912765
1712,6.248759217,4.67855563
1713,5.584333575,6.159465557
1714,7.234177486,7.181433643
1715,1.430972359,2.706727482
1716,4.071398044,3.529546515
1717,3.91825084,5.493406581
1718,2.52533185,2.18464117
1719,2.251795697,3.062581764
1720,6.6433103,7.035308896
1721,4.753086082,5.471529978
1722,2.919746205,3.747380229
1723,3.603054252,2.511377102
1724,4.494528894,4.406571339
1725,7.187783256,7.37046746
1726,2.85098551,2.198752573
1727,1.555157617,2.994471009
1728,5.666327894,6.596239628
1729,5.811901168,4.529772442
1730,7.462139005,7.674874454
1731,2.95145551,3.698117729
1732,5.699028091,5.010701241
1733,5.370399227,5.776551466
1734,2.417083382,3.769496807
1735,3.050289983,1.67739037
1736,1.005577343,1.54538054
1737,5.517606586,6.582768776
1738,2.053444166,2.51945466
1739,7.67234072,6.92728511
1740,3.277573683,4.135954024
1741,5.193040614,7.614829995
1742,1.307301737,2.830294465
1743,6.434426279,6.595084236
1744,5.265476709,6.430086913
1745,1.343288832,1.427533078
1746,1.300098342,2.210957947
1747,3.82444624,3.994382167
1748,5.170573472,6.016108797
1749,7.896218555,7.890595998
1750,5.769935108,6.610810032
1751,6.749411155,7.652353817
1752,3.665950306,3.982713064
1753,3.657983066,3.354588812
1754,4.292419305,3.616201515
1755,1.047378957,1.685414614
1756,5.987256307,5.421755251
1757,3.766083253,4.019540485
1758,3.102564886,2.294332715
1759,1.598710843,4.125562539
1760,3.39517291,3.429890467
1761,1.147487675,2.905582271
1762,1.888378898,2.603660658
1763,5.24918151,3.981885032
1764,2.856061212,3.568196077
1765,1.226614495,2.334600093
1766,1.664247855,2.500225035
1767,3.998260449,3.750145747
1768,2.05017904,3.083646062
1769,1.949960086,2.172860616
1770,4.426531906,4.295081263
1771,1.190218399,2.978462053
1772,2.749978236,3.210018832
1773,1.161358123,2.672423473
1774,2.715155226,4.786367862
1775,1.755898847,2.208736349
1776,2.02172049,2.131358962
1777,3.382986291,3.76969409
1778,3.242419146,4.934527292
1779,4.217288052,3.24317212
1780,2.918152087,3.472768801
1781,4.037314939,3.746569184
1782,3.63468376,3.486391223
1783,1.556659462,2.145300449
1784,1.619289829,2.123758435
1785,2.905389491,3.103694962
1786,1.0035824,4.091638599
1787,1.651276225,2.694842051
1788,3.940246421,2.838954251
1789,3.615262586,3.275450902
1790,5.170570943,4.382479058
1791,6.942057386,5.840698363
1792,2.676465384,4.932349085
1793,10.05395326,5.632317561
1794,8.206131476,5.765171952
1795,5.812227417,4.654412327
1796,5.833398626,6.122954535
1797,1.81028086,1.505690547
1798,5.860177477,5.579405374
1799,1.521552854,2.079228638
1800,1.333931482,1.509152885
1801,9.011192503,7.708801411
1802,1.712693604,2.128543325
1803,5.26832637,4.466241376
1804,3.175238911,4.36764922
1805,2.144324764,1.600887123
1806,1.146529738,5.420660136
1807,6.543333506,5.647233783
1808,5.9419818,3.762283994
1809,5.667637001,3.964087685
1810,3.85993896,3.201081465
1811,4.600040937,4.840376041
1812,3.40659902,4.628058534
1813,4.116884969,5.489288179
1814,1.25781281,1.635809124
1815,6.594457951,6.756644751
1816,4.161191641,3.874212208
1817,4.403443226,4.036359972
1818,6.387580164,5.146665535
1819,1.37304043,3.924651688
1820,5.177696474,5.288544136
1821,6.634154918,6.436729192
1822,7.937241845,6.320207919
1823,2.028762684,2.039203336
1824,4.222732583,3.65160282
1825,8.771457715,5.915853463
1826,3.102986092,4.233538063
1827,4.477531174,4.856993292
1828,4.976196602,3.824002687
1829,7.116032881,4.857358239
1830,1.101647541,1.935624591
1831,3.765720791,2.924318382
1832,2.201650334,2.436115189
1833,1.384311756,1.821940149
1834,4.267466116,5.054597925
1835,1.099157971,1.483407937
1836,1.282475684,2.331001479
1837,5.654421402,5.912391236
1838,3.257008984,3.19344925
1839,3.053983497,3.148860655
1840,3.115954436,2.579755783
1841,3.579004389,3.272540865
1842,4.574546104,5.04566981
1843,2.930208704,3.892672527
1844,1.60567355,1.764973281
1845,7.307972238,6.371888751
1846,3.948997754,3.67928972
1847,1.071800037,1.764487959
1848,2.707897016,1.818379893
1849,3.865517655,4.239325656
1850,5.502838648,4.123093727
1851,5.219124009,3.957913468
1852,4.995801142,3.922641539
1853,3.357264133,2.433182074
1854,4.359148805,3.872672868
1855,4.345021422,5.51628487
1856,3.839352537,2.893898581
1857,1.410148487,1.631231489
1858,4.072695742,3.211397808
1859,1.618294589,1.889109683
1860,5.107439022,4.823660491
1861,3.46985493,3.674110265
1862,1.567182482,3.190995232
1863,2.363797544,2.451199197
1864,1.051563506,2.226704864
1865,4.156710326,4.17611383
1866,2.867929438,3.152942776
1867,1.790313098,1.850045474
1868,2.40780188,2.912824453
1869,5.518865355,4.310147193
1870,3.637763606,3.383289197
1871,4.929132324,4.111781785
1872,5.087747663,5.150810183
1873,5.172646135,3.39601794
1874,1.249913511,1.616481042
1875,3.095788655,2.711053448
1876,5.205510886,4.037061579
1877,3.092540439,3.695454007
1878,2.604822496,3.164937348
1879,6.460489189,3.804582195
1880,4.181602623,2.340994121
1881,4.719480532,5.788744368
1882,1.942269004,1.74101774
1883,6.437206999,5.277968168
1884,1.843647468,1.768938795
1885,3.690314817,2.533544485
1886,2.446822242,2.241433145
1887,3.993613008,4.061924217
1888,4.591405954,4.904500786
1889,3.878614114,2.357480512
1890,2.87367972,3.609981585
1891,1.053699754,2.504279454
1892,1.564060668,1.519133666
1893,3.053256932,2.351410834
1894,1.066833224,1.513819794
1895,3.937052508,2.824290816
1896,4.073874901,4.080139311
1897,1.036622922,1.863044799
1898,4.042595672,3.391821878
1899,4.446965371,4.350595122
1900,1.132271483,1.688521234
1901,4.162530974,3.396283191
1902,3.754371944,4.032276188
1903,5.631489802,5.096047161
1904,2.771448418,2.942789254
1905,1.582103461,2.379931682
1906,2.309046245,3.276191177
1907,4.311061167,6.181995278
1908,1.468407111,1.605185942
1909,1.36162576,2.279452462
1910,1.509006053,1.990574589
1911,1.282482994,1.440571364
1912,1.58383464,1.986832639
1913,1.856118012,2.329581637
1914,1.586905011,2.199393992
1915,2.717156663,2.205943931
1916,3.441298839,4.061488708
1917,2.792769818,2.783435081
1918,1.614614492,2.125507071
1919,3.186762985,3.44554846
1920,1.885992864,2.215335097
1921,7.990190132,6.674906835
1922,2.639318725,3.662779935
1923,2.684401286,3.583679767
1924,4.318147817,4.592617599
1925,6.668523115,5.557848924
1926,3.521147614,2.054916137
1927,3.852467615,4.719030011
1928,1.796652339,3.113256286
1929,4.01152503,3.687254972
1930,2.203388161,2.385515449
1931,2.872439735,3.637966108
1932,4.971125781,4.462059104
1933,2.207878431,2.521959914
1934,1.170926171,2.526367832
1935,5.474650333,5.103909564
1936,1.503274885,2.039637942
1937,6.555391755,5.194508227
1938,1.902238522,1.943403015
1939,5.63994322,4.732625245
1940,2.615871271,3.647021892
1941,1.760892401,2.340877115
1942,5.261596414,4.310843657
1943,2.51969877,3.452802503
1944,1.491716145,1.758400252
1945,2.222345114,2.193007275
1946,5.545831522,5.363207198
1947,2.812101205,3.017273203
1948,6.137666512,5.524180774
1949,1.700011594,1.712571402
1950,4.504653463,5.179587795
1951,4.440025345,4.918293749
1952,1.26262335,1.674652201
1953,5.277838774,4.005271436
1954,4.423706413,3.660733355
1955,5.331056099,3.996708668
1956,2.554539733,2.034628355
1957,1.79310794,1.425145182
1958,6.485712784,4.667546399
1959,5.094572074,3.338691548
1960,2.38542408,2.164847623
1961,2.45461362,2.580959583
1962,1.535703411,2.498481361
1963,3.274080816,2.614708467
1964,2.348857015,3.001711241
1965,4.679551483,3.551928574
1966,5.761547009,3.695509603
1967,4.678671861,3.257436947
1968,3.765558933,4.60438895
1969,1.341053463,1.713731838
1970,1.713559061,3.00016927
1971,1.244874076,1.775423109
1972,1.014285794,1.65173166
1973,2.503215869,1.944849151
1974,3.739569184,3.844927395
1975,2.102026337,2.07220495
1976,3.932481698,4.837220555
1977,4.278151044,4.370099542
1978,4.309385421,5.399425129
1979,2.277915845,2.210276101
1980,4.036884985,4.117875769
1981,2.90200951,2.657977316
1982,2.35012418,3.58323826
1983,5.925104173,2.917864922
1984,5.488537888,4.515658025
1985,2.548252345,2.404211322
1986,1.207036228,1.754979281
1987,4.158292452,4.995194761
1988,1.382320136,2.083951874
1989,4.242807394,4.13096627
1990,4.046623655,4.168551805
1991,1.746555134,2.570339619
1992,1.424534392,2.531101112
1993,5.082940642,3.867351416
1994,5.279958502,3.737683762
1995,2.127796821,2.649781938
1996,5.859122112,6.250150548
1997,2.934905163,2.047768423
1998,2.10809717,1.632773245
1999,2.914084899,2.639858666
2000,6.67203677,5.523777036
2001,1.742111192,2.447223495
2002,2.40420711,2.15970633
2003,6.587005198,4.934528764
2004,5.032122086,4.878244569
2005,1.542796984,1.651104878
2006,4.504387579,5.850250047
2007,2.087653733,3.142273132
2008,1.850259506,1.852614405
2009,1.85014439,2.435885508
2010,5.423798252,4.611940242
2011,1.832069406,1.811901421
2012,2.636377806,2.760041945
2013,1.619296532,2.629650975
2014,5.803050214,3.690189449
2015,1.718318054,2.535421949
2016,2.975226447,1.771140184
2017,1.71065277,2.330561815
2018,1.628616677,1.845136652
2019,4.541546708,5.605953703
2020,1.569941821,3.494506005
2021,4.600964167,3.400400913
2022,1.637208162,2.889399924
2023,6.361983026,5.161130272
2024,4.634974138,3.347803176
2025,1.136223112,1.718651876
2026,6.35651461,5.570593566
2027,2.62560284,2.497398483
2028,1.427299272,1.68965041
2029,6.04268297,3.646785158
2030,1.802341877,2.908311495
2031,2.024630573,2.970300517
2032,2.831211891,3.765673513
2033,2.414583228,1.65689285
2034,1.243583229,2.050229181
2035,1.17164721,1.77179496
2036,3.334367933,4.354247442
2037,2.126887057,2.408936019
2038,2.880324038,3.028607116
2039,3.446071088,2.441797717
2040,3.13736094,4.414755858
2041,2.22980241,3.445761754
2042,4.332147797,4.04322546
2043,3.370211313,2.710565502
2044,1.856901477,2.236345687
2045,6.679017684,5.93935726
2046,2.509189085,2.434085501
2047,2.311228076,2.737453995
2048,6.180934326,5.350151499
2049,1.355273164,1.735160758
2050,1.407314655,2.036287116
2051,3.88270619,4.697030545
2052,2.542653931,2.315858632
2053,4.644302817,5.149450845
2054,2.488797593,2.103219439
2055,4.493161123,2.333612375
2056,3.532771913,4.338096694
2057,5.025461299,5.433076493
2058,3.460389261,2.10249646
2059,5.332830803,5.719542372
2060,1.509006442,2.273104374
2061,6.986318379,3.403839341
2062,2.395914555,2.599431062
2063,2.094660536,2.762740841
2064,2.733148329,2.6540278
2065,2.550138554,2.022717198
2066,3.979115639,1.918337705
2067,1.566028121,1.750602546
2068,1.891887478,1.717171832
2069,5.366490592,5.128230975
2070,3.561059059,2.837216517
2071,2.980529549,2.435041664
2072,1.10004219,2.125275086
2073,4.625149214,2.217371424
2074,2.064256772,2.144059628
2075,3.496390016,3.078541192
2076,4.511607364,4.118041954
2077,2.319702704,2.256153753
2078,5.07294693,4.672264063
2079,4.207783993,4.28867567
2080,6.078405932,5.26968577
2081,1.63584968,3.084841707
2082,8.894212313,5.711146359
2083,2.342670093,2.039060773
2084,1.764282916,2.706158209
2085,8.547695213,5.976937425
2086,3.059547372,2.957778678
2087,2.22917256,3.121706576
2088,8.106145241,4.268192923
2089,1.639899515,2.424317318
2090,1.272132744,4.927395902
2091,9.224053325,6.19428199
2092,5.153289849,6.76348229
2093,1.331124347,2.783372605
2094,1.520105501,2.35407446
2095,3.980472408,2.827192103
2096,1.53499838,2.404957885
2097,6.137785119,3.749911715
2098,4.892236572,4.116824624
2099,6.897093645,6.907992191
2100,8.611163672,7.147474683
2101,2.599157929,3.069295433
2102,6.352480963,6.422526024
2103,4.031099637,4.833438434
2104,4.004807387,3.531888626
2105,3.16153022,4.436614065
2106,2.196852663,2.349130612
2107,2.75378206,3.285147966
2108,1.808190214,1.659747439
2109,2.010002099,2.399831779
2110,5.930837022,3.838979425
2111,1.485991981,3.019129695
2112,2.673205671,2.240692378
2113,2.419639992,1.932536359
2114,1.109145313,1.47785207
2115,3.388899768,5.629263884
2116,3.100008618,3.123487804
2117,2.580666087,4.196660135
2118,1.53173371,3.228430646
2119,3.847450343,4.436556591
2120,4.322395823,4.063818377
2121,1.404392753,1.944983929
2122,3.931908065,3.632852195
2123,4.19368028,3.50073799
2124,1.105294825,1.951393907
2125,4.69420381,3.383788768
2126,1.601605762,3.072817914
2127,3.735541259,4.385639153
2128,2.189610979,4.735213129
2129,1.023000055,1.774903196
2130,1.416787652,1.638524353
2131,2.430945428,2.650111133
2132,1.292091167,4.17632554
2133,2.082941952,3.390513787
2134,2.455837363,3.507528839
2135,2.445081094,2.064692533
2136,3.772044655,4.608169302
2137,4.362783531,1.965711334
2138,1.37473749,1.91818583
2139,4.204240674,4.012310078
2140,2.566514538,3.570542581
2141,2.740455694,3.482407072
2142,1.057257002,2.024303328
2143,2.788271833,2.451825664
2144,1.291875636,1.946665239
2145,4.023767894,2.336150624
2146,2.719661396,2.389302642
2147,2.179777371,2.342721877
2148,3.367968742,3.360741512
2149,2.423218675,2.489307449
2150,1.92665616,2.281043131
2151,3.963124402,4.181630747
2152,1.858090556,2.503368234
2153,4.817568108,5.355867768
2154,4.281462035,3.676143938
2155,1.087846398,4.0856727
2156,1.241388816,1.577148115
2157,4.815372992,4.145259617
2158,1.707359082,2.019980243
2159,1.554759803,3.583541423
2160,2.56370704,1.853660799
2161,1.232795858,3.775143941
2162,1.333971478,1.606740421
2163,4.478103634,5.058119647
2164,2.918187616,2.746265728
2165,4.571791581,5.252694378
2166,1.40061944,3.593711082
2167,3.272010867,2.506962457
2168,5.543422715,2.868170731
2169,2.763056222,2.792891357
2170,1.76743654,2.41084556
2171,6.131533916,4.895810457
2172,1.792092025,3.934365904
2173,4.145119391,4.038337435
2174,3.996617865,5.996009232
2175,2.881916695,3.957977225
2176,1.970838031,2.761379218
2177,3.157492415,2.462817331
2178,4.224779629,4.976471743
2179,4.08243523,3.410669108
2180,3.413207979,5.689261731
2181,4.64000191,4.238076354
2182,5.347283668,4.776845616
2183,4.870748344,3.661881985
2184,5.536872978,4.004320284
2185,5.385272682,5.041806287
2186,3.484768958,3.061218968
2187,3.18604618,2.942591911
2188,3.225672485,3.81629224
2189,4.545616188,3.150615081
2190,1.792154981,1.662414948
2191,2.345722623,2.478227662
2192,2.672726984,3.2445499
2193,1.414696688,1.509076199
2194,1.463943527,2.603381736
2195,1.082615619,1.734460685
2196,4.008234889,3.188337384
2197,1.235002934,1.398561024
2198,1.435395389,1.58498485
2199,1.489407291,2.775251211
2200,3.046769137,2.940424547
2201,3.473113965,3.231413745
2202,1.354326676,1.621225418
2203,1.634740596,1.763852887
2204,2.745364197,2.976448213
2205,1.067731006,1.557569059
2206,1.716389871,2.316763192
2207,2.09918472,2.490184282
2208,2.525461158,3.178399007
2209,2.333651899,2.937318176
2210,2.668560702,2.955766382
2211,2.578237416,3.760656006
2212,3.789115275,3.165631043
2213,3.028560955,2.349265929
2214,2.269393554,3.617671479
2215,2.503443931,1.949526973
2216,1.541336853,1.964480306
2217,1.003043278,1.707752892
2218,2.623892243,2.472466652
2219,2.087647102,2.693361401
2220,3.136416486,2.919320532
2221,1.566296104,2.539661342
2222,2.912723023,3.247424745
2223,3.821938704,3.296790356
2224,3.503939328,3.219197779
2225,1.067476685,1.890161274
2226,2.08116031,2.451011799
2227,3.121325458,3.050200665
2228,3.874030127,3.546780567
2229,1.793997129,2.642643135
2230,2.588741052,3.756725581
2231,1.055708061,1.457572583
2232,1.328645346,1.646414528
2233,1.145485859,2.030253478
2234,2.700857593,2.31104222
2235,2.567765105,2.433294961
2236,3.739696899,2.725275681
2237,2.469821082,2.752506341
2238,1.019834693,1.753125178
2239,3.76814386,2.990825353
2240,1.211658502,1.42041338
2241,3.933644726,3.558070986
2242,1.208434542,1.698869132
2243,1.976950967,3.209879686
2244,1.782077243,1.781518118
2245,3.058539473,3.069958937
2246,1.972252741,2.661620924
2247,1.830787491,1.946037441
2248,4.041657435,2.912160853
2249,3.86816503,2.97816889
2250,1.953188127,3.130598698
2251,1.15055578,1.741200633
2252,2.975171491,3.107028304
2253,2.896759808,2.463367937
2254,2.766004565,2.647633242
2255,1.619486734,1.4151817
2256,2.968196807,3.208116823
2257,3.3472147,3.541401004
2258,1.661302493,1.996398303
2259,1.823718812,3.213646872
2260,2.73026031,4.237885203
2261,2.105586068,2.135628195
2262,1.910353202,2.429397462
2263,2.970698133,2.920931266
2264,5.003460908,2.975837997
2265,3.553626211,2.509214908
2266,5.118397657,4.287343253
2267,5.146455403,4.353448868
2268,1.714106928,2.369993027
2269,2.946156657,2.649987918
2270,2.157874826,1.923307626
2271,4.803902772,4.598029472
2272,5.397623935,4.439837715
2273,1.329052016,2.536020162
2274,2.396724725,3.86319908
2275,1.583066876,2.245217225
2276,2.566390586,1.939667417
2277,2.718488786,3.037394848
2278,4.208700492,4.693653057
2279,3.196190293,5.063550682
2280,1.801475622,2.991134847
2281,3.44687002,4.364795913
2282,2.70966805,3.823709426
2283,2.826254712,2.178726487
2284,3.210404245,2.796829051
2285,1.424519666,4.78740998
2286,3.895190371,3.381043379
2287,4.906735584,5.577502721
2288,4.218074531,4.648774591
2289,4.476878979,5.223521255
2290,2.909658305,2.992455369
2291,1.180005424,1.630410718
2292,1.858236268,1.968215387
2293,1.139098563,1.817561476
2294,2.164995412,2.90874396
2295,2.442697353,1.60881395
2296,1.071821575,3.056358104
2297,2.476969482,2.582795082
2298,1.010857282,1.5311255
2299,2.437811033,2.735534075
2300,1.160795549,3.498059852
2301,3.634660351,3.4134901
2302,3.84357979,3.178928089
2303,2.307441589,2.392584906
2304,2.426850284,1.856322333
2305,2.515981055,2.879297867
2306,3.141008735,3.05025581
2307,3.112423374,2.749032176
2308,2.239684847,2.668129228
2309,1.102084257,2.960314047
2310,2.924926883,3.021730602
2311,2.449597545,2.434491373
2312,1.062222601,2.562809622
2313,3.780928999,3.606497201
2314,1.350090364,2.217754429
2315,2.478764664,3.050449998
2316,2.530124968,3.317053567
2317,3.011270808,2.646289964
2318,2.20614659,2.682120925
2319,1.714771371,2.591325558
2320,1.221653025,1.486825177
2321,3.55450612,3.067874033
2322,2.168440682,2.655375105
2323,6.312340323,6.093491557
2324,2.796640992,2.695166776
2325,7.809370042,6.601089547
2326,3.559863629,3.206790191
2327,1.635199815,2.040316912
2328,4.134550362,3.927103981
2329,2.691570811,3.605910928
2330,1.563983668,1.818783031
2331,5.215477349,5.585072894
2332,4.003573556,4.259594929
2333,5.674554296,5.458074094
2334,3.580006939,5.505916217
2335,3.823637275,3.808895834
2336,6.432260384,6.177443782
2337,3.177883268,3.311053667
2338,1.735063767,2.337136344
2339,3.857172202,4.878944434
2340,7.300449668,7.096267281
2341,3.696104504,3.112175489
2342,3.776930841,3.973822922
2343,5.819255292,4.316892356
2344,4.59530844,3.830032934
2345,4.864700434,3.600546586
2346,4.379553512,4.548356233
2347,2.218336219,2.362246282
2348,4.965714818,4.622580681
2349,6.260422961,5.367472254
2350,4.613878612,3.424209813
2351,5.098437766,6.200765843
2352,6.262805225,5.554517128
2353,5.513254512,5.481305513
2354,5.539632428,3.963997973
2355,7.781001566,6.629817642
2356,2.949303255,2.719508962
2357,1.417452789,2.421144225
2358,2.352379991,2.479918423
2359,2.792668801,3.128617828
2360,4.465355767,3.963264583
2361,1.54858903,1.74671939
2362,8.117687808,6.704826947
2363,1.444760903,1.599886496
2364,3.316271335,3.552145542
2365,4.173182128,3.527890562
2366,2.23578349,2.286077519
2367,5.303760598,5.514691078
2368,3.357059724,3.270792295
2369,2.744852966,3.99541057
2370,1.921076897,3.372236621
2371,6.607935294,6.041431636
2372,5.20896172,3.646959084
2373,3.510757479,4.814969653
2374,2.259518802,3.368028851
2375,2.633561798,4.396239347
2376,1.605593981,2.408436157
2377,6.136626335,4.689259508
2378,2.712902221,3.954390907
2379,4.881996218,5.247814892
2380,4.163248842,2.428308303
2381,1.480017178,3.17094498
2382,3.956173791,3.884599745
2383,5.460009923,4.829286828
2384,6.610986456,4.224218478
2385,2.980863996,2.866770428
2386,2.730554797,2.152731751
2387,4.699905133,4.035680325
2388,2.241371711,3.607740401
2389,5.468821975,3.114551266
2390,5.742076924,2.81701697
2391,4.230196326,2.980288669
2392,4.022313356,3.377355285
2393,1.581819702,2.27298199
2394,1.287765361,1.737592099
2395,6.125378246,3.137227599
